\relax 
\providecommand\hyper@newdestlabel[2]{}
\providecommand\HyperFirstAtBeginDocument{\AtBeginDocument}
\HyperFirstAtBeginDocument{\ifx\hyper@anchor\@undefined
\global\let\oldcontentsline\contentsline
\gdef\contentsline#1#2#3#4{\oldcontentsline{#1}{#2}{#3}}
\global\let\oldnewlabel\newlabel
\gdef\newlabel#1#2{\newlabelxx{#1}#2}
\gdef\newlabelxx#1#2#3#4#5#6{\oldnewlabel{#1}{{#2}{#3}}}
\AtEndDocument{\ifx\hyper@anchor\@undefined
\let\contentsline\oldcontentsline
\let\newlabel\oldnewlabel
\fi}
\fi}
\global\let\hyper@last\relax 
\gdef\HyperFirstAtBeginDocument#1{#1}
\providecommand*\HyPL@Entry[1]{}
\HyPL@Entry{0<</S/D>>}
\providecommand\tcolorbox@label[2]{}
\citation{Lafferriere2001}
\@writefile{toc}{\contentsline {section}{\numberline {1}What's new compared to CORA 2016?}{4}{section.1}}
\@writefile{toc}{\contentsline {section}{\numberline {2}Philosophy and Architecture}{4}{section.2}}
\citation{Althoff2015a,Althoff2016a,Althoff2018b}
\@writefile{toc}{\contentsline {section}{\numberline {3}Installation}{5}{section.3}}
\@writefile{toc}{\contentsline {section}{\numberline {4}Connections to and from SpaceEx}{6}{section.4}}
\@writefile{toc}{\contentsline {subsection}{\numberline {4.1}Importing SpaceEx Models}{6}{subsection.4.1}}
\@writefile{toc}{\contentsline {subsection}{\numberline {4.2}CORA/SX}{6}{subsection.4.2}}
\@writefile{toc}{\contentsline {section}{\numberline {5}Architecture}{6}{section.5}}
\@writefile{lof}{\contentsline {figure}{\numberline {1}{\ignorespaces Unified Modeling Language (UML) class diagram of CORA.\relax }}{6}{figure.caption.1}}
\providecommand*\caption@xref[2]{\@setref\relax\@undefined{#1}}
\newlabel{fig:classDiagram}{{1}{6}{Unified Modeling Language (UML) class diagram of CORA.\relax }{figure.caption.1}{}}
\@writefile{toc}{\contentsline {section}{\numberline {6}Set Representations and Operations}{7}{section.6}}
\newlabel{sec:setRepresentationsAndOperations}{{6}{7}{Set Representations and Operations}{section.6}{}}
\@writefile{lof}{\contentsline {figure}{\numberline {2}{\ignorespaces Set conversions supported. Solid arrows represent exact conversions, while dashed arrows represent over-approximative conversions. The arrows are labeled by the corresponding method to carry out the conversion.\relax }}{7}{figure.caption.2}}
\newlabel{fig:setConversion}{{2}{7}{Set conversions supported. Solid arrows represent exact conversions, while dashed arrows represent over-approximative conversions. The arrows are labeled by the corresponding method to carry out the conversion.\relax }{figure.caption.2}{}}
\citation{Girard2005}
\@writefile{toc}{\contentsline {subsection}{\numberline {6.1}Zonotopes}{8}{subsection.6.1}}
\newlabel{sec:zonotope}{{6.1}{8}{Zonotopes}{subsection.6.1}{}}
\newlabel{eq:zonotope}{{1}{8}{Zonotopes}{equation.6.1}{}}
\@writefile{lof}{\contentsline {figure}{\numberline {3}{\ignorespaces Step-by-step construction of a zonotope.\relax }}{8}{figure.caption.3}}
\newlabel{fig:zonotope}{{3}{8}{Step-by-step construction of a zonotope.\relax }{figure.caption.3}{}}
\@writefile{lof}{\contentsline {subfigure}{\numberline{(a)}{\ignorespaces {$c\oplus l^{(1)}$}}}{8}{figure.caption.3}}
\@writefile{lof}{\contentsline {subfigure}{\numberline{(b)}{\ignorespaces {$c\oplus l^{(1)} \oplus l^{(2)}$}}}{8}{figure.caption.3}}
\@writefile{lof}{\contentsline {subfigure}{\numberline{(c)}{\ignorespaces {$c\oplus \ldots \oplus l^{(3)}$}}}{8}{figure.caption.3}}
\citation{Althoff2010a}
\citation{Althoff2010a}
\citation{Althoff2010a}
\citation{Althoff2010a}
\citation{Althoff2014a}
\citation{Gover2010}
\citation{Althoff2010a}
\citation{Althoff2010a}
\citation{Althoff2011b}
\citation{Althoff2010a}
\citation{Althoff2010a}
\citation{Kopetzki2017}
\citation{Combastel2003}
\citation{Kopetzki2017}
\citation{Girard2005}
\citation{Althoff2010a}
\citation{Althoff2010a}
\citation{Althoff2010a}
\citation{Kopetzki2017}
\@writefile{toc}{\contentsline {subsubsection}{\numberline {6.1.1}Method \texttt  {mtimes}}{10}{subsubsection.6.1.1}}
\newlabel{sec:zono_mtimes}{{6.1.1}{10}{Method \texttt {mtimes}}{subsubsection.6.1.1}{}}
\@writefile{lot}{\contentsline {table}{\numberline {1}{\ignorespaces Classes that can be multiplied with a zonotope.\relax }}{10}{table.caption.4}}
\newlabel{tab:zono_mtimes}{{1}{10}{Classes that can be multiplied with a zonotope.\relax }{table.caption.4}{}}
\@writefile{toc}{\contentsline {subsubsection}{\numberline {6.1.2}Method \texttt  {plus}}{10}{subsubsection.6.1.2}}
\newlabel{sec:zono_plus}{{6.1.2}{10}{Method \texttt {plus}}{subsubsection.6.1.2}{}}
\@writefile{lot}{\contentsline {table}{\numberline {2}{\ignorespaces Classes that can be added to a zonotope.\relax }}{10}{table.caption.5}}
\newlabel{tab:zono_plus}{{2}{10}{Classes that can be added to a zonotope.\relax }{table.caption.5}{}}
\@writefile{toc}{\contentsline {subsubsection}{\numberline {6.1.3}Method \texttt  {reduce}}{10}{subsubsection.6.1.3}}
\newlabel{sec:zono_reduce}{{6.1.3}{10}{Method \texttt {reduce}}{subsubsection.6.1.3}{}}
\@writefile{toc}{\contentsline {subsubsection}{\numberline {6.1.4}Method \texttt  {split}}{10}{subsubsection.6.1.4}}
\newlabel{sec:zono_split}{{6.1.4}{10}{Method \texttt {split}}{subsubsection.6.1.4}{}}
\citation{Althoff2010a}
\citation{Althoff2011f}
\@writefile{lot}{\contentsline {table}{\numberline {3}{\ignorespaces Reduction techniques for zonotopes.\relax }}{11}{table.caption.6}}
\newlabel{tab:zono_reduction}{{3}{11}{Reduction techniques for zonotopes.\relax }{table.caption.6}{}}
\@writefile{lot}{\contentsline {table}{\numberline {4}{\ignorespaces Split techniques for zonotopes.\relax }}{11}{table.caption.7}}
\newlabel{tab:zono_split}{{4}{11}{Split techniques for zonotopes.\relax }{table.caption.7}{}}
\@writefile{toc}{\contentsline {subsubsection}{\numberline {6.1.5}Zonotope Example}{11}{subsubsection.6.1.5}}
\newlabel{sec:zonotopeExample}{{6.1.5}{11}{Zonotope Example}{subsubsection.6.1.5}{}}
\citation{Althoff2011f}
\@writefile{lof}{\contentsline {figure}{\numberline {4}{\ignorespaces Zonotopes generated in lines 9-12 of the zonotope example in Sec. \ref  {sec:zonotopeExample}.\relax }}{12}{figure.caption.8}}
\newlabel{fig:zonotopeExample_1}{{4}{12}{Zonotopes generated in lines 9-12 of the zonotope example in Sec. \ref {sec:zonotopeExample}.\relax }{figure.caption.8}{}}
\@writefile{lof}{\contentsline {figure}{\numberline {5}{\ignorespaces Sets generated in lines 18-19 of the zonotope example in Sec. \ref  {sec:zonotopeExample}.\relax }}{12}{figure.caption.8}}
\newlabel{fig:zonotopeExample_2}{{5}{12}{Sets generated in lines 18-19 of the zonotope example in Sec. \ref {sec:zonotopeExample}.\relax }{figure.caption.8}{}}
\@writefile{toc}{\contentsline {subsection}{\numberline {6.2}Zonotope Bundles}{12}{subsection.6.2}}
\newlabel{sec:zonotopeBundle}{{6.2}{12}{Zonotope Bundles}{subsection.6.2}{}}
\citation{Althoff2011f}
\citation{Althoff2011f}
\citation{Althoff2011f}
\citation{Althoff2011f}
\citation{Althoff2011f}
\citation{Althoff2010a}
\citation{Althoff2014a}
\citation{Girard2005}
\citation{Althoff2010a}
\citation{Althoff2013a}
\citation{Althoff2013a}
\citation{Hoefkens2001}
\@writefile{toc}{\contentsline {subsubsection}{\numberline {6.2.1}Zonotope Bundle Example}{14}{subsubsection.6.2.1}}
\newlabel{sec:zonotopeBundleExample}{{6.2.1}{14}{Zonotope Bundle Example}{subsubsection.6.2.1}{}}
\@writefile{lof}{\contentsline {figure}{\numberline {6}{\ignorespaces Sets generated in lines 7-9 of the zonotope bundle example in Sec. \ref  {sec:zonotopeBundleExample}.\relax }}{14}{figure.caption.9}}
\newlabel{fig:zonotopeBundleExample}{{6}{14}{Sets generated in lines 7-9 of the zonotope bundle example in Sec. \ref {sec:zonotopeBundleExample}.\relax }{figure.caption.9}{}}
\@writefile{toc}{\contentsline {subsection}{\numberline {6.3}Polynomial Zonotopes}{14}{subsection.6.3}}
\newlabel{sec:polynomialZonotopes}{{6.3}{14}{Polynomial Zonotopes}{subsection.6.3}{}}
\newlabel{eq:polynomialZonotope}{{2}{15}{Polynomial Zonotopes}{equation.6.2}{}}
\citation{Althoff2011f}
\citation{Althoff2013a}
\@writefile{lof}{\contentsline {figure}{\numberline {7}{\ignorespaces Over-approximative plot of a polynomial zonotope as specified in the figure. Random samples of possible values demonstrate the accuracy of the over-approximative plot.\relax }}{16}{figure.caption.10}}
\newlabel{fig:polynomialZonotope}{{7}{16}{Over-approximative plot of a polynomial zonotope as specified in the figure. Random samples of possible values demonstrate the accuracy of the over-approximative plot.\relax }{figure.caption.10}{}}
\citation{Althoff2013a}
\citation{Girard2005}
\citation{Althoff2013a}
\@writefile{toc}{\contentsline {subsubsection}{\numberline {6.3.1}Method \texttt  {reduce}}{17}{subsubsection.6.3.1}}
\newlabel{sec:quadZono_reduce}{{6.3.1}{17}{Method \texttt {reduce}}{subsubsection.6.3.1}{}}
\@writefile{lot}{\contentsline {table}{\numberline {5}{\ignorespaces Reduction techniques for zonotopes.\relax }}{17}{table.caption.11}}
\newlabel{tab:polyZono_reduction}{{5}{17}{Reduction techniques for zonotopes.\relax }{table.caption.11}{}}
\@writefile{toc}{\contentsline {subsubsection}{\numberline {6.3.2}Polynomial Zonotope Example}{17}{subsubsection.6.3.2}}
\newlabel{sec:polynomialZonotopeExample}{{6.3.2}{17}{Polynomial Zonotope Example}{subsubsection.6.3.2}{}}
\citation{Althoff2009d}
\citation{Althoff2009d}
\citation{Berleant1993}
\@writefile{lof}{\contentsline {figure}{\numberline {8}{\ignorespaces Sets generated in lines 11-12 of the polynomial zonotope example in Sec. \ref  {sec:polynomialZonotopeExample}.\relax }}{18}{figure.caption.12}}
\newlabel{fig:quadZonotopeExample}{{8}{18}{Sets generated in lines 11-12 of the polynomial zonotope example in Sec. \ref {sec:polynomialZonotopeExample}.\relax }{figure.caption.12}{}}
\@writefile{toc}{\contentsline {subsection}{\numberline {6.4}Probabilistic Zonotopes}{18}{subsection.6.4}}
\newlabel{sec:probabilisticZonotopes}{{6.4}{18}{Probabilistic Zonotopes}{subsection.6.4}{}}
\citation{Althoff2009d}
\citation{Althoff2009d}
\citation{Althoff2009d}
\citation{Althoff2009d}
\citation{Althoff2009d}
\@writefile{lof}{\contentsline {figure}{\numberline {9}{\ignorespaces Construction of a probabilistic zonotope.\relax }}{19}{figure.caption.13}}
\newlabel{fig_probZonotopesEx}{{9}{19}{Construction of a probabilistic zonotope.\relax }{figure.caption.13}{}}
\@writefile{lof}{\contentsline {subfigure}{\numberline{(a)}{\ignorespaces {PDF of $(0,\relax $\@@underline {\hbox {g}}\mathsurround \z@ $\relax ^{(1)})$.}}}{19}{figure.caption.13}}
\@writefile{lof}{\contentsline {subfigure}{\numberline{(b)}{\ignorespaces {PDF of $(0,\relax $\@@underline {\hbox {g}}\mathsurround \z@ $\relax ^{(1, 2)})$.}}}{19}{figure.caption.13}}
\@writefile{lof}{\contentsline {subfigure}{\numberline{(c)}{\ignorespaces {EPH of $(0,g^{(1\ldots 2)},$ $\relax $\@@underline {\hbox {g}}\mathsurround \z@ $\relax ^{(1\ldots 2)})$.}}}{19}{figure.caption.13}}
\citation{Scott2016}
\@writefile{toc}{\contentsline {subsubsection}{\numberline {6.4.1}Probabilistic Zonotope Example}{20}{subsubsection.6.4.1}}
\newlabel{sec:probabilisticZonotopeExample}{{6.4.1}{20}{Probabilistic Zonotope Example}{subsubsection.6.4.1}{}}
\@writefile{lof}{\contentsline {figure}{\numberline {10}{\ignorespaces Sets generated in lines 10-15 of the probabilistic zonotope example in Sec. \ref  {sec:probabilisticZonotopeExample}.\relax }}{20}{figure.caption.14}}
\newlabel{fig:probZonotopeExample}{{10}{20}{Sets generated in lines 10-15 of the probabilistic zonotope example in Sec. \ref {sec:probabilisticZonotopeExample}.\relax }{figure.caption.14}{}}
\@writefile{toc}{\contentsline {subsection}{\numberline {6.5}Constrained Zonotopes}{20}{subsection.6.5}}
\newlabel{sec:conZonotope}{{6.5}{20}{Constrained Zonotopes}{subsection.6.5}{}}
\newlabel{eq:constrainedZonotope}{{3}{20}{Constrained Zonotopes}{equation.6.3}{}}
\citation{Scott2016}
\citation{Scott2016}
\citation{Scott2016}
\@writefile{toc}{\contentsline {subsubsection}{\numberline {6.5.1}Method \texttt  {and}}{21}{subsubsection.6.5.1}}
\newlabel{sec:conZono_and}{{6.5.1}{21}{Method \texttt {and}}{subsubsection.6.5.1}{}}
\@writefile{toc}{\contentsline {subsubsection}{\numberline {6.5.2}Method \texttt  {enclose}}{21}{subsubsection.6.5.2}}
\newlabel{sec:conZono_enclose}{{6.5.2}{21}{Method \texttt {enclose}}{subsubsection.6.5.2}{}}
\newlabel{eq:constrainedZonotopeEnclose}{{4}{21}{Method \texttt {enclose}}{equation.6.4}{}}
\citation{Scott2016}
\citation{Scott2016}
\citation{Scott2016}
\@writefile{lot}{\contentsline {table}{\numberline {6}{\ignorespaces Classes that can be intersected with a \texttt  {conZonotope} object.\relax }}{22}{table.caption.15}}
\newlabel{tab:conZono_and}{{6}{22}{Classes that can be intersected with a \texttt {conZonotope} object.\relax }{table.caption.15}{}}
\@writefile{lot}{\contentsline {table}{\numberline {7}{\ignorespaces Classes that represent valid values for the vector $t$ in \textup  {\hbox {\mathsurround \z@ \normalfont  (\ignorespaces \ref  {eq:constrainedZonotopeEnclose}\unskip \@@italiccorr )}}.\relax }}{22}{table.caption.16}}
\newlabel{tab:conZono_enclose}{{7}{22}{Classes that represent valid values for the vector $t$ in \eqref {eq:constrainedZonotopeEnclose}.\relax }{table.caption.16}{}}
\@writefile{toc}{\contentsline {subsubsection}{\numberline {6.5.3}Method \texttt  {plus}}{22}{subsubsection.6.5.3}}
\newlabel{sec:conZono_plus}{{6.5.3}{22}{Method \texttt {plus}}{subsubsection.6.5.3}{}}
\@writefile{lot}{\contentsline {table}{\numberline {8}{\ignorespaces Classes that can be added to a \texttt  {conZonotope} object.\relax }}{22}{table.caption.17}}
\newlabel{tab:conZono_plus}{{8}{22}{Classes that can be added to a \texttt {conZonotope} object.\relax }{table.caption.17}{}}
\@writefile{toc}{\contentsline {subsubsection}{\numberline {6.5.4}Method \texttt  {reduce}}{22}{subsubsection.6.5.4}}
\newlabel{sec:conZono_reduce}{{6.5.4}{22}{Method \texttt {reduce}}{subsubsection.6.5.4}{}}
\@writefile{toc}{\contentsline {subsubsection}{\numberline {6.5.5}Constrained Zonotope Example}{22}{subsubsection.6.5.5}}
\newlabel{sec:conZonotopeExample}{{6.5.5}{22}{Constrained Zonotope Example}{subsubsection.6.5.5}{}}
\@writefile{lof}{\contentsline {figure}{\numberline {11}{\ignorespaces Zonotope (blue) and the corresponding constrained zonotope (red) generated in the constrained zonotope example in Sec. \ref  {sec:conZonotopeExample}\relax }}{23}{figure.caption.18}}
\newlabel{fig:conZonoExample_1}{{11}{23}{Zonotope (blue) and the corresponding constrained zonotope (red) generated in the constrained zonotope example in Sec. \ref {sec:conZonotopeExample}\relax }{figure.caption.18}{}}
\@writefile{lof}{\contentsline {figure}{\numberline {12}{\ignorespaces Visualization of the constraints for the \texttt  {conZonotope} object generated in the constrained zonotope example in Sec. \ref  {sec:conZonotopeExample}.\relax }}{23}{figure.caption.18}}
\newlabel{fig:conZonoExample_2}{{12}{23}{Visualization of the constraints for the \texttt {conZonotope} object generated in the constrained zonotope example in Sec. \ref {sec:conZonotopeExample}.\relax }{figure.caption.18}{}}
\@writefile{toc}{\contentsline {subsection}{\numberline {6.6}MPT Polytopes}{23}{subsection.6.6}}
\newlabel{sec:mptPolytopes}{{6.6}{23}{MPT Polytopes}{subsection.6.6}{}}
\citation{Ziegler1995}
\citation{Kaibel2003}
\@writefile{toc}{\contentsline {paragraph}{H-Representation of a Polytope}{24}{subsection.6.6}}
\@writefile{toc}{\contentsline {paragraph}{V-Representation of a Polytope}{24}{subsection.6.6}}
\@writefile{lof}{\contentsline {figure}{\numberline {13}{\ignorespaces Possible representations of a polytope.\relax }}{24}{figure.caption.19}}
\newlabel{fig_polytope}{{13}{24}{Possible representations of a polytope.\relax }{figure.caption.19}{}}
\@writefile{lof}{\contentsline {subfigure}{\numberline{(a)}{\ignorespaces {$V-representation$}}}{24}{figure.caption.19}}
\@writefile{lof}{\contentsline {subfigure}{\numberline{(b)}{\ignorespaces {$H-representation$}}}{24}{figure.caption.19}}
\@writefile{toc}{\contentsline {subsubsection}{\numberline {6.6.1}MPT Polytope Example}{25}{subsubsection.6.6.1}}
\newlabel{sec:mptPolytopeExample}{{6.6.1}{25}{MPT Polytope Example}{subsubsection.6.6.1}{}}
\citation{Althoff2016a}
\citation{Althoff2016a}
\citation{Althoff2016a}
\citation{Althoff2016a}
\citation{Althoff2016a}
\citation{Althoff2016a}
\citation{Althoff2016a}
\citation{Althoff2016a}
\citation{Althoff2016a}
\citation{Althoff2016a}
\citation{Althoff2016a}
\@writefile{lof}{\contentsline {figure}{\numberline {14}{\ignorespaces Sets generated in lines 13-16 of the MPT polytope example in Sec. \ref  {sec:mptPolytopeExample}.\relax }}{26}{figure.caption.20}}
\newlabel{fig:mptPolytopeExample}{{14}{26}{Sets generated in lines 13-16 of the MPT polytope example in Sec. \ref {sec:mptPolytopeExample}.\relax }{figure.caption.20}{}}
\@writefile{toc}{\contentsline {subsection}{\numberline {6.7}Intervals}{26}{subsection.6.7}}
\newlabel{sec:interval}{{6.7}{26}{Intervals}{subsection.6.7}{}}
\@writefile{toc}{\contentsline {paragraph}{Methods realizing mathematical functions and operations}{26}{subsection.6.7}}
\citation{Althoff2016a}
\citation{Althoff2016a}
\citation{Althoff2016a}
\citation{Althoff2016a}
\citation{Althoff2016a}
\citation{Althoff2016a}
\citation{Althoff2016a}
\citation{Althoff2016a}
\citation{Althoff2016a}
\citation{Althoff2016a}
\citation{Althoff2016a}
\citation{Althoff2016a}
\citation{Althoff2016a}
\citation{Althoff2016a}
\citation{Althoff2016a}
\@writefile{toc}{\contentsline {paragraph}{Other methods}{27}{subsection.6.7}}
\@writefile{toc}{\contentsline {subsubsection}{\numberline {6.7.1}Interval Example}{28}{subsubsection.6.7.1}}
\newlabel{sec:intervalExample}{{6.7.1}{28}{Interval Example}{subsubsection.6.7.1}{}}
\citation{Makino2003}
\citation{Makino1996}
\citation{Makino2003}
\@writefile{lof}{\contentsline {figure}{\numberline {15}{\ignorespaces Sets generated in lines 11-14 of the interval example in Sec. \ref  {sec:intervalExample}.\relax }}{29}{figure.caption.21}}
\newlabel{fig:intervalExample}{{15}{29}{Sets generated in lines 11-14 of the interval example in Sec. \ref {sec:intervalExample}.\relax }{figure.caption.21}{}}
\@writefile{toc}{\contentsline {subsection}{\numberline {6.8}Taylor Models}{29}{subsection.6.8}}
\newlabel{sec:taylorModels}{{6.8}{29}{Taylor Models}{subsection.6.8}{}}
\newlabel{Taylor:TM def}{{5}{29}{Taylor Models}{equation.6.5}{}}
\newlabel{Taylor: rem def}{{6}{29}{Taylor Models}{equation.6.6}{}}
\citation{Neher2007}
\@writefile{lof}{\contentsline {figure}{\numberline {16}{\ignorespaces Bound estimates for intervals and Taylor models\relax }}{30}{figure.caption.22}}
\newlabel{fig:interval_vs_taylor}{{16}{30}{Bound estimates for intervals and Taylor models\relax }{figure.caption.22}{}}
\@writefile{toc}{\contentsline {subsubsection}{\numberline {6.8.1}Initialization}{30}{subsubsection.6.8.1}}
\newlabel{Taylor:initialization}{{7}{30}{Initialization}{equation.6.7}{}}
\citation{Nedialkov2004}
\@writefile{toc}{\contentsline {subsubsection}{\numberline {6.8.2}Mathematical operations}{31}{subsubsection.6.8.2}}
\citation{Berz1997}
\citation{Makino2003}
\newlabel{Taylor:names}{{8}{32}{Mathematical operations}{equation.6.8}{}}
\newlabel{Taylor:addition, multiplication}{{9}{32}{Mathematical operations}{equation.6.9}{}}
\newlabel{Taylor:division}{{10}{32}{Mathematical operations}{equation.6.10}{}}
\newlabel{Taylor:inverse}{{11}{32}{Mathematical operations}{equation.6.11}{}}
\@writefile{toc}{\contentsline {subsubsection}{\numberline {6.8.3}Bound estimators}{33}{subsubsection.6.8.3}}
\newlabel{sec:Bound_estimators}{{6.8.3}{33}{Bound estimators}{subsubsection.6.8.3}{}}
\@writefile{toc}{\contentsline {subsubsection}{\numberline {6.8.4}Interval substitution}{33}{subsubsection.6.8.4}}
\newlabel{subsubsec: interval subs}{{6.8.4}{33}{Interval substitution}{subsubsection.6.8.4}{}}
\newlabel{Taylor:int bounds estimator}{{12}{33}{Interval substitution}{equation.6.12}{}}
\citation{Trinchero2016}
\@writefile{toc}{\contentsline {subsubsection}{\numberline {6.8.5}Branch and bound}{34}{subsubsection.6.8.5}}
\newlabel{subsubsec: bnb}{{6.8.5}{34}{Branch and bound}{subsubsection.6.8.5}{}}
\newlabel{Taylor:difference}{{13}{34}{Branch and bound}{equation.6.13}{}}
\@writefile{toc}{\contentsline {subsubsection}{\numberline {6.8.6}Small coefficients pruning}{34}{subsubsection.6.8.6}}
\@writefile{toc}{\contentsline {subsubsection}{\numberline {6.8.7}List of the functions realized in CORA}{34}{subsubsection.6.8.7}}
\@writefile{toc}{\contentsline {subsubsection}{\numberline {6.8.8}Taylor Model Example}{34}{subsubsection.6.8.8}}
\newlabel{sec:taylorModelExample}{{6.8.8}{34}{Taylor Model Example}{subsubsection.6.8.8}{}}
\@writefile{toc}{\contentsline {subsection}{\numberline {6.9}Vertices}{34}{subsection.6.9}}
\newlabel{sec:vertices}{{6.9}{34}{Vertices}{subsection.6.9}{}}
\citation{Stursberg2003}
\@writefile{lot}{\contentsline {table}{\numberline {9}{\ignorespaces \relax }}{35}{table.caption.23}}
\newlabel{table:methods}{{9}{35}{\relax }{table.caption.23}{}}
\@writefile{toc}{\contentsline {subsubsection}{\numberline {6.9.1}Vertices Example}{35}{subsubsection.6.9.1}}
\newlabel{sec:verticesExample}{{6.9.1}{35}{Vertices Example}{subsubsection.6.9.1}{}}
\@writefile{lot}{\contentsline {table}{\numberline {10}{\ignorespaces \relax }}{36}{table.caption.24}}
\newlabel{table:auxiliary}{{10}{36}{\relax }{table.caption.24}{}}
\@writefile{toc}{\contentsline {subsection}{\numberline {6.10}Plotting of Sets}{36}{subsection.6.10}}
\newlabel{sec:plotting}{{6.10}{36}{Plotting of Sets}{subsection.6.10}{}}
\@writefile{lof}{\contentsline {figure}{\numberline {17}{\ignorespaces Sets generated in lines 11-14 of the vertices example in Sec. \ref  {sec:verticesExample}.\relax }}{37}{figure.caption.25}}
\newlabel{fig:verticesExample}{{17}{37}{Sets generated in lines 11-14 of the vertices example in Sec. \ref {sec:verticesExample}.\relax }{figure.caption.25}{}}
\@writefile{toc}{\contentsline {section}{\numberline {7}Matrix Set Representations and Operations}{37}{section.7}}
\newlabel{sec:matrixSetRepresentationsAndOperations}{{7}{37}{Matrix Set Representations and Operations}{section.7}{}}
\@writefile{lof}{\contentsline {figure}{\numberline {18}{\ignorespaces Selection of different plot styles.\relax }}{38}{figure.caption.26}}
\newlabel{fig:plotStyles}{{18}{38}{Selection of different plot styles.\relax }{figure.caption.26}{}}
\@writefile{lof}{\contentsline {subfigure}{\numberline{(a)}{\ignorespaces {\texttt {plot(Z)}}}}{38}{figure.caption.26}}
\@writefile{lof}{\contentsline {subfigure}{\numberline{(b)}{\ignorespaces {\texttt {plot(Z, [1,2], 'r:')}}}}{38}{figure.caption.26}}
\@writefile{lof}{\contentsline {subfigure}{\numberline{(c)}{\ignorespaces {\texttt {plotFilled(Z, [1,2], 'w', 'EdgeColor', 'b')}}}}{38}{figure.caption.26}}
\@writefile{lof}{\contentsline {subfigure}{\numberline{(d)}{\ignorespaces {\texttt {plotFilled(Z, [1,2], [.75 .75 .75], 'EdgeColor', 'none')}}}}{38}{figure.caption.26}}
\@writefile{lof}{\contentsline {subfigure}{\numberline{(e)}{\ignorespaces {\texttt {plotFilled(Z, [1,2], [.6 .6 .6], 'EdgeColor', 'none')}}}}{38}{figure.caption.26}}
\@writefile{lof}{\contentsline {subfigure}{\numberline{(f)}{\ignorespaces {\texttt {plot(Z, [1,2], 'k-', 'lineWidth', 3')}}}}{38}{figure.caption.26}}
\@writefile{toc}{\contentsline {subsection}{\numberline {7.1}Matrix Polytopes}{38}{subsection.7.1}}
\newlabel{sec:polytopeMatrix}{{7.1}{38}{Matrix Polytopes}{subsection.7.1}{}}
\newlabel{eq:matrixVertices}{{14}{38}{Matrix Polytopes}{equation.7.14}{}}
\@writefile{toc}{\contentsline {subsubsection}{\numberline {7.1.1}Matrix Polytope Example}{39}{subsubsection.7.1.1}}
\newlabel{sec:matrixPolytopeExample}{{7.1.1}{39}{Matrix Polytope Example}{subsubsection.7.1.1}{}}
\citation{Girard2005}
\citation{Althoff2011b}
\citation{Althoff2011b}
\citation{Althoff2012b}
\citation{Althoff2011b}
\@writefile{toc}{\contentsline {subsection}{\numberline {7.2}Matrix Zonotopes}{41}{subsection.7.2}}
\newlabel{sec:zonotopeMatrix}{{7.2}{41}{Matrix Zonotopes}{subsection.7.2}{}}
\newlabel{eq:matrixZonotope}{{15}{41}{Matrix Zonotopes}{equation.7.15}{}}
\@writefile{toc}{\contentsline {subsubsection}{\numberline {7.2.1}Matrix Zonotope Example}{42}{subsubsection.7.2.1}}
\newlabel{sec:matrixZonotopeExample}{{7.2.1}{42}{Matrix Zonotope Example}{subsubsection.7.2.1}{}}
\citation{Althoff2011b}
\@writefile{toc}{\contentsline {subsection}{\numberline {7.3}Interval Matrices}{43}{subsection.7.3}}
\newlabel{sec:intervalMatrix}{{7.3}{43}{Interval Matrices}{subsection.7.3}{}}
\citation{Althoff2011b}
\citation{Althoff2011b}
\citation{Althoff2011b}
\@writefile{toc}{\contentsline {subsubsection}{\numberline {7.3.1}Interval Matrix Example}{45}{subsubsection.7.3.1}}
\newlabel{sec:intervalMatrixExample}{{7.3.1}{45}{Interval Matrix Example}{subsubsection.7.3.1}{}}
\@writefile{toc}{\contentsline {section}{\numberline {8}Continuous Dynamics}{46}{section.8}}
\newlabel{sec:continuousDynamics}{{8}{46}{Continuous Dynamics}{section.8}{}}
\citation{Althoff2010a}
\citation{Althoff2011a}
\citation{Althoff2010a}
\citation{Althoff2011a}
\citation{Althoff2010a}
\citation{Althoff2010a}
\citation{Althoff2010a}
\citation{Althoff2011a}
\citation{Althoff2011a}
\citation{Althoff2010a}
\@writefile{toc}{\contentsline {subsection}{\numberline {8.1}Linear Systems}{47}{subsection.8.1}}
\newlabel{sec:linearSystems}{{8.1}{47}{Linear Systems}{subsection.8.1}{}}
\newlabel{eq:linearSystem}{{16}{47}{Linear Systems}{equation.8.16}{}}
\newlabel{eq:linearSystemSimple}{{17}{47}{Linear Systems}{equation.8.17}{}}
\@writefile{toc}{\contentsline {subsubsection}{\numberline {8.1.1}Method \texttt  {initReach}}{47}{subsubsection.8.1.1}}
\newlabel{sec:linearSystem_initReach}{{8.1.1}{47}{Method \texttt {initReach}}{subsubsection.8.1.1}{}}
\citation{Althoff2010a}
\citation{Althoff2010a}
\citation{Althoff2010a}
\citation{Althoff2010a}
\@writefile{lof}{\contentsline {figure}{\numberline {19}{\ignorespaces Steps for the computation of an over-approximation of the reachable set for a linear system.\relax }}{48}{figure.caption.27}}
\newlabel{fig:linReachOverview}{{19}{48}{Steps for the computation of an over-approximation of the reachable set for a linear system.\relax }{figure.caption.27}{}}
\@writefile{toc}{\contentsline {subsection}{\numberline {8.2}Linear Systems with Uncertain Fixed Parameters}{48}{subsection.8.2}}
\newlabel{sec:linearParamSystems}{{8.2}{48}{Linear Systems with Uncertain Fixed Parameters}{subsection.8.2}{}}
\newlabel{eq:linearParametricSystem}{{18}{48}{Linear Systems with Uncertain Fixed Parameters}{equation.8.18}{}}
\newlabel{eq:linearParamSystems_matrices}{{19}{48}{Linear Systems with Uncertain Fixed Parameters}{equation.8.19}{}}
\citation{Althoff2010a}
\citation{Althoff2011b}
\citation{Althoff2011b}
\citation{Althoff2011b}
\citation{Althoff2011a}
\citation{Althoff2010a}
\@writefile{toc}{\contentsline {subsubsection}{\numberline {8.2.1}Method \texttt  {initReach}}{49}{subsubsection.8.2.1}}
\newlabel{sec:linearParamSystem_initReach}{{8.2.1}{49}{Method \texttt {initReach}}{subsubsection.8.2.1}{}}
\newlabel{eq:homParamLinear}{{20}{49}{Method \texttt {initReach}}{equation.8.20}{}}
\@writefile{toc}{\contentsline {subsection}{\numberline {8.3}Linear Systems with Uncertain Varying Parameters}{49}{subsection.8.3}}
\newlabel{sec:linearParamVarSystems}{{8.3}{49}{Linear Systems with Uncertain Varying Parameters}{subsection.8.3}{}}
\citation{Althoff2010a}
\citation{Althoff2010a}
\citation{Althoff2010a}
\citation{Gardiner1983}
\citation{Althoff2009d}
\@writefile{toc}{\contentsline {subsection}{\numberline {8.4}Linear Probabilistic Systems}{50}{subsection.8.4}}
\newlabel{sec:linearProbSystems}{{8.4}{50}{Linear Probabilistic Systems}{subsection.8.4}{}}
\newlabel{eq:linProbSys}{{21}{50}{Linear Probabilistic Systems}{equation.8.21}{}}
\@writefile{toc}{\contentsline {subsubsection}{\numberline {8.4.1}Method \texttt  {initReach}}{50}{subsubsection.8.4.1}}
\newlabel{sec:linearProbSystem_initReach}{{8.4.1}{50}{Method \texttt {initReach}}{subsubsection.8.4.1}{}}
\citation{Althoff2010a}
\citation{Althoff2013a}
\@writefile{toc}{\contentsline {subsection}{\numberline {8.5}Nonlinear Systems}{51}{subsection.8.5}}
\newlabel{sec:nonlinearSystems}{{8.5}{51}{Nonlinear Systems}{subsection.8.5}{}}
\newlabel{eq_nonlinSystem}{{8.5}{51}{Nonlinear Systems}{subsection.8.5}{}}
\newlabel{eq:polynomialEquation}{{22}{51}{Nonlinear Systems}{equation.8.22}{}}
\@writefile{lof}{\contentsline {figure}{\numberline {20}{\ignorespaces Computation of reachable sets -- overview.\relax }}{52}{figure.caption.28}}
\newlabel{fig:nonLinOverview}{{20}{52}{Computation of reachable sets -- overview.\relax }{figure.caption.28}{}}
\@writefile{toc}{\contentsline {subsubsection}{\numberline {8.5.1}Method \texttt  {initReach}}{52}{subsubsection.8.5.1}}
\newlabel{sec:nonlinearSystem_initReach}{{8.5.1}{52}{Method \texttt {initReach}}{subsubsection.8.5.1}{}}
\citation{Althoff2014a}
\citation{Althoff2013a}
\citation{Althoff2008c}
\citation{Ascher1998}
\citation{Brenan1989}
\citation{Ascher1998}
\citation{Althoff2014a}
\citation{Althoff2014a}
\@writefile{toc}{\contentsline {subsection}{\numberline {8.6}Nonlinear Systems with Uncertain Fixed Parameters}{53}{subsection.8.6}}
\newlabel{sec:nonlinearParamSystems}{{8.6}{53}{Nonlinear Systems with Uncertain Fixed Parameters}{subsection.8.6}{}}
\@writefile{toc}{\contentsline {subsection}{\numberline {8.7}Nonlinear Differential-Algebraic Systems}{53}{subsection.8.7}}
\newlabel{sec:nonlinearDASystems}{{8.7}{53}{Nonlinear Differential-Algebraic Systems}{subsection.8.7}{}}
\newlabel{eq:DAEsystem}{{23}{53}{Nonlinear Differential-Algebraic Systems}{equation.8.23}{}}
\citation{Stursberg2003}
\@writefile{toc}{\contentsline {section}{\numberline {9}Hybrid Dynamics}{54}{section.9}}
\newlabel{sec:hybridDynamics}{{9}{54}{Hybrid Dynamics}{section.9}{}}
\citation{Althoff2009b,Althoff2010a,Althoff2012a}
\newlabel{eq_jumpMap}{{24}{55}{Hybrid Dynamics}{equation.9.24}{}}
\@writefile{lof}{\contentsline {figure}{\numberline {21}{\ignorespaces Illustration of the reachable set of a hybrid automaton.\relax }}{55}{figure.caption.29}}
\newlabel{fig_hybridReachIllustration}{{21}{55}{Illustration of the reachable set of a hybrid automaton.\relax }{figure.caption.29}{}}
\@writefile{toc}{\contentsline {subsection}{\numberline {9.1}Simulation of Hybrid Automata}{55}{subsection.9.1}}
\newlabel{sec:simulationHybridAutomaton}{{9.1}{55}{Simulation of Hybrid Automata}{subsection.9.1}{}}
\@writefile{toc}{\contentsline {subsection}{\numberline {9.2}Hybrid Automaton}{56}{subsection.9.2}}
\newlabel{sec:hybridAutomaton}{{9.2}{56}{Hybrid Automaton}{subsection.9.2}{}}
\@writefile{toc}{\contentsline {subsection}{\numberline {9.3}Location}{56}{subsection.9.3}}
\newlabel{sec:location}{{9.3}{56}{Location}{subsection.9.3}{}}
\newlabel{fig:hybridSimulation_details}{{22(b)}{57}{Subfigure 22(b)}{subfigure.22.2}{}}
\newlabel{sub@fig:hybridSimulation_details}{{(b)}{57}{Subfigure 22(b)\relax }{subfigure.22.2}{}}
\@writefile{lof}{\contentsline {figure}{\numberline {22}{\ignorespaces Illustration of the algorithm for simulating a hybrid automaton.\relax }}{57}{figure.caption.30}}
\newlabel{fig:hybridSimulation}{{22}{57}{Illustration of the algorithm for simulating a hybrid automaton.\relax }{figure.caption.30}{}}
\@writefile{lof}{\contentsline {subfigure}{\numberline{(a)}{\ignorespaces {Considered location.}}}{57}{figure.caption.30}}
\@writefile{lof}{\contentsline {subfigure}{\numberline{(b)}{\ignorespaces {Simulation using halfspaces.}}}{57}{figure.caption.30}}
\@writefile{lof}{\contentsline {figure}{\numberline {23}{\ignorespaces Guard intersections can be missed when one only checks whether interndiate states are in any guard set.\relax }}{58}{figure.caption.31}}
\newlabel{fig:hybridSimulation_miss}{{23}{58}{Guard intersections can be missed when one only checks whether interndiate states are in any guard set.\relax }{figure.caption.31}{}}
\@writefile{toc}{\contentsline {subsection}{\numberline {9.4}Transition}{58}{subsection.9.4}}
\newlabel{sec:transition}{{9.4}{58}{Transition}{subsection.9.4}{}}
\@writefile{toc}{\contentsline {section}{\numberline {10}State Space Partitioning}{58}{section.10}}
\newlabel{sec:partition}{{10}{58}{State Space Partitioning}{section.10}{}}
\@writefile{toc}{\contentsline {subsection}{\numberline {10.1}Migrating the old \texttt  {partition} Class into the new one}{59}{subsection.10.1}}
\@writefile{toc}{\contentsline {section}{\numberline {11}Options for Reachability Analysis}{59}{section.11}}
\newlabel{sec:options}{{11}{59}{Options for Reachability Analysis}{section.11}{}}
\citation{Minopoli2016}
\citation{Bak2015}
\citation{Minopoli2016}
\@writefile{toc}{\contentsline {section}{\numberline {12}Unit Tests}{60}{section.12}}
\newlabel{sec:unitTests}{{12}{60}{Unit Tests}{section.12}{}}
\@writefile{toc}{\contentsline {section}{\numberline {13}Loading Simulink and SpaceEx Models}{60}{section.13}}
\newlabel{sx2coramanual}{{13}{60}{Loading Simulink and SpaceEx Models}{section.13}{}}
\@writefile{toc}{\contentsline {subsection}{\numberline {13.1}Converting Simulink Models to SpaceEx Models}{60}{subsection.13.1}}
\@writefile{toc}{\contentsline {subsection}{\numberline {13.2}Loading SpaceEx Models}{60}{subsection.13.2}}
\citation{Althoff2010a}
\@writefile{toc}{\contentsline {section}{\numberline {14}Examples}{62}{section.14}}
\newlabel{sec:examples}{{14}{62}{Examples}{section.14}{}}
\@writefile{toc}{\contentsline {subsection}{\numberline {14.1}Continuous Dynamics}{62}{subsection.14.1}}
\@writefile{toc}{\contentsline {subsubsection}{\numberline {14.1.1}Linear Dynamics}{62}{subsubsection.14.1.1}}
\citation{Althoff2011b}
\citation{Althoff2011b}
\@writefile{lof}{\contentsline {figure}{\numberline {24}{\ignorespaces Illustration of the reachable set of the linear example. The white box shows the initial set and the black lines show simulated trajectories.\relax }}{64}{figure.caption.32}}
\newlabel{fig:example_linear_reach_01_5dim}{{24}{64}{Illustration of the reachable set of the linear example. The white box shows the initial set and the black lines show simulated trajectories.\relax }{figure.caption.32}{}}
\@writefile{toc}{\contentsline {subsubsection}{\numberline {14.1.2}Linear Dynamics with Uncertain Parameters}{64}{subsubsection.14.1.2}}
\citation{Althoff2008c}
\@writefile{lof}{\contentsline {figure}{\numberline {25}{\ignorespaces Illustration of the reachable set of the transmission example. The light gray shows the reachable set using matrix zonotopes and the dark gray shows the results using interval matrices. A white box shows the initial set and the black lines are simulated trajectories.\relax }}{67}{figure.caption.33}}
\newlabel{fig:example_linearParam_reach_01_rlc_const}{{25}{67}{Illustration of the reachable set of the transmission example. The light gray shows the reachable set using matrix zonotopes and the dark gray shows the results using interval matrices. A white box shows the initial set and the black lines are simulated trajectories.\relax }{figure.caption.33}{}}
\@writefile{toc}{\contentsline {subsubsection}{\numberline {14.1.3}Nonlinear Dynamics}{67}{subsubsection.14.1.3}}
\@writefile{toc}{\contentsline {paragraph}{Tank System}{67}{subsubsection.14.1.3}}
\@writefile{lof}{\contentsline {figure}{\numberline {26}{\ignorespaces Illustration of the reachable set of the transmission example over time. The light gray shows the reachable set using matrix zonotopes and the dark gray shows the results using interval matrices. Black lines show simulated trajectories.\relax }}{68}{figure.caption.34}}
\newlabel{fig:example_linearParam_reach_01_rlc_const_time}{{26}{68}{Illustration of the reachable set of the transmission example over time. The light gray shows the reachable set using matrix zonotopes and the dark gray shows the results using interval matrices. Black lines show simulated trajectories.\relax }{figure.caption.34}{}}
\citation{Althoff2008c}
\citation{Althoff2013a}
\citation{Althoff2008c}
\citation{Althoff2013a}
\citation{Althoff2011e,Althoff2012b,Althoff2014b}
\@writefile{lof}{\contentsline {figure}{\numberline {27}{\ignorespaces Illustration of the reachable set of the linear example. The white box shows the initial set and the black lines show simulated trajectories.\relax }}{70}{figure.caption.35}}
\newlabel{fig:example_linear_reach_01_5dim}{{27}{70}{Illustration of the reachable set of the linear example. The white box shows the initial set and the black lines show simulated trajectories.\relax }{figure.caption.35}{}}
\@writefile{toc}{\contentsline {paragraph}{Van der Pol Oscillator}{70}{figure.caption.35}}
\@writefile{toc}{\contentsline {paragraph}{Seven-Dimensional Example for Non-Convex Set Representation}{70}{figure.caption.36}}
\@writefile{toc}{\contentsline {paragraph}{Autonomous Car Following a Reference Trajectory}{70}{figure.caption.37}}
\@writefile{lof}{\contentsline {figure}{\numberline {28}{\ignorespaces Illustration of the reachable set of the Van der Pol oscillator. The white box shows the initial set and the black lines show simulated trajectories.\relax }}{71}{figure.caption.36}}
\newlabel{fig:example_nonlinear_reach_03_vanderPol}{{28}{71}{Illustration of the reachable set of the Van der Pol oscillator. The white box shows the initial set and the black lines show simulated trajectories.\relax }{figure.caption.36}{}}
\@writefile{lof}{\contentsline {figure}{\numberline {29}{\ignorespaces Illustration of the reachable set of the seven-dimensional example for non-convex set representation. The white box shows the initial set and the black lines show simulated trajectories.\relax }}{71}{figure.caption.37}}
\newlabel{fig:example_nonlinear_reach_04_sevenDim_nonConvexRepr}{{29}{71}{Illustration of the reachable set of the seven-dimensional example for non-convex set representation. The white box shows the initial set and the black lines show simulated trajectories.\relax }{figure.caption.37}{}}
\@writefile{toc}{\contentsline {subsubsection}{\numberline {14.1.4}Nonlinear Dynamics with Uncertain Parameters}{71}{subsubsection.14.1.4}}
\@writefile{lof}{\contentsline {figure}{\numberline {30}{\ignorespaces Illustration of the reachable set of the seven-dimensional example for non-convex set representation. The white box shows the initial set and the black lines show simulated trajectories.\relax }}{72}{figure.caption.38}}
\newlabel{fig:example_nonlinear_reach_05_autonomousCar}{{30}{72}{Illustration of the reachable set of the seven-dimensional example for non-convex set representation. The white box shows the initial set and the black lines show simulated trajectories.\relax }{figure.caption.38}{}}
\citation{Althoff2012c,Althoff2014a,Althoff2014c}
\@writefile{lof}{\contentsline {figure}{\numberline {31}{\ignorespaces Illustration of the reachable set of the linear example. The gray region shows the reachable set with uncertain parameters, while the white area shows the reachable set without uncertain parameters. Another white box shows the initial set and the black lines show simulated trajectories.\relax }}{74}{figure.caption.39}}
\newlabel{fig:example_linear_reach_01_5dim}{{31}{74}{Illustration of the reachable set of the linear example. The gray region shows the reachable set with uncertain parameters, while the white area shows the reachable set without uncertain parameters. Another white box shows the initial set and the black lines show simulated trajectories.\relax }{figure.caption.39}{}}
\@writefile{toc}{\contentsline {subsubsection}{\numberline {14.1.5}Nonlinear Differential-Algebraic Systems}{74}{subsubsection.14.1.5}}
\citation{Girard2008,Frehse2008,Frehse2011,Ramdani2011b,Frehse2012,Chen2015b,Althoff2009b}
\citation{Althoff2012a}
\citation{Schaft2000}
\@writefile{lof}{\contentsline {figure}{\numberline {32}{\ignorespaces Illustration of the reachable set of nonlinear differential-algebraic example. The white box shows the initial set and the black lines show simulated trajectories.\relax }}{76}{figure.caption.40}}
\newlabel{fig:example_nonlinearDA_reach_01_powerSystem_3bus}{{32}{76}{Illustration of the reachable set of nonlinear differential-algebraic example. The white box shows the initial set and the black lines show simulated trajectories.\relax }{figure.caption.40}{}}
\@writefile{toc}{\contentsline {subsection}{\numberline {14.2}Hybrid Dynamics}{76}{subsection.14.2}}
\@writefile{toc}{\contentsline {subsubsection}{\numberline {14.2.1}Bouncing Ball Example}{76}{subsubsection.14.2.1}}
\newlabel{sec:bouncingBallExample}{{14.2.1}{76}{Bouncing Ball Example}{subsubsection.14.2.1}{}}
\@writefile{lof}{\contentsline {figure}{\numberline {33}{\ignorespaces Bouncing ball.\relax }}{77}{figure.33}}
\newlabel{fig:bouncingBall}{{33}{77}{Bouncing ball.\relax }{figure.33}{}}
\citation{Althoff2012a}
\@writefile{lof}{\contentsline {figure}{\numberline {34}{\ignorespaces Illustration of the reachable set of the bouncing ball. The black box shows the initial set and the black line shows the simulated trajectory.\relax }}{78}{figure.caption.41}}
\newlabel{fig:bouncingBallResult}{{34}{78}{Illustration of the reachable set of the bouncing ball. The black box shows the initial set and the black line shows the simulated trajectory.\relax }{figure.caption.41}{}}
\citation{Althoff2014c}
\citation{Althoff2014b}
\@writefile{toc}{\contentsline {subsubsection}{\numberline {14.2.2}Powertrain Example}{79}{subsubsection.14.2.2}}
\@writefile{lof}{\contentsline {figure}{\numberline {35}{\ignorespaces Illustration of the reachable set of the bouncing ball. The black box shows the initial set and the black line shows the simulated trajectory.\relax }}{79}{figure.caption.42}}
\newlabel{fig:bouncingBallResult}{{35}{79}{Illustration of the reachable set of the bouncing ball. The black box shows the initial set and the black line shows the simulated trajectory.\relax }{figure.caption.42}{}}
\@writefile{toc}{\contentsline {section}{\numberline {15}Conclusions}{79}{section.15}}
\@writefile{toc}{\contentsline {section}{\numberline {A}Migrating the \texttt  {intervalhull} Class into the \texttt  {interval} Class}{80}{appendix.A}}
\@writefile{toc}{\contentsline {section}{\numberline {B}Implementation of Loading SpaceEx Models}{80}{appendix.B}}
\newlabel{sx2coradocu}{{B}{80}{Implementation of Loading SpaceEx Models}{appendix.B}{}}
\@writefile{toc}{\contentsline {subsection}{\numberline {B.1}Preface: The SpaceEx Format}{80}{subsection.B.1}}
\@writefile{toc}{\contentsline {subsection}{\numberline {B.2}Parsing The Component Definitions}{81}{subsection.B.2}}
\@writefile{toc}{\contentsline {subsubsection}{\numberline {B.2.1}Accessing XML Files}{81}{subsubsection.B.2.1}}
\@writefile{toc}{\contentsline {subsubsection}{\numberline {B.2.2}Storing The Component Definitions}{81}{subsubsection.B.2.2}}
\@writefile{toc}{\contentsline {subsection}{\numberline {B.3}"Instantiating" the Component Tree}{83}{subsection.B.3}}
\@writefile{toc}{\contentsline {subsection}{\numberline {B.4}Forming the Parallel Composition}{84}{subsection.B.4}}
\@writefile{toc}{\contentsline {subsubsection}{\numberline {B.4.1}Combining Flow Functions}{84}{subsubsection.B.4.1}}
\@writefile{toc}{\contentsline {subsubsection}{\numberline {B.4.2}Combining Invariants}{85}{subsubsection.B.4.2}}
\@writefile{toc}{\contentsline {subsubsection}{\numberline {B.4.3}Combining Transitions}{85}{subsubsection.B.4.3}}
\@writefile{toc}{\contentsline {subsection}{\numberline {B.5}Formalizing Symbolic Dynamics}{86}{subsection.B.5}}
\@writefile{toc}{\contentsline {subsubsection}{\numberline {B.5.1}Linear \& Non-linear Flows}{86}{subsubsection.B.5.1}}
\@writefile{toc}{\contentsline {subsubsection}{\numberline {B.5.2}Polyhedric Guard \& Invariant Sets}{86}{subsubsection.B.5.2}}
\@writefile{toc}{\contentsline {subsection}{\numberline {B.6}Conversion to MATLAB Function}{87}{subsection.B.6}}
\@writefile{toc}{\contentsline {subsection}{\numberline {B.7}Open Problems}{87}{subsection.B.7}}
\@writefile{toc}{\contentsline {section}{\numberline {C}Licensing}{87}{appendix.C}}
\@writefile{toc}{\contentsline {section}{\numberline {D}Disclaimer}{87}{appendix.D}}
\bibdata{althoff_own,althoff_other,grebenyuk}
\bibcite{Lafferriere2001}{1}
\bibcite{Althoff2015a}{2}
\bibcite{Althoff2016a}{3}
\bibcite{Althoff2018b}{4}
\bibcite{Girard2005}{5}
\bibcite{Althoff2010a}{6}
\bibcite{Althoff2014a}{7}
\bibcite{Gover2010}{8}
\bibcite{Althoff2011b}{9}
\bibcite{Kopetzki2017}{10}
\bibcite{Combastel2003}{11}
\bibcite{Althoff2011f}{12}
\bibcite{Althoff2013a}{13}
\bibcite{Hoefkens2001}{14}
\bibcite{Althoff2009d}{15}
\bibcite{Berleant1993}{16}
\bibcite{Scott2016}{17}
\@writefile{toc}{\contentsline {section}{\numberline {E}Contributors}{88}{appendix.E}}
\bibcite{Ziegler1995}{18}
\bibcite{Kaibel2003}{19}
\bibcite{Makino2003}{20}
\bibcite{Makino1996}{21}
\bibcite{Neher2007}{22}
\bibcite{Nedialkov2004}{23}
\bibcite{Berz1997}{24}
\bibcite{Trinchero2016}{25}
\bibcite{Stursberg2003}{26}
\bibcite{Althoff2012b}{27}
\bibcite{Althoff2011a}{28}
\bibcite{Gardiner1983}{29}
\bibcite{Althoff2008c}{30}
\bibcite{Ascher1998}{31}
\bibcite{Brenan1989}{32}
\bibcite{Althoff2009b}{33}
\bibcite{Althoff2012a}{34}
\bibcite{Minopoli2016}{35}
\bibcite{Bak2015}{36}
\bibcite{Althoff2011e}{37}
\bibcite{Althoff2014b}{38}
\bibcite{Althoff2012c}{39}
\bibcite{Althoff2014c}{40}
\bibcite{Girard2008}{41}
\bibcite{Frehse2008}{42}
\bibcite{Frehse2011}{43}
\bibcite{Ramdani2011b}{44}
\bibcite{Frehse2012}{45}
\bibcite{Chen2015b}{46}
\bibcite{Schaft2000}{47}
\bibstyle{IEEEtran}
\newlabel{LastPage}{{}{90}{}{page.90}{}}
\xdef\lastpage@lastpage{90}
\xdef\lastpage@lastpageHy{90}
