Running tests using SpaceEx + PPLite
Benchmark DISC03-UBS03 :
Computing reachable states... 
Found fixpoint after 21049 iterations.
Computing reachable states done after 552.361999s
Forbidden states are not reachable.
Output of reachable bad states... {}0.000000s
Exit [0]
551.95 user, 0.68 system, 552.71 elapsed -- Max VSize = 222924KB, Max RSS = 165192KB
==============================================================
Benchmark FISCS05-UBD05 :
Computing reachable states... 
Found fixpoint after 183961 iterations.
Computing reachable states done after 13277.156999s
Forbidden states are not reachable.
Output of reachable bad states... {}0.000000s
Exit [0]
13574.53 user, 6.20 system, 13582.29 elapsed -- Max VSize = 929364KB, Max RSS = 871392KB
==============================================================
