set term png transparent truecolor size 600,480  enhanced font "Helvetica,15"
set output "../work-dir/plotresult/sdfa.png"
set xlabel "x"
set ylabel "y"
set grid
set title ""
set style rect fill  transparent solid 0.50 noborder
set object 1 rect from 1.12181,2.3121 to 1.70252,2.45069 fc rgb "blue"
set object 2 rect from 1.14056,2.27343 to 1.73198,2.41242 fc rgb "blue"
set object 3 rect from 1.1624,2.23349 to 1.75756,2.37266 fc rgb "blue"
set object 4 rect from 1.18381,2.19233 to 1.78274,2.33147 fc rgb "blue"
set object 5 rect from 1.20477,2.15002 to 1.80752,2.28894 fc rgb "blue"
set object 6 rect from 1.22486,2.10664 to 1.83186,2.24515 fc rgb "blue"
set object 7 rect from 1.24406,2.06228 to 1.85578,2.20019 fc rgb "blue"
set object 8 rect from 1.2628,2.01704 to 1.87925,2.15414 fc rgb "blue"
set object 9 rect from 1.28109,1.97098 to 1.90226,2.10709 fc rgb "blue"
set object 10 rect from 1.29888,1.9242 to 1.92481,2.05915 fc rgb "blue"
set object 11 rect from 1.31621,1.87679 to 1.94688,2.01042 fc rgb "blue"
set object 12 rect from 1.33305,1.82883 to 1.96848,1.96097 fc rgb "blue"
set object 13 rect from 1.34939,1.78042 to 1.98958,1.91091 fc rgb "blue"
set object 14 rect from 1.36524,1.73163 to 2.01019,1.86033 fc rgb "blue"
set object 15 rect from 1.38059,1.68256 to 2.03031,1.80934 fc rgb "blue"
set object 16 rect from 1.39544,1.6333 to 2.04993,1.75802 fc rgb "blue"
set object 17 rect from 1.40977,1.58392 to 2.06904,1.70648 fc rgb "blue"
set object 18 rect from 1.42361,1.53451 to 2.08764,1.65479 fc rgb "blue"
set object 19 rect from 1.43694,1.48514 to 2.10574,1.60304 fc rgb "blue"
set object 20 rect from 1.44977,1.43588 to 2.12333,1.55133 fc rgb "blue"
set object 21 rect from 1.4621,1.38682 to 2.14043,1.49975 fc rgb "blue"
set object 22 rect from 1.47392,1.33801 to 2.15701,1.44835 fc rgb "blue"
set object 23 rect from 1.48525,1.28954 to 2.17309,1.39722 fc rgb "blue"
set object 24 rect from 1.49608,1.24144 to 2.18867,1.34644 fc rgb "blue"
set object 25 rect from 1.50643,1.19379 to 2.20377,1.29607 fc rgb "blue"
set object 26 rect from 1.51628,1.14663 to 2.21836,1.24617 fc rgb "blue"
set object 27 rect from 1.52566,1.10003 to 2.23248,1.1968 fc rgb "blue"
set object 28 rect from 1.53457,1.05402 to 2.24611,1.14802 fc rgb "blue"
set object 29 rect from 1.543,1.00864 to 2.25926,1.09988 fc rgb "blue"
set object 30 rect from 1.55099,0.96394 to 2.27195,1.05242 fc rgb "blue"
set object 31 rect from 1.55851,0.919952 to 2.28418,1.00569 fc rgb "blue"
set object 32 rect from 1.56558,0.876704 to 2.29596,0.959718 fc rgb "blue"
set object 33 rect from 1.57222,0.834225 to 2.30729,0.914551 fc rgb "blue"
set object 34 rect from 1.57844,0.79254 to 2.31818,0.870211 fc rgb "blue"
set object 35 rect from 1.58422,0.751666 to 2.32864,0.826724 fc rgb "blue"
set object 36 rect from 1.58959,0.711623 to 2.33868,0.784113 fc rgb "blue"
set object 37 rect from 1.59456,0.672425 to 2.34831,0.742395 fc rgb "blue"
set object 38 rect from 1.59913,0.634081 to 2.35754,0.701585 fc rgb "blue"
set object 39 rect from 1.60331,0.596602 to 2.36636,0.661696 fc rgb "blue"
set object 40 rect from 1.60711,0.559993 to 2.37481,0.622735 fc rgb "blue"
set object 41 rect from 1.61054,0.524255 to 2.38287,0.584707 fc rgb "blue"
set object 42 rect from 1.61361,0.489391 to 2.39057,0.547616 fc rgb "blue"
set object 43 rect from 1.61632,0.455399 to 2.39791,0.511462 fc rgb "blue"
set object 44 rect from 1.61869,0.422276 to 2.40491,0.476243 fc rgb "blue"
set object 45 rect from 1.62073,0.390017 to 2.41156,0.441955 fc rgb "blue"
set object 46 rect from 1.62244,0.358613 to 2.41789,0.408589 fc rgb "blue"
set object 47 rect from 1.62383,0.328059 to 2.42389,0.376141 fc rgb "blue"
set object 48 rect from 1.62491,0.298342 to 2.42958,0.344599 fc rgb "blue"
set object 49 rect from 1.62569,0.269452 to 2.43496,0.31395 fc rgb "blue"
set object 50 rect from 1.62618,0.241377 to 2.44006,0.284185 fc rgb "blue"
set object 51 rect from 1.62638,0.214104 to 2.44487,0.255287 fc rgb "blue"
set object 52 rect from 1.6263,0.187618 to 2.44939,0.227242 fc rgb "blue"
set object 53 rect from 1.62596,0.161904 to 2.45366,0.200036 fc rgb "blue"
set object 54 rect from 1.62535,0.136947 to 2.45766,0.173648 fc rgb "blue"
set object 55 rect from 1.62448,0.112731 to 2.46141,0.148066 fc rgb "blue"
set object 56 rect from 1.62338,0.0892388 to 2.46492,0.123267 fc rgb "blue"
set object 57 rect from 1.62203,0.0664542 to 2.46819,0.0992355 fc rgb "blue"
set object 58 rect from 1.62045,0.0443595 to 2.47123,0.0759529 fc rgb "blue"
set object 59 rect from 1.61864,0.0229372 to 2.47405,0.0533995 fc rgb "blue"
set object 60 rect from 1.61661,0.00216976 to 2.47666,0.0315562 fc rgb "blue"
set object 61 rect from 1.61431,-0.0144999 to 2.47909,0.012624550000000003 fc rgb "blue"
set object 62 rect from 1.61167,-0.0343544 to 2.48149,-0.007229949999999995 fc rgb "blue"
set object 63 rect from 1.60883,-0.053576 to 2.48369,-0.02645155 fc rgb "blue"
set object 64 rect from 1.60579,-0.0721842 to 2.48571,-0.045059749999999996 fc rgb "blue"
set object 65 rect from 1.60258,-0.0901979 to 2.48753,-0.06307345 fc rgb "blue"
set object 66 rect from 1.59919,-0.107635 to 2.48917,-0.08051055 fc rgb "blue"
set object 67 rect from 1.59562,-0.124515 to 2.49064,-0.09739054999999999 fc rgb "blue"
set object 68 rect from 1.59189,-0.140857 to 2.49194,-0.11373255 fc rgb "blue"
set object 69 rect from 1.58799,-0.156678 to 2.49308,-0.12955355 fc rgb "blue"
set object 70 rect from 1.58394,-0.171996 to 2.49406,-0.14487155 fc rgb "blue"
set object 71 rect from 1.57973,-0.186826 to 2.49489,-0.15970155 fc rgb "blue"
set object 72 rect from 1.57537,-0.201189 to 2.49558,-0.17406454999999998 fc rgb "blue"
set object 73 rect from 1.57087,-0.215099 to 2.49612,-0.18797455 fc rgb "blue"
set object 74 rect from 1.56622,-0.228574 to 2.49653,-0.20144955 fc rgb "blue"
set object 75 rect from 1.56145,-0.241627 to 2.4968,-0.21450255 fc rgb "blue"
set object 76 rect from 1.55653,-0.254276 to 2.49694,-0.22715154999999998 fc rgb "blue"
set object 77 rect from 1.55149,-0.266534 to 2.49697,-0.23940955000000003 fc rgb "blue"
set object 78 rect from 1.54632,-0.278417 to 2.49688,-0.25129255 fc rgb "blue"
set object 79 rect from 1.54102,-0.289939 to 2.49667,-0.26281455 fc rgb "blue"
set object 80 rect from 1.5356,-0.301113 to 2.49634,-0.27398855 fc rgb "blue"
set object 81 rect from 1.53007,-0.311953 to 2.49592,-0.28482855 fc rgb "blue"
set object 82 rect from 1.52443,-0.322472 to 2.49539,-0.29534755 fc rgb "blue"
set object 83 rect from 1.51867,-0.332683 to 2.49476,-0.30555855 fc rgb "blue"
set object 84 rect from 1.51281,-0.342597 to 2.49403,-0.31547255 fc rgb "blue"
set object 85 rect from 1.50684,-0.352227 to 2.49321,-0.32510255 fc rgb "blue"
set object 86 rect from 1.50076,-0.361583 to 2.4923,-0.33445855 fc rgb "blue"
set object 87 rect from 1.49458,-0.370679 to 2.4913,-0.34355455 fc rgb "blue"
set object 88 rect from 1.48831,-0.379522 to 2.49023,-0.35239755 fc rgb "blue"
set object 89 rect from 1.48193,-0.388124 to 2.48906,-0.36099955 fc rgb "blue"
set object 90 rect from 1.47547,-0.396496 to 2.48782,-0.36937155 fc rgb "blue"
set object 91 rect from 1.46891,-0.404645 to 2.48651,-0.37752055 fc rgb "blue"
set object 92 rect from 1.46226,-0.412583 to 2.48512,-0.38545855 fc rgb "blue"
set object 93 rect from 1.45552,-0.420318 to 2.48366,-0.39319355 fc rgb "blue"
set object 94 rect from 1.44869,-0.427858 to 2.48213,-0.40073355 fc rgb "blue"
set object 95 rect from 1.44178,-0.435213 to 2.48054,-0.40808855 fc rgb "blue"
set object 96 rect from 1.43479,-0.442389 to 2.47889,-0.41526455 fc rgb "blue"
set object 97 rect from 1.4277,-0.449395 to 2.47716,-0.42227055 fc rgb "blue"
set object 98 rect from 1.42054,-0.456239 to 2.47538,-0.42911455 fc rgb "blue"
set object 99 rect from 1.4133,-0.462927 to 2.47355,-0.43580255 fc rgb "blue"
set object 100 rect from 1.40598,-0.469467 to 2.47165,-0.44234255 fc rgb "blue"
set object 101 rect from 1.39858,-0.475865 to 2.46971,-0.44874055 fc rgb "blue"
set object 102 rect from 1.39111,-0.482128 to 2.46771,-0.45500355 fc rgb "blue"
set object 103 rect from 1.38355,-0.488262 to 2.46565,-0.46113755 fc rgb "blue"
set object 104 rect from 1.37593,-0.494272 to 2.46355,-0.46714755 fc rgb "blue"
set object 105 rect from 1.36823,-0.500166 to 2.4614,-0.4730415500000001 fc rgb "blue"
set object 106 rect from 1.36046,-0.50595 to 2.4592,-0.47882555 fc rgb "blue"
set object 107 rect from 1.35263,-0.511626 to 2.45696,-0.48450155 fc rgb "blue"
set object 108 rect from 1.34472,-0.517202 to 2.45468,-0.49007755000000003 fc rgb "blue"
set object 109 rect from 1.33674,-0.522682 to 2.45234,-0.49555755000000007 fc rgb "blue"
set object 110 rect from 1.32869,-0.528072 to 2.44997,-0.50094755 fc rgb "blue"
set object 111 rect from 1.32058,-0.533374 to 2.44756,-0.5062495499999999 fc rgb "blue"
set object 112 rect from 1.31239,-0.538596 to 2.44511,-0.51147155 fc rgb "blue"
set object 113 rect from 1.30414,-0.54374 to 2.44261,-0.5166155499999999 fc rgb "blue"
set object 114 rect from 1.29583,-0.548811 to 2.44008,-0.52168655 fc rgb "blue"
set object 115 rect from 1.28744,-0.553813 to 2.43751,-0.52668855 fc rgb "blue"
set object 116 rect from 1.27898,-0.55875 to 2.4349,-0.53162555 fc rgb "blue"
set object 117 rect from 1.27048,-0.563625 to 2.43227,-0.53650055 fc rgb "blue"
set object 118 rect from 1.2619,-0.568443 to 2.4296,-0.54131855 fc rgb "blue"
set object 119 rect from 1.25325,-0.573206 to 2.42689,-0.54608155 fc rgb "blue"
set object 120 rect from 1.24455,-0.57792 to 2.42415,-0.55079555 fc rgb "blue"
set object 121 rect from 1.23579,-0.582585 to 2.42137,-0.5554605499999999 fc rgb "blue"
set object 122 rect from 1.22695,-0.587206 to 2.41857,-0.5600815499999999 fc rgb "blue"
set object 123 rect from 1.21805,-0.591787 to 2.41573,-0.56466255 fc rgb "blue"
set object 124 rect from 1.2091,-0.596329 to 2.41286,-0.56920455 fc rgb "blue"
set object 125 rect from 1.20009,-0.600836 to 2.40997,-0.57371155 fc rgb "blue"
set object 126 rect from 1.19101,-0.605311 to 2.40703,-0.57818655 fc rgb "blue"
set object 127 rect from 1.18186,-0.609756 to 2.40408,-0.58263155 fc rgb "blue"
set object 128 rect from 1.17266,-0.614174 to 2.40109,-0.58704955 fc rgb "blue"
set object 129 rect from 1.1634,-0.618568 to 2.39808,-0.5914435499999999 fc rgb "blue"
set object 130 rect from 1.15407,-0.622939 to 2.39504,-0.5958145499999999 fc rgb "blue"
set object 131 rect from 1.14469,-0.627291 to 2.39196,-0.60016655 fc rgb "blue"
set object 132 rect from 1.13524,-0.631626 to 2.38886,-0.6045015499999999 fc rgb "blue"
set object 133 rect from 1.12573,-0.635947 to 2.38574,-0.60882255 fc rgb "blue"
set object 134 rect from 1.11617,-0.640255 to 2.38258,-0.6131305499999999 fc rgb "blue"
set object 135 rect from 1.10653,-0.644552 to 2.3794,-0.6174275499999999 fc rgb "blue"
set object 136 rect from 1.09685,-0.648841 to 2.37619,-0.6217165499999999 fc rgb "blue"
set object 137 rect from 1.08709,-0.653124 to 2.37297,-0.62599955 fc rgb "blue"
set object 138 rect from 1.07728,-0.657403 to 2.3697,-0.63027855 fc rgb "blue"
set object 139 rect from 1.0674,-0.661679 to 2.36642,-0.6345545499999999 fc rgb "blue"
set object 140 rect from 1.05747,-0.665956 to 2.36311,-0.63883155 fc rgb "blue"
set object 141 rect from 1.04748,-0.670233 to 2.35977,-0.64310855 fc rgb "blue"
set object 142 rect from 1.03742,-0.674514 to 2.35641,-0.64738955 fc rgb "blue"
set object 143 rect from 1.0273,-0.678801 to 2.35302,-0.65167655 fc rgb "blue"
set object 144 rect from 1.01712,-0.683094 to 2.3496,-0.65596955 fc rgb "blue"
set object 145 rect from 1.00687,-0.687397 to 2.34617,-0.66027255 fc rgb "blue"
set object 146 rect from 0.99656,-0.691709 to 2.3427,-0.6645845499999999 fc rgb "blue"
set object 147 rect from 0.986196,-0.696035 to 2.33921,-0.66891055 fc rgb "blue"
set object 148 rect from 0.975765,-0.700373 to 2.33569,-0.67324855 fc rgb "blue"
set object 149 rect from 0.965276,-0.704728 to 2.33215,-0.6776035499999999 fc rgb "blue"
set object 150 rect from 0.95472,-0.7091 to 2.32858,-0.68197555 fc rgb "blue"
set object 151 rect from 0.944095,-0.71349 to 2.32498,-0.68636555 fc rgb "blue"
set object 152 rect from 0.933413,-0.717901 to 2.32136,-0.6907765499999999 fc rgb "blue"
set object 153 rect from 0.922674,-0.722333 to 2.31772,-0.6952085499999999 fc rgb "blue"
set object 154 rect from 0.911856,-0.726789 to 2.31405,-0.6996645499999999 fc rgb "blue"
set object 155 rect from 0.90098,-0.731271 to 2.31035,-0.7041465499999999 fc rgb "blue"
set object 156 rect from 0.890036,-0.735778 to 2.30662,-0.70865355 fc rgb "blue"
set object 157 rect from 0.879033,-0.740312 to 2.30287,-0.71318755 fc rgb "blue"
set object 158 rect from 0.867963,-0.744878 to 2.29909,-0.71775355 fc rgb "blue"
set object 159 rect from 0.856823,-0.749474 to 2.29529,-0.72234955 fc rgb "blue"
set object 160 rect from 0.845616,-0.754102 to 2.29145,-0.72697755 fc rgb "blue"
set object 161 rect from 0.834339,-0.758763 to 2.28759,-0.73163855 fc rgb "blue"
set object 162 rect from 0.823004,-0.763461 to 2.2837,-0.73633655 fc rgb "blue"
set object 163 rect from 0.81159,-0.768195 to 2.27979,-0.74107055 fc rgb "blue"
set object 164 rect from 0.800117,-0.772969 to 2.27585,-0.7458445499999999 fc rgb "blue"
set object 165 rect from 0.788565,-0.777781 to 2.27187,-0.75065655 fc rgb "blue"
set object 166 rect from 0.776954,-0.782634 to 2.26788,-0.75550955 fc rgb "blue"
set object 167 rect from 0.765264,-0.787531 to 2.26384,-0.76040655 fc rgb "blue"
set object 168 rect from 0.753504,-0.792471 to 2.25979,-0.76534655 fc rgb "blue"
set object 169 rect from 0.741675,-0.797458 to 2.2557,-0.7703335499999999 fc rgb "blue"
set object 170 rect from 0.729776,-0.802491 to 2.25158,-0.77536655 fc rgb "blue"
set object 171 rect from 0.717798,-0.807573 to 2.24743,-0.78044855 fc rgb "blue"
set object 172 rect from 0.70575,-0.812706 to 2.24325,-0.78558155 fc rgb "blue"
set object 173 rect from 0.693633,-0.817889 to 2.23904,-0.79076455 fc rgb "blue"
set object 174 rect from 0.681435,-0.823126 to 2.2348,-0.79600155 fc rgb "blue"
set object 175 rect from 0.669158,-0.828418 to 2.23052,-0.80129355 fc rgb "blue"
set object 176 rect from 0.65681,-0.833766 to 2.22621,-0.8066415499999999 fc rgb "blue"
set object 177 rect from 0.644392,-0.839171 to 2.22187,-0.8120465499999999 fc rgb "blue"
set object 178 rect from 0.631884,-0.844637 to 2.21751,-0.81751255 fc rgb "blue"
set object 179 rect from 0.619305,-0.850162 to 2.2131,-0.82303755 fc rgb "blue"
set object 180 rect from 0.606646,-0.85575 to 2.20866,-0.8286255499999999 fc rgb "blue"
set object 181 rect from 0.593916,-0.861403 to 2.20418,-0.83427855 fc rgb "blue"
set object 182 rect from 0.581096,-0.867121 to 2.19967,-0.83999655 fc rgb "blue"
set object 183 rect from 0.568195,-0.872906 to 2.19512,-0.84578155 fc rgb "blue"
set object 184 rect from 0.555213,-0.87876 to 2.19053,-0.85163555 fc rgb "blue"
set object 185 rect from 0.542149,-0.884686 to 2.18592,-0.85756155 fc rgb "blue"
set object 186 rect from 0.528995,-0.890683 to 2.18126,-0.8635585499999999 fc rgb "blue"
set object 187 rect from 0.51576,-0.896755 to 2.17656,-0.86963055 fc rgb "blue"
set object 188 rect from 0.502443,-0.902903 to 2.17182,-0.8757785499999999 fc rgb "blue"
set object 189 rect from 0.489035,-0.909127 to 2.16704,-0.8820025499999999 fc rgb "blue"
set object 190 rect from 0.475545,-0.915431 to 2.16224,-0.88830655 fc rgb "blue"
set object 191 rect from 0.461963,-0.921817 to 2.15738,-0.89469255 fc rgb "blue"
set object 192 rect from 0.44829,-0.928286 to 2.15247,-0.90116155 fc rgb "blue"
set object 193 rect from 0.434525,-0.93484 to 2.14754,-0.9077155499999999 fc rgb "blue"
set object 194 rect from 0.420668,-0.94148 to 2.14255,-0.91435555 fc rgb "blue"
set object 195 rect from 0.406729,-0.948209 to 2.13753,-0.92108455 fc rgb "blue"
set object 196 rect from 0.392688,-0.955029 to 2.13245,-0.9279045499999999 fc rgb "blue"
set object 197 rect from 0.378554,-0.961942 to 2.12734,-0.93481755 fc rgb "blue"
set object 198 rect from 0.364318,-0.968949 to 2.12217,-0.94182455 fc rgb "blue"
set object 199 rect from 0.34999,-0.976052 to 2.11696,-0.94892755 fc rgb "blue"
set object 200 rect from 0.335569,-0.983256 to 2.1117,-0.9561315499999999 fc rgb "blue"
set object 201 rect from 0.321041,-0.990559 to 2.1064,-0.96343455 fc rgb "blue"
set object 202 rect from 0.306414,-0.997965 to 2.10104,-0.97084055 fc rgb "blue"
set object 203 rect from 0.291684,-1.00547 to 2.09564,-0.97834555 fc rgb "blue"
set object 204 rect from 0.276851,-1.01309 to 2.09018,-0.98596555 fc rgb "blue"
set object 205 rect from 0.261915,-1.02082 to 2.08467,-0.99369555 fc rgb "blue"
set object 206 rect from 0.246875,-1.02865 to 2.07911,-1.00152555 fc rgb "blue"
set object 207 rect from 0.231732,-1.03661 to 2.07349,-1.00948555 fc rgb "blue"
set object 208 rect from 0.216476,-1.04468 to 2.06781,-1.01755555 fc rgb "blue"
set object 209 rect from 0.201106,-1.05287 to 2.06208,-1.0257455500000001 fc rgb "blue"
set object 210 rect from 0.185631,-1.06118 to 2.0563,-1.03405555 fc rgb "blue"
set object 211 rect from 0.170043,-1.06961 to 2.05044,-1.04248555 fc rgb "blue"
set object 212 rect from 0.15434,-1.07818 to 2.04454,-1.05105555 fc rgb "blue"
set object 213 rect from 0.138513,-1.08686 to 2.03858,-1.05973555 fc rgb "blue"
set object 214 rect from 0.122582,-1.09569 to 2.03255,-1.06856555 fc rgb "blue"
set object 215 rect from 0.106526,-1.10464 to 2.02645,-1.07751555 fc rgb "blue"
set object 216 rect from 0.0903444,-1.11374 to 2.0203,-1.08661555 fc rgb "blue"
set object 217 rect from 0.0740484,-1.12296 to 2.01408,-1.09583555 fc rgb "blue"
set object 218 rect from 0.0576213,-1.13234 to 2.00779,-1.10521555 fc rgb "blue"
set object 219 rect from 0.0410736,-1.14185 to 2.00144,-1.11472555 fc rgb "blue"
set object 220 rect from 0.0243994,-1.15151 to 1.99502,-1.12438555 fc rgb "blue"
set object 221 rect from 0.00759541,-1.16132 to 1.98852,-1.13419555 fc rgb "blue"
set object 222 rect from -0.000559347,-1.17129 to 1.98195,-1.14416555 fc rgb "blue"
set object 223 rect from -0.000532897,-1.18142 to 1.97531,-1.15429555 fc rgb "blue"
set object 224 rect from -0.00632168,-1.19169 to 1.9686,-1.16456555 fc rgb "blue"
set object 225 rect from -0.023266,-1.20213 to 1.96181,-1.17500555 fc rgb "blue"
set object 226 rect from -0.0403418,-1.21273 to 1.95495,-1.18560555 fc rgb "blue"
set object 227 rect from -0.0575501,-1.2235 to 1.948,-1.19637555 fc rgb "blue"
set object 228 rect from -0.0748943,-1.23445 to 1.94098,-1.20732555 fc rgb "blue"
set object 229 rect from -0.0923755,-1.24556 to 1.93388,-1.21843555 fc rgb "blue"
set object 230 rect from -0.109995,-1.25685 to 1.92669,-1.22972555 fc rgb "blue"
set object 231 rect from -0.127756,-1.26832 to 1.91942,-1.24119555 fc rgb "blue"
set object 232 rect from -0.145661,-1.27997 to 1.91206,-1.25284555 fc rgb "blue"
set object 233 rect from -0.163711,-1.2918 to 1.90462,-1.26467555 fc rgb "blue"
set object 234 rect from -0.181909,-1.30383 to 1.89709,-1.27670555 fc rgb "blue"
set object 235 rect from -0.200256,-1.31604 to 1.88946,-1.28891555 fc rgb "blue"
set object 236 rect from -0.218756,-1.32845 to 1.88175,-1.30132555 fc rgb "blue"
set object 237 rect from -0.23741,-1.34105 to 1.87394,-1.31392555 fc rgb "blue"
set object 238 rect from -0.256222,-1.35385 to 1.86604,-1.3267255500000001 fc rgb "blue"
set object 239 rect from -0.275193,-1.36686 to 1.85804,-1.33973555 fc rgb "blue"
set object 240 rect from -0.294325,-1.38007 to 1.84995,-1.35294555 fc rgb "blue"
set object 241 rect from -0.313622,-1.39349 to 1.84175,-1.36636555 fc rgb "blue"
set object 242 rect from -0.333086,-1.40712 to 1.83346,-1.37999555 fc rgb "blue"
set object 243 rect from -0.35272,-1.42096 to 1.82506,-1.39383555 fc rgb "blue"
set object 244 rect from -0.372527,-1.43501 to 1.81656,-1.40788555 fc rgb "blue"
set object 245 rect from -0.392508,-1.44929 to 1.80795,-1.4221655500000001 fc rgb "blue"
set object 246 rect from -0.412668,-1.46378 to 1.79924,-1.43665555 fc rgb "blue"
set object 247 rect from -0.433009,-1.4785 to 1.79042,-1.45137555 fc rgb "blue"
set object 248 rect from -0.453533,-1.49345 to 1.78149,-1.46632555 fc rgb "blue"
set object 249 rect from -0.474244,-1.50862 to 1.77244,-1.48149555 fc rgb "blue"
set object 250 rect from -0.495146,-1.52403 to 1.76329,-1.4969055500000001 fc rgb "blue"
set object 251 rect from -0.516241,-1.53966 to 1.75402,-1.51253555 fc rgb "blue"
set object 252 rect from -0.537532,-1.55553 to 1.74463,-1.52840555 fc rgb "blue"
set object 253 rect from -0.559023,-1.57163 to 1.73513,-1.54450555 fc rgb "blue"
set object 254 rect from -0.580717,-1.58797 to 1.72551,-1.56084555 fc rgb "blue"
set object 255 rect from -0.602615,-1.60455 to 1.71576,-1.57742555 fc rgb "blue"
set object 256 rect from -0.624725,-1.62136 to 1.7059,-1.59423555 fc rgb "blue"
set object 257 rect from -0.647046,-1.6384 to 1.69592,-1.61127555 fc rgb "blue"
set object 258 rect from -0.669584,-1.65569 to 1.68581,-1.62856555 fc rgb "blue"
set object 259 rect from -0.692341,-1.67321 to 1.67557,-1.64608555 fc rgb "blue"
set object 260 rect from -0.715322,-1.69098 to 1.66521,-1.66385555 fc rgb "blue"
set object 261 rect from -0.738529,-1.70897 to 1.65472,-1.68184555 fc rgb "blue"
set object 262 rect from -0.761967,-1.7272 to 1.6441,-1.70007555 fc rgb "blue"
set object 263 rect from -0.785637,-1.74567 to 1.63335,-1.71854555 fc rgb "blue"
set object 264 rect from -0.809546,-1.76436 to 1.62247,-1.73723555 fc rgb "blue"
set object 265 rect from -0.833696,-1.78328 to 1.61145,-1.7561555500000001 fc rgb "blue"
set object 266 rect from -0.858089,-1.80244 to 1.60031,-1.77531555 fc rgb "blue"
set object 267 rect from -0.882732,-1.82181 to 1.58903,-1.79468555 fc rgb "blue"
set object 268 rect from -0.907625,-1.8414 to 1.57761,-1.81427555 fc rgb "blue"
set object 269 rect from -0.932774,-1.8612 to 1.56606,-1.83407555 fc rgb "blue"
set object 270 rect from -0.958182,-1.88121 to 1.55437,-1.85408555 fc rgb "blue"
set object 271 rect from -0.983851,-1.90141 to 1.54254,-1.87428555 fc rgb "blue"
set object 272 rect from -1.00978,-1.92181 to 1.53058,-1.89468555 fc rgb "blue"
set object 273 rect from -1.03599,-1.94239 to 1.51848,-1.91526555 fc rgb "blue"
set object 274 rect from -1.06246,-1.96315 to 1.50624,-1.93602555 fc rgb "blue"
set object 275 rect from -1.08921,-1.98407 to 1.49386,-1.95694555 fc rgb "blue"
set object 276 rect from -1.11625,-2.00515 to 1.48134,-1.9780255500000004 fc rgb "blue"
set object 277 rect from -1.14356,-2.02637 to 1.46869,-1.99924555 fc rgb "blue"
set object 278 rect from -1.17118,-2.04773 to 1.45591,-2.02060555 fc rgb "blue"
set object 279 rect from -1.19917,-2.0692 to 1.44308,-2.0420755500000003 fc rgb "blue"
set object 280 rect from -1.22752,-2.09077 to 1.43019,-2.06364555 fc rgb "blue"
set object 281 rect from -1.25623,-2.11242 to 1.41721,-2.08529555 fc rgb "blue"
set object 282 rect from -1.28528,-2.13415 to 1.40416,-2.1070255500000004 fc rgb "blue"
set object 283 rect from -1.31468,-2.15592 to 1.39101,-2.12879555 fc rgb "blue"
set object 284 rect from -1.34441,-2.17771 to 1.37776,-2.15058555 fc rgb "blue"
set object 285 rect from -1.37446,-2.19953 to 1.36439,-2.17240555 fc rgb "blue"
set object 286 rect from -1.40482,-2.22132 to 1.3509,-2.1941955500000003 fc rgb "blue"
set object 287 rect from -1.43547,-2.24306 to 1.33728,-2.21593555 fc rgb "blue"
set object 288 rect from -1.46642,-2.26475 to 1.3235,-2.23762555 fc rgb "blue"
set object 289 rect from -1.49763,-2.28633 to 1.30957,-2.2592055500000003 fc rgb "blue"
set object 290 rect from -1.52911,-2.3078 to 1.29546,-2.28067555 fc rgb "blue"
set object 291 rect from -1.56082,-2.3291 to 1.28116,-2.3019755500000003 fc rgb "blue"
set object 292 rect from -1.59276,-2.35022 to 1.26667,-2.32309555 fc rgb "blue"
set object 293 rect from -1.6249,-2.37111 to 1.25195,-2.34398555 fc rgb "blue"
set object 294 rect from -1.65732,-2.39175 to 1.2371,-2.36462555 fc rgb "blue"
set object 295 rect from -1.69005,-2.41208 to 1.22214,-2.38495555 fc rgb "blue"
set object 296 rect from -1.72306,-2.43209 to 1.20707,-2.40496555 fc rgb "blue"
set object 297 rect from -1.75638,-2.45172 to 1.19189,-2.4245955500000003 fc rgb "blue"
set object 298 rect from -1.78999,-2.47092 to 1.17662,-2.44379555 fc rgb "blue"
set object 299 rect from -1.82388,-2.48967 to 1.16124,-2.46254555 fc rgb "blue"
set object 300 rect from -1.85805,-2.50791 to 1.14578,-2.4807855500000002 fc rgb "blue"
set object 301 rect from -1.89251,-2.52559 to 1.13024,-2.49846555 fc rgb "blue"
set object 302 rect from -1.92723,-2.54267 to 1.1146,-2.51554555 fc rgb "blue"
set object 303 rect from -1.96221,-2.5591 to 1.09889,-2.5319755500000003 fc rgb "blue"
set object 304 rect from -1.99745,-2.57481 to 1.0831,-2.54768555 fc rgb "blue"
set object 305 rect from -2.03293,-2.58978 to 1.06725,-2.56265555 fc rgb "blue"
set object 306 rect from -2.06865,-2.60393 to 1.05133,-2.57680555 fc rgb "blue"
set object 307 rect from -2.10459,-2.61722 to 1.03536,-2.59009555 fc rgb "blue"
set object 308 rect from -2.14075,-2.62959 to 1.01934,-2.6024655500000002 fc rgb "blue"
set object 309 rect from -2.17711,-2.641 to 1.00328,-2.61387555 fc rgb "blue"
set object 310 rect from -2.21366,-2.65138 to 0.987175,-2.62425555 fc rgb "blue"
set object 311 rect from -2.25039,-2.66067 to 0.971044,-2.63354555 fc rgb "blue"
set object 312 rect from -2.28728,-2.66885 to 0.95489,-2.6417255500000003 fc rgb "blue"
set object 313 rect from -2.32432,-2.67582 to 0.938719,-2.6486955500000002 fc rgb "blue"
set object 314 rect from -2.36148,-2.68156 to 0.922541,-2.65443555 fc rgb "blue"
set object 315 rect from -2.39876,-2.68601 to 0.90636,-2.65888555 fc rgb "blue"
set object 316 rect from -2.43613,-2.68795 to 0.890186,-2.66082555 fc rgb "blue"
set object 317 rect from -2.47358,-2.6855 to 0.874026,-2.65837555 fc rgb "blue"
set object 318 rect from -2.51108,-2.68151 to 0.857888,-2.65438555 fc rgb "blue"
set object 319 rect from -2.54862,-2.67593 to 0.841782,-2.64880555 fc rgb "blue"
set object 320 rect from -2.58624,-2.66875 to 0.825784,-2.64162555 fc rgb "blue"
set object 321 rect from -2.62394,-2.65992 to 0.809925,-2.63279555 fc rgb "blue"
set object 322 rect from -2.66172,-2.64943 to 0.794222,-2.62230555 fc rgb "blue"
set object 323 rect from -2.69955,-2.63726 to 0.778694,-2.6101355500000003 fc rgb "blue"
set object 324 rect from -2.73742,-2.62339 to 0.763359,-2.59626555 fc rgb "blue"
set object 325 rect from -2.77531,-2.60781 to 0.748238,-2.58068555 fc rgb "blue"
set object 326 rect from -2.81323,-2.59052 to 0.733346,-2.56339555 fc rgb "blue"
set object 327 rect from -2.85114,-2.57152 to 0.718696,-2.54439555 fc rgb "blue"
set object 328 rect from -2.88903,-2.55082 to 0.704319,-2.5236955500000002 fc rgb "blue"
set object 329 rect from -2.92689,-2.52843 to 0.690228,-2.50130555 fc rgb "blue"
set object 330 rect from -2.9647,-2.50437 to 0.676442,-2.47724555 fc rgb "blue"
set object 331 rect from -3.00245,-2.47865 to 0.662985,-2.45152555 fc rgb "blue"
set object 332 rect from -3.04011,-2.45131 to 0.649859,-2.4241855500000002 fc rgb "blue"
set object 333 rect from -3.07769,-2.42238 to 0.637101,-2.3952555500000003 fc rgb "blue"
set object 334 rect from -3.11514,-2.39191 to 0.624715,-2.36478555 fc rgb "blue"
set object 335 rect from -3.15247,-2.35993 to 0.612729,-2.3328055500000002 fc rgb "blue"
set object 336 rect from -3.18966,-2.3265 to 0.601146,-2.29937555 fc rgb "blue"
set object 337 rect from -3.22669,-2.29166 to 0.589993,-2.26453555 fc rgb "blue"
set object 338 rect from -3.26355,-2.25548 to 0.579282,-2.2283555500000003 fc rgb "blue"
set object 339 rect from -3.30021,-2.21802 to 0.569021,-2.19089555 fc rgb "blue"
set object 340 rect from -3.33666,-2.17935 to 0.559239,-2.1522255500000003 fc rgb "blue"
set object 341 rect from -3.3729,-2.13953 to 0.549935,-2.11240555 fc rgb "blue"
set object 342 rect from -3.40889,-2.09864 to 0.541128,-2.07151555 fc rgb "blue"
set object 343 rect from -3.44465,-2.05675 to 0.532834,-2.02962555 fc rgb "blue"
set object 344 rect from -3.48013,-2.01395 to 0.525044,-1.9868255500000003 fc rgb "blue"
set object 345 rect from -3.51535,-1.97031 to 0.517793,-1.94318555 fc rgb "blue"
set object 346 rect from -3.55026,-1.92591 to 0.51106,-1.89878555 fc rgb "blue"
set object 347 rect from -3.58489,-1.88083 to 0.504881,-1.85370555 fc rgb "blue"
set object 348 rect from -3.61919,-1.83516 to 0.499243,-1.80803555 fc rgb "blue"
set object 349 rect from -3.65317,-1.78898 to 0.494162,-1.76185555 fc rgb "blue"
set object 350 rect from -3.68681,-1.74236 to 0.489635,-1.71523555 fc rgb "blue"
set object 351 rect from -3.7201,-1.69541 to 0.485668,-1.66828555 fc rgb "blue"
set object 352 rect from -3.75304,-1.64819 to 0.482266,-1.62106555 fc rgb "blue"
set object 353 rect from -3.78562,-1.60078 to 0.479425,-1.57365555 fc rgb "blue"
set object 354 rect from -3.81782,-1.55326 to 0.477142,-1.52613555 fc rgb "blue"
set object 355 rect from -3.84965,-1.5057 to 0.475431,-1.47857555 fc rgb "blue"
set object 356 rect from -3.88107,-1.45818 to 0.474268,-1.43105555 fc rgb "blue"
set object 357 rect from -3.91212,-1.41077 to 0.473678,-1.38364555 fc rgb "blue"
set object 358 rect from -3.94276,-1.36353 to 0.473626,-1.33640555 fc rgb "blue"
set object 359 rect from -3.973,-1.31654 to 0.474138,-1.28941555 fc rgb "blue"
set object 360 rect from -4.00283,-1.26984 to 0.475189,-1.24271555 fc rgb "blue"
set object 361 rect from -4.03226,-1.2235 to 0.476784,-1.19637555 fc rgb "blue"
set object 362 rect from -4.06127,-1.17759 to 0.478909,-1.15046555 fc rgb "blue"
set object 363 rect from -4.08986,-1.13213 to 0.48156,-1.10500555 fc rgb "blue"
set object 364 rect from -4.11805,-1.08718 to 0.484741,-1.06005555 fc rgb "blue"
set object 365 rect from -4.14581,-1.04278 to 0.488429,-1.01565555 fc rgb "blue"
set object 366 rect from -4.17316,-0.998997 to 0.492619,-0.97187255 fc rgb "blue"
set object 367 rect from -4.2001,-0.955831 to 0.497308,-0.92870655 fc rgb "blue"
set object 368 rect from -4.22664,-0.913331 to 0.502481,-0.8862065499999999 fc rgb "blue"
set object 369 rect from -4.25275,-0.871525 to 0.508126,-0.84440055 fc rgb "blue"
set object 370 rect from -4.27845,-0.83044 to 0.514248,-0.80331555 fc rgb "blue"
set object 371 rect from -4.30376,-0.790099 to 0.520834,-0.76297455 fc rgb "blue"
set object 372 rect from -4.32867,-0.750522 to 0.527863,-0.72339755 fc rgb "blue"
set object 373 rect from -4.35318,-0.711727 to 0.535331,-0.68460255 fc rgb "blue"
set object 374 rect from -4.37729,-0.673726 to 0.543234,-0.64660155 fc rgb "blue"
set object 375 rect from -4.40103,-0.636532 to 0.551562,-0.60940755 fc rgb "blue"
set object 376 rect from -4.42438,-0.600153 to 0.560292,-0.57302855 fc rgb "blue"
set object 377 rect from -4.44736,-0.564594 to 0.569431,-0.53746955 fc rgb "blue"
set object 378 rect from -4.46997,-0.529861 to 0.57896,-0.50273655 fc rgb "blue"
set object 379 rect from -4.49223,-0.495954 to 0.588866,-0.46882955 fc rgb "blue"
set object 380 rect from -4.51413,-0.462873 to 0.599148,-0.43574855 fc rgb "blue"
set object 381 rect from -4.53568,-0.430614 to 0.609795,-0.40348955000000003 fc rgb "blue"
set object 382 rect from -4.5569,-0.399176 to 0.620806,-0.37205155 fc rgb "blue"
set object 383 rect from -4.57779,-0.36855 to 0.632152,-0.34142555 fc rgb "blue"
set object 384 rect from -4.59835,-0.338732 to 0.643841,-0.31160755 fc rgb "blue"
set object 385 rect from -4.6186,-0.309711 to 0.655863,-0.28258655 fc rgb "blue"
set object 386 rect from -4.63853,-0.281477 to 0.6682,-0.25435255 fc rgb "blue"
set object 387 rect from -4.65818,-0.25402 to 0.680859,-0.22689555 fc rgb "blue"
set object 388 rect from -4.67754,-0.227329 to 0.693813,-0.20020454999999998 fc rgb "blue"
set object 389 rect from -4.69661,-0.201389 to 0.707071,-0.17426455 fc rgb "blue"
set object 390 rect from -4.71541,-0.176188 to 0.720625,-0.14906355 fc rgb "blue"
set object 391 rect from -4.73395,-0.151712 to 0.734454,-0.12458755 fc rgb "blue"
set object 392 rect from -4.75223,-0.127945 to 0.748561,-0.10082055 fc rgb "blue"
set object 393 rect from -4.77026,-0.104873 to 0.762946,-0.07774855 fc rgb "blue"
set object 394 rect from -4.78778,-0.0824802 to 0.777589,-0.055355749999999995 fc rgb "blue"
set object 395 rect from -4.80429,-0.0607497 to 0.792493,-0.033625249999999995 fc rgb "blue"
set object 396 rect from -4.82062,-0.039666 to 0.807649,0.0101855 fc rgb "blue"
set object 397 rect from -4.83682,-0.0192128 to 0.823048,0.0301938 fc rgb "blue"
set object 398 rect from -4.85299,-0.000563726 to 0.838701,0.049605 fc rgb "blue"
set object 399 rect from -4.86898,-0.00124974 to 0.854581,0.0684354 fc rgb "blue"
set object 400 rect from -4.88481,-0.000708587 to 0.870688,0.0867017 fc rgb "blue"
set object 401 rect from -4.90049,-0.000133236 to 0.887267,0.104421 fc rgb "blue"
set object 402 rect from -4.91601,0.00401409 to 0.904169,0.121608 fc rgb "blue"
set object 403 rect from -4.93138,0.0231478 to 0.921364,0.13828 fc rgb "blue"
set object 404 rect from -4.94661,0.0417029 to 0.938814,0.154453 fc rgb "blue"
set object 405 rect from -4.9617,0.0596962 to 0.956468,0.170141 fc rgb "blue"
set object 406 rect from -4.97667,0.077144 to 0.974381,0.185362 fc rgb "blue"
set object 407 rect from -4.99151,0.0940627 to 0.992498,0.20013 fc rgb "blue"
set object 408 rect from -5.00624,0.110469 to 1.01084,0.214461 fc rgb "blue"
set object 409 rect from -5.02086,0.126378 to 1.02939,0.228368 fc rgb "blue"
set object 410 rect from -5.03538,0.141805 to 1.04813,0.241866 fc rgb "blue"
set object 411 rect from -5.0498,0.156767 to 1.06705,0.25497 fc rgb "blue"
set object 412 rect from -5.06412,0.171277 to 1.08614,0.267694 fc rgb "blue"
set object 413 rect from -5.07836,0.185352 to 1.10541,0.28005 fc rgb "blue"
set object 414 rect from -5.09251,0.199006 to 1.12484,0.292051 fc rgb "blue"
set object 415 rect from -5.10659,0.212254 to 1.14444,0.303713 fc rgb "blue"
set object 416 rect from -5.1206,0.225108 to 1.1642,0.315044 fc rgb "blue"
set object 417 rect from -5.13454,0.237584 to 1.18411,0.326059 fc rgb "blue"
set object 418 rect from -5.14842,0.249695 to 1.20418,0.336769 fc rgb "blue"
set object 419 rect from -5.16224,0.261453 to 1.2244,0.347187 fc rgb "blue"
set object 420 rect from -5.17602,0.272872 to 1.24479,0.357322 fc rgb "blue"
set object 421 rect from -5.18974,0.283963 to 1.26532,0.367185 fc rgb "blue"
set object 422 rect from -5.20342,0.29474 to 1.28601,0.376788 fc rgb "blue"
set object 423 rect from -5.21705,0.305213 to 1.30684,0.38614 fc rgb "blue"
set object 424 rect from -5.23067,0.315394 to 1.32784,0.395252 fc rgb "blue"
set object 425 rect from -5.24424,0.325295 to 1.34897,0.404132 fc rgb "blue"
set object 426 rect from -5.25779,0.334925 to 1.37026,0.412789 fc rgb "blue"
set object 427 rect from -5.27131,0.344296 to 1.39169,0.421235 fc rgb "blue"
set object 428 rect from -5.28482,0.353417 to 1.41327,0.429477 fc rgb "blue"
set object 429 rect from -5.29831,0.362299 to 1.435,0.437522 fc rgb "blue"
set object 430 rect from -5.31179,0.370951 to 1.45688,0.44538 fc rgb "blue"
set object 431 rect from -5.32526,0.379382 to 1.47891,0.453058 fc rgb "blue"
set object 432 rect from -5.33872,0.3876 to 1.50108,0.460564 fc rgb "blue"
set object 433 rect from -5.35218,0.395615 to 1.52339,0.467906 fc rgb "blue"
set object 434 rect from -5.36565,0.403436 to 1.54586,0.47509 fc rgb "blue"
set object 435 rect from -5.37911,0.41107 to 1.56846,0.482123 fc rgb "blue"
set object 436 rect from -5.39259,0.418525 to 1.59122,0.489012 fc rgb "blue"
set object 437 rect from -5.40607,0.425808 to 1.61412,0.495763 fc rgb "blue"
set object 438 rect from -5.41957,0.432927 to 1.63717,0.502383 fc rgb "blue"
set object 439 rect from -5.43308,0.439889 to 1.66036,0.508877 fc rgb "blue"
set object 440 rect from -5.44661,0.4467 to 1.68369,0.515253 fc rgb "blue"
set object 441 rect from -5.46017,0.453368 to 1.70718,0.521513 fc rgb "blue"
set object 442 rect from -5.47374,0.459899 to 1.73081,0.527666 fc rgb "blue"
set object 443 rect from -5.48733,0.466298 to 1.75458,0.533715 fc rgb "blue"
set object 444 rect from -5.50096,0.472572 to 1.77851,0.539666 fc rgb "blue"
set object 445 rect from -5.51461,0.478728 to 1.80257,0.545523 fc rgb "blue"
set object 446 rect from -5.5283,0.484769 to 1.82679,0.551293 fc rgb "blue"
set object 447 rect from -5.54201,0.490701 to 1.85115,0.556978 fc rgb "blue"
set object 448 rect from -5.55577,0.496531 to 1.87566,0.562583 fc rgb "blue"
set object 449 rect from -5.56956,0.502262 to 1.90031,0.568113 fc rgb "blue"
set object 450 rect from -5.58339,0.5079 to 1.92511,0.573572 fc rgb "blue"
set object 451 rect from -5.59727,0.51345 to 1.95007,0.578963 fc rgb "blue"
set object 452 rect from -5.61118,0.518914 to 1.97517,0.584292 fc rgb "blue"
set object 453 rect from -5.62513,0.524299 to 2.00041,0.589561 fc rgb "blue"
set object 454 rect from -5.63914,0.52961 to 2.02581,0.594775 fc rgb "blue"
set object 455 rect from -5.65319,0.534847 to 2.05136,0.599935 fc rgb "blue"
set object 456 rect from -5.66728,0.540019 to 2.07705,0.605047 fc rgb "blue"
set object 457 rect from -5.68143,0.545126 to 2.1029,0.610113 fc rgb "blue"
set object 458 rect from -5.69562,0.550173 to 2.12889,0.615137 fc rgb "blue"
set object 459 rect from -5.70987,0.555165 to 2.15503,0.620121 fc rgb "blue"
set object 460 rect from -5.72418,0.560104 to 2.18133,0.62507 fc rgb "blue"
set object 461 rect from -5.73854,0.564993 to 2.20778,0.629984 fc rgb "blue"
set object 462 rect from -5.75295,0.569837 to 2.23438,0.634869 fc rgb "blue"
set object 463 rect from -5.76741,0.574637 to 2.26112,0.639725 fc rgb "blue"
set object 464 rect from -5.78195,0.579398 to 2.28803,0.644557 fc rgb "blue"
set object 465 rect from -5.79653,0.584121 to 2.31508,0.649366 fc rgb "blue"
set object 466 rect from -5.81118,0.588811 to 2.3423,0.654156 fc rgb "blue"
set object 467 rect from -5.82588,0.593471 to 2.36966,0.658928 fc rgb "blue"
set object 468 rect from -5.84065,0.598101 to 2.39718,0.663685 fc rgb "blue"
set object 469 rect from -5.85548,0.602706 to 2.42486,0.66843 fc rgb "blue"
set object 470 rect from -5.87036,0.607288 to 2.45268,0.673165 fc rgb "blue"
set object 471 rect from -5.88532,0.61185 to 2.48066,0.677891 fc rgb "blue"
set object 472 rect from -5.90035,0.616393 to 2.50881,0.682612 fc rgb "blue"
set object 473 rect from -5.91543,0.620921 to 2.53711,0.687329 fc rgb "blue"
set object 474 rect from -5.93058,0.625436 to 2.56557,0.692045 fc rgb "blue"
set object 475 rect from -5.9458,0.62994 to 2.59419,0.696761 fc rgb "blue"
set object 476 rect from -5.96109,0.634434 to 2.62297,0.70148 fc rgb "blue"
set object 477 rect from -5.97644,0.638923 to 2.6519,0.706204 fc rgb "blue"
set object 478 rect from -5.99187,0.643407 to 2.681,0.710934 fc rgb "blue"
set object 479 rect from -6.00736,0.647889 to 2.71026,0.715672 fc rgb "blue"
set object 480 rect from -6.02292,0.65237 to 2.73968,0.720421 fc rgb "blue"
set object 481 rect from -6.03855,0.656853 to 2.76926,0.725182 fc rgb "blue"
set object 482 rect from -6.05426,0.661341 to 2.79901,0.729957 fc rgb "blue"
set object 483 rect from -6.07004,0.665833 to 2.82893,0.734748 fc rgb "blue"
set object 484 rect from -6.08588,0.670334 to 2.85901,0.739556 fc rgb "blue"
set object 485 rect from -6.10179,0.674844 to 2.88924,0.744384 fc rgb "blue"
set object 486 rect from -6.11779,0.679364 to 2.91966,0.749233 fc rgb "blue"
set object 487 rect from -6.13385,0.683899 to 2.95024,0.754106 fc rgb "blue"
set object 488 rect from -6.14999,0.688448 to 2.98099,0.759002 fc rgb "blue"
set object 489 rect from -6.1662,0.693013 to 3.0119,0.763925 fc rgb "blue"
set object 490 rect from -6.18249,0.697598 to 3.04299,0.768876 fc rgb "blue"
set object 491 rect from -6.19885,0.702203 to 3.07425,0.773856 fc rgb "blue"
set object 492 rect from -6.21529,0.706828 to 3.10568,0.778868 fc rgb "blue"
set object 493 rect from -6.2318,0.711478 to 3.13728,0.783912 fc rgb "blue"
set object 494 rect from -6.24839,0.716154 to 3.16906,0.788991 fc rgb "blue"
set object 495 rect from -6.26506,0.720855 to 3.20102,0.794106 fc rgb "blue"
set object 496 rect from -6.2818,0.725586 to 3.23315,0.79926 fc rgb "blue"
set object 497 rect from -6.29862,0.730347 to 3.26546,0.804452 fc rgb "blue"
set object 498 rect from -6.31551,0.73514 to 3.29794,0.809685 fc rgb "blue"
set object 499 rect from -6.33249,0.739966 to 3.33061,0.814961 fc rgb "blue"
set object 500 rect from -6.34954,0.744827 to 3.36346,0.820282 fc rgb "blue"
set object 501 rect from -6.36669,0.749726 to 3.39651,0.825649 fc rgb "blue"
set object 502 rect from -6.38428,0.75466 to 3.4301,0.831064 fc rgb "blue"
set object 503 rect from -6.40195,0.759635 to 3.46388,0.83653 fc rgb "blue"
set object 504 rect from -6.4197,0.764651 to 3.49785,0.842046 fc rgb "blue"
set object 505 rect from -6.43754,0.76971 to 3.53202,0.847614 fc rgb "blue"
set object 506 rect from -6.45545,0.774814 to 3.56636,0.853238 fc rgb "blue"
set object 507 rect from -6.47346,0.779965 to 3.60091,0.858916 fc rgb "blue"
set object 508 rect from -6.49154,0.785164 to 3.63565,0.864652 fc rgb "blue"
set object 509 rect from -6.5097,0.790412 to 3.67058,0.870447 fc rgb "blue"
set object 510 rect from -6.52795,0.795711 to 3.7057,0.876303 fc rgb "blue"
set object 511 rect from -6.54629,0.801064 to 3.74103,0.882223 fc rgb "blue"
set object 512 rect from -6.56471,0.806472 to 3.77656,0.888205 fc rgb "blue"
set object 513 rect from -6.58321,0.811934 to 3.81229,0.894255 fc rgb "blue"
set object 514 rect from -6.60179,0.817456 to 3.84822,0.900372 fc rgb "blue"
set object 515 rect from -6.62046,0.823038 to 3.88435,0.906558 fc rgb "blue"
set object 516 rect from -6.63921,0.82868 to 3.92068,0.912817 fc rgb "blue"
set object 517 rect from -6.65805,0.834386 to 3.95723,0.919148 fc rgb "blue"
set object 518 rect from -6.67696,0.840156 to 3.99397,0.925554 fc rgb "blue"
set object 519 rect from -6.69597,0.845993 to 4.03093,0.932037 fc rgb "blue"
set object 520 rect from -6.71506,0.851899 to 4.06811,0.938599 fc rgb "blue"
set object 521 rect from -6.73422,0.857874 to 4.10548,0.945242 fc rgb "blue"
set object 522 rect from -6.75348,0.863921 to 4.14308,0.951967 fc rgb "blue"
set object 523 rect from -6.77281,0.870043 to 4.18088,0.958777 fc rgb "blue"
set object 524 rect from -6.79224,0.876239 to 4.21891,0.965674 fc rgb "blue"
set object 525 rect from -6.81174,0.882514 to 4.25716,0.972658 fc rgb "blue"
set object 526 rect from -6.83132,0.888868 to 4.29562,0.979733 fc rgb "blue"
set object 527 rect from -6.851,0.895302 to 4.33431,0.986901 fc rgb "blue"
set object 528 rect from -6.87075,0.90182 to 4.37321,0.994164 fc rgb "blue"
set object 529 rect from -6.89059,0.908424 to 4.41235,1.00153 fc rgb "blue"
set object 530 rect from -6.91051,0.915115 to 4.45172,1.00899 fc rgb "blue"
set object 531 rect from -6.93051,0.921894 to 4.49131,1.01655 fc rgb "blue"
set object 532 rect from -6.95059,0.928765 to 4.53112,1.02421 fc rgb "blue"
set object 533 rect from -6.97076,0.935729 to 4.57117,1.03197 fc rgb "blue"
set object 534 rect from -6.99101,0.942789 to 4.61146,1.03985 fc rgb "blue"
set object 535 rect from -7.01134,0.949946 to 4.65199,1.04784 fc rgb "blue"
set object 536 rect from -7.03175,0.957203 to 4.69275,1.05594 fc rgb "blue"
set object 537 rect from -7.05224,0.964561 to 4.73375,1.06415 fc rgb "blue"
set object 538 rect from -7.07281,0.972031 to 4.77499,1.07248 fc rgb "blue"
set object 539 rect from -7.09347,0.979601 to 4.81648,1.08093 fc rgb "blue"
set object 540 rect from -7.1142,0.987281 to 4.85821,1.08951 fc rgb "blue"
set object 541 rect from -7.13502,0.99507 to 4.9002,1.0982 fc rgb "blue"
set object 542 rect from -7.15591,1.00297 to 4.94243,1.10702 fc rgb "blue"
set object 543 rect from -7.17688,1.01099 to 4.98491,1.11598 fc rgb "blue"
set object 544 rect from -7.19794,1.01913 to 5.02765,1.12505 fc rgb "blue"
set object 545 rect from -7.21908,1.02738 to 5.07065,1.13428 fc rgb "blue"
set object 546 rect from -7.24028,1.03577 to 5.1139,1.14363 fc rgb "blue"
set object 547 rect from -7.26157,1.04427 to 5.15742,1.15313 fc rgb "blue"
set object 548 rect from -7.28294,1.0529 to 5.20121,1.16277 fc rgb "blue"
set object 549 rect from -7.30438,1.06167 to 5.24526,1.17256 fc rgb "blue"
set object 550 rect from -7.32591,1.07056 to 5.28958,1.18249 fc rgb "blue"
set object 551 rect from -7.34752,1.0796 to 5.33418,1.19257 fc rgb "blue"
set object 552 rect from -7.36919,1.08877 to 5.37904,1.20282 fc rgb "blue"
set object 553 rect from -7.39095,1.09807 to 5.42419,1.21321 fc rgb "blue"
set object 554 rect from -7.41279,1.10753 to 5.46962,1.22376 fc rgb "blue"
set object 555 rect from -7.4347,1.11714 to 5.51534,1.23448 fc rgb "blue"
set object 556 rect from -7.45668,1.1269 to 5.56134,1.24536 fc rgb "blue"
set object 557 rect from -7.47875,1.1368 to 5.60763,1.25642 fc rgb "blue"
set object 558 rect from -7.50089,1.14686 to 5.65422,1.26763 fc rgb "blue"
set object 559 rect from -7.52311,1.15708 to 5.70111,1.27903 fc rgb "blue"
set object 560 rect from -7.5454,1.16746 to 5.7483,1.2906 fc rgb "blue"
set object 561 rect from -7.56778,1.178 to 5.79579,1.30237 fc rgb "blue"
set object 562 rect from -7.59023,1.18871 to 5.8436,1.3143 fc rgb "blue"
set object 563 rect from -7.61276,1.1996 to 5.89171,1.32642 fc rgb "blue"
set object 564 rect from -7.63537,1.21065 to 5.94015,1.33874 fc rgb "blue"
set object 565 rect from -7.65806,1.22188 to 5.98891,1.35124 fc rgb "blue"
set object 566 rect from -7.68083,1.23328 to 6.03799,1.36394 fc rgb "blue"
set object 567 rect from -7.70368,1.24488 to 6.08741,1.37684 fc rgb "blue"
set object 568 rect from -7.72661,1.25665 to 6.13716,1.38995 fc rgb "blue"
set object 569 rect from -7.74963,1.26861 to 6.18725,1.40325 fc rgb "blue"
set object 570 rect from -7.77273,1.28077 to 6.23769,1.41676 fc rgb "blue"
set object 571 rect from -7.79592,1.29311 to 6.28849,1.43048 fc rgb "blue"
set object 572 rect from -7.81919,1.30565 to 6.33964,1.44442 fc rgb "blue"
set object 573 rect from -7.84256,1.3184 to 6.39115,1.45856 fc rgb "blue"
set object 574 rect from -7.86601,1.33133 to 6.44304,1.47293 fc rgb "blue"
set object 575 rect from -7.88956,1.34448 to 6.4953,1.4875 fc rgb "blue"
set object 576 rect from -7.91321,1.35784 to 6.54795,1.50231 fc rgb "blue"
set object 577 rect from -7.93695,1.3714 to 6.60099,1.51735 fc rgb "blue"
set object 578 rect from -7.96079,1.38518 to 6.65442,1.5326 fc rgb "blue"
set object 579 rect from -7.98474,1.39918 to 6.70826,1.5481 fc rgb "blue"
set object 580 rect from -8.00879,1.41339 to 6.76251,1.56381 fc rgb "blue"
set object 581 rect from -8.03296,1.42782 to 6.81718,1.57976 fc rgb "blue"
set object 582 rect from -8.05723,1.44247 to 6.87228,1.59594 fc rgb "blue"
set object 583 rect from -8.08163,1.45735 to 6.92782,1.61237 fc rgb "blue"
set object 584 rect from -8.10614,1.47246 to 6.9838,1.62902 fc rgb "blue"
set object 585 rect from -8.13078,1.48779 to 7.04023,1.64591 fc rgb "blue"
set object 586 rect from -8.15555,1.50335 to 7.09713,1.66304 fc rgb "blue"
set object 587 rect from -8.18045,1.51915 to 7.1545,1.68042 fc rgb "blue"
set object 588 rect from -8.20549,1.53517 to 7.21235,1.69802 fc rgb "blue"
set object 589 rect from -8.23068,1.55143 to 7.27069,1.71586 fc rgb "blue"
set object 590 rect from -8.25601,1.56792 to 7.32954,1.73394 fc rgb "blue"
set object 591 rect from -8.2815,1.58465 to 7.38889,1.75226 fc rgb "blue"
set object 592 rect from -8.30714,1.60161 to 7.44877,1.77081 fc rgb "blue"
set object 593 rect from -8.33295,1.61881 to 7.50918,1.78959 fc rgb "blue"
set object 594 rect from -8.35894,1.63624 to 7.57013,1.8086 fc rgb "blue"
set object 595 rect from -8.3851,1.65391 to 7.63164,1.82785 fc rgb "blue"
set object 596 rect from -8.41145,1.67181 to 7.69371,1.84731 fc rgb "blue"
set object 597 rect from -8.43799,1.68993 to 7.75635,1.86699 fc rgb "blue"
set object 598 rect from -8.46472,1.70828 to 7.81959,1.88688 fc rgb "blue"
set object 599 rect from -8.49166,1.72688 to 7.88342,1.90699 fc rgb "blue"
set object 600 rect from -8.51882,1.74567 to 7.94787,1.9273 fc rgb "blue"
set object 601 rect from -8.54625,1.7647 to 8.01298,1.94781 fc rgb "blue"
set object 602 rect from -8.57385,1.78394 to 8.07868,1.9685 fc rgb "blue"
set object 603 rect from -8.6017,1.80339 to 8.14503,1.98938 fc rgb "blue"
set object 604 rect from -8.62979,1.82304 to 8.21204,2.01042 fc rgb "blue"
set object 605 rect from -8.65757,1.84289 to 8.27971,2.03162 fc rgb "blue"
set object 606 rect from -8.68532,1.86293 to 8.34807,2.05298 fc rgb "blue"
set object 607 rect from -8.7133,1.88315 to 8.41713,2.07446 fc rgb "blue"
set object 608 rect from -8.74154,1.90355 to 8.48689,2.09608 fc rgb "blue"
set object 609 rect from -8.77003,1.92412 to 8.55737,2.1178 fc rgb "blue"
set object 610 rect from -8.79878,1.94484 to 8.62858,2.13961 fc rgb "blue"
set object 611 rect from -8.82781,1.96569 to 8.70053,2.1615 fc rgb "blue"
set object 612 rect from -8.85712,1.98668 to 8.77324,2.18345 fc rgb "blue"
set object 613 rect from -8.88673,2.00779 to 8.84679,2.20543 fc rgb "blue"
set object 614 rect from -8.91693,2.029 to 8.92125,2.22743 fc rgb "blue"
set object 615 rect from -8.94779,2.05029 to 8.99654,2.24943 fc rgb "blue"
set object 616 rect from -8.97927,2.07164 to 9.07261,2.27139 fc rgb "blue"
set object 617 rect from -9.01129,2.09305 to 9.14936,2.2933 fc rgb "blue"
set object 618 rect from -9.0438,2.11449 to 9.2268,2.31513 fc rgb "blue"
set object 619 rect from -9.07671,2.13593 to 9.30507,2.33685 fc rgb "blue"
set object 620 rect from -9.10997,2.15735 to 9.38416,2.35842 fc rgb "blue"
set object 621 rect from -9.14347,2.17874 to 9.46408,2.37983 fc rgb "blue"
set object 622 rect from -9.17715,2.20007 to 9.54484,2.40103 fc rgb "blue"
set object 623 rect from -9.21091,2.22132 to 9.62645,2.42198 fc rgb "blue"
set object 624 rect from -9.24466,2.24243 to 9.7089,2.44265 fc rgb "blue"
set object 625 rect from -9.2786,2.2634 to 9.7922,2.46301 fc rgb "blue"
set object 626 rect from -9.31296,2.28419 to 9.87634,2.48303 fc rgb "blue"
set object 627 rect from -9.34775,2.30476 to 9.96134,2.50262 fc rgb "blue"
set object 628 rect from -9.38297,2.32508 to 9.99705,2.52179 fc rgb "blue"
set object 629 rect from -9.41863,2.34511 to 9.99931,2.54046 fc rgb "blue"
set object 630 rect from -9.45474,2.36481 to 10.2214,2.55861 fc rgb "blue"
set object 631 rect from -9.49131,2.38414 to 10.3097,2.57617 fc rgb "blue"
set object 632 rect from -9.52833,2.40307 to 10.3989,2.5931 fc rgb "blue"
set object 633 rect from -9.56582,2.42154 to 10.4888,2.60935 fc rgb "blue"
set object 634 rect from -9.60378,2.43951 to 10.5796,2.62487 fc rgb "blue"
set object 635 rect from -9.6422,2.45694 to 10.6711,2.6396 fc rgb "blue"
set object 636 rect from -9.68109,2.47378 to 10.7633,2.65351 fc rgb "blue"
set object 637 rect from -9.72045,2.48996 to 10.8563,2.66651 fc rgb "blue"
set object 638 rect from -9.76028,2.50546 to 10.95,2.67858 fc rgb "blue"
set object 639 rect from -9.80057,2.52021 to 11.0443,2.68964 fc rgb "blue"
set object 640 rect from -9.84132,2.53418 to 11.1393,2.69965 fc rgb "blue"
set object 641 rect from -9.88253,2.54729 to 11.2349,2.70855 fc rgb "blue"
set object 642 rect from -9.92418,2.5595 to 11.3311,2.7163 fc rgb "blue"
set object 643 rect from -10.0005,2.57075 to 11.4278,2.72283 fc rgb "blue"
set object 644 rect from -10.0087,2.581 to 11.525,2.72809 fc rgb "blue"
set object 645 rect from -10.0517,2.59018 to 11.6226,2.73204 fc rgb "blue"
set object 646 rect from -10.095,2.59823 to 11.7207,2.73463 fc rgb "blue"
set object 647 rect from -10.1387,2.60512 to 11.819,2.7358 fc rgb "blue"
set object 648 rect from -10.1827,2.61079 to 11.9177,2.73617 fc rgb "blue"
set object 649 rect from -10.2272,2.61518 to 12.0169,2.73642 fc rgb "blue"
set object 650 rect from -10.2719,2.61358 to 12.1169,2.73663 fc rgb "blue"
set object 651 rect from -10.3169,2.60792 to 12.2176,2.7368 fc rgb "blue"
set object 652 rect from -10.3622,2.60066 to 12.319,2.73694 fc rgb "blue"
set object 653 rect from -10.4081,2.59176 to 12.4213,2.73649 fc rgb "blue"
set object 654 rect from -10.4547,2.5812 to 12.5243,2.73456 fc rgb "blue"
set object 655 rect from -10.5022,2.56895 to 12.628,2.73109 fc rgb "blue"
set object 656 rect from -10.5506,2.55502 to 12.7325,2.72604 fc rgb "blue"
set object 657 rect from -10.5999,2.53936 to 12.8378,2.7194 fc rgb "blue"
set object 658 rect from -10.6501,2.52201 to 12.9438,2.71112 fc rgb "blue"
set object 659 rect from -10.7013,2.50292 to 13.0505,2.70118 fc rgb "blue"
set object 660 rect from -10.7535,2.48215 to 13.158,2.68957 fc rgb "blue"
set object 661 rect from -10.8067,2.45966 to 13.2662,2.67628 fc rgb "blue"
set object 662 rect from -10.8609,2.43551 to 13.3751,2.66128 fc rgb "blue"
set object 663 rect from -10.9163,2.40969 to 13.4847,2.64458 fc rgb "blue"
set object 664 rect from -10.9727,2.38223 to 13.595,2.62617 fc rgb "blue"
set object 665 rect from -11.0303,2.35318 to 13.706,2.60607 fc rgb "blue"
set object 666 rect from -11.089,2.32257 to 13.8176,2.58428 fc rgb "blue"
set object 667 rect from -11.1489,2.29043 to 13.9299,2.56082 fc rgb "blue"
set object 668 rect from -11.21,2.25683 to 14.0428,2.53572 fc rgb "blue"
set object 669 rect from -11.2724,2.22181 to 14.1563,2.50899 fc rgb "blue"
set object 670 rect from -11.3359,2.18542 to 14.2704,2.48068 fc rgb "blue"
set object 671 rect from -11.4007,2.14774 to 14.3851,2.45083 fc rgb "blue"
set object 672 rect from -11.4668,2.10883 to 14.5003,2.41946 fc rgb "blue"
set object 673 rect from -11.5341,2.06875 to 14.616,2.38665 fc rgb "blue"
set object 674 rect from -11.6027,2.02757 to 14.7322,2.35243 fc rgb "blue"
set object 675 rect from -11.6726,1.98538 to 14.8488,2.31687 fc rgb "blue"
set object 676 rect from -11.7438,1.94226 to 14.9659,2.28001 fc rgb "blue"
set object 677 rect from -11.8162,1.89826 to 15.0834,2.24196 fc rgb "blue"
set object 678 rect from -11.8899,1.85348 to 15.2013,2.20274 fc rgb "blue"
set object 679 rect from -11.9649,1.80802 to 15.3195,2.16245 fc rgb "blue"
set object 680 rect from -12.0412,1.76193 to 15.438,2.12116 fc rgb "blue"
set object 681 rect from -12.1187,1.7153 to 15.5568,2.07895 fc rgb "blue"
set object 682 rect from -12.1974,1.66822 to 15.6758,2.03589 fc rgb "blue"
set object 683 rect from -12.2773,1.62078 to 15.7951,1.99207 fc rgb "blue"
set object 684 rect from -12.3585,1.57305 to 15.9145,1.94756 fc rgb "blue"
set object 685 rect from -12.4408,1.52511 to 16.0341,1.90246 fc rgb "blue"
set object 686 rect from -12.5243,1.47704 to 16.1537,1.85684 fc rgb "blue"
set object 687 rect from -12.6089,1.4289 to 16.2735,1.81078 fc rgb "blue"
set object 688 rect from -12.6946,1.38079 to 16.3933,1.76437 fc rgb "blue"
set object 689 rect from -12.7815,1.33276 to 16.5132,1.71769 fc rgb "blue"
set object 690 rect from -12.8693,1.28489 to 16.633,1.67081 fc rgb "blue"
set object 691 rect from -12.9582,1.23725 to 16.7528,1.6238 fc rgb "blue"
set object 692 rect from -13.0481,1.18988 to 16.8725,1.57676 fc rgb "blue"
set object 693 rect from -13.1389,1.14286 to 16.9922,1.52975 fc rgb "blue"
set object 694 rect from -13.2307,1.09624 to 17.1117,1.48285 fc rgb "blue"
set object 695 rect from -13.3233,1.05007 to 17.2311,1.4361 fc rgb "blue"
set object 696 rect from -13.4169,1.00438 to 17.3503,1.3896 fc rgb "blue"
set object 697 rect from -13.5112,0.959243 to 17.4694,1.34338 fc rgb "blue"
set object 698 rect from -13.6064,0.914689 to 17.5882,1.29752 fc rgb "blue"
set object 699 rect from -13.7023,0.870758 to 17.7069,1.25206 fc rgb "blue"
set object rectangle from graph 0, first 2.75000000000000 to graph 1, graph 1 fillcolor rgb 'pink'
set key center bottom Left title 'VO:blue Unsafe:pink' font 'Helvetica, 10'
set key center bottom Left title 'VO:blue '
plot [-13.7023:17.7069] [-2.68795:2.73694] NaN notitle