%!PS-Adobe-3.0 EPSF-3.0
%%Creator: (MATLAB, The Mathworks, Inc. Version 9.3.0.713579 \(R2017b\). Operating System: Linux)
%%Title: /home/niklas/Documents/Repositories/cora/manual/figures/examples/example_nonlinearDT_reach_cstrDisc.eps
%%CreationDate: 2018-08-02T09:36:26
%%Pages: (atend)
%%BoundingBox: 0 0 413 293
%%LanguageLevel: 3
%%EndComments
%%BeginProlog
%%BeginResource: procset (Apache XML Graphics Std ProcSet) 1.2 0
%%Version: 1.2 0
%%Copyright: (Copyright 2001-2003,2010 The Apache Software Foundation. License terms: http://www.apache.org/licenses/LICENSE-2.0)
/bd{bind def}bind def
/ld{load def}bd
/GR/grestore ld
/GS/gsave ld
/RM/rmoveto ld
/C/curveto ld
/t/show ld
/L/lineto ld
/ML/setmiterlimit ld
/CT/concat ld
/f/fill ld
/N/newpath ld
/S/stroke ld
/CC/setcmykcolor ld
/A/ashow ld
/cp/closepath ld
/RC/setrgbcolor ld
/LJ/setlinejoin ld
/GC/setgray ld
/LW/setlinewidth ld
/M/moveto ld
/re {4 2 roll M
1 index 0 rlineto
0 exch rlineto
neg 0 rlineto
cp } bd
/_ctm matrix def
/_tm matrix def
/BT { _ctm currentmatrix pop matrix _tm copy pop 0 0 moveto } bd
/ET { _ctm setmatrix } bd
/iTm { _ctm setmatrix _tm concat } bd
/Tm { _tm astore pop iTm 0 0 moveto } bd
/ux 0.0 def
/uy 0.0 def
/F {
  /Tp exch def
  /Tf exch def
  Tf findfont Tp scalefont setfont
  /cf Tf def  /cs Tp def
} bd
/ULS {currentpoint /uy exch def /ux exch def} bd
/ULE {
  /Tcx currentpoint pop def
  gsave
  newpath
  cf findfont cs scalefont dup
  /FontMatrix get 0 get /Ts exch def /FontInfo get dup
  /UnderlinePosition get Ts mul /To exch def
  /UnderlineThickness get Ts mul /Tt exch def
  ux uy To add moveto  Tcx uy To add lineto
  Tt setlinewidth stroke
  grestore
} bd
/OLE {
  /Tcx currentpoint pop def
  gsave
  newpath
  cf findfont cs scalefont dup
  /FontMatrix get 0 get /Ts exch def /FontInfo get dup
  /UnderlinePosition get Ts mul /To exch def
  /UnderlineThickness get Ts mul /Tt exch def
  ux uy To add cs add moveto Tcx uy To add cs add lineto
  Tt setlinewidth stroke
  grestore
} bd
/SOE {
  /Tcx currentpoint pop def
  gsave
  newpath
  cf findfont cs scalefont dup
  /FontMatrix get 0 get /Ts exch def /FontInfo get dup
  /UnderlinePosition get Ts mul /To exch def
  /UnderlineThickness get Ts mul /Tt exch def
  ux uy To add cs 10 mul 26 idiv add moveto Tcx uy To add cs 10 mul 26 idiv add lineto
  Tt setlinewidth stroke
  grestore
} bd
/QT {
/Y22 exch store
/X22 exch store
/Y21 exch store
/X21 exch store
currentpoint
/Y21 load 2 mul add 3 div exch
/X21 load 2 mul add 3 div exch
/X21 load 2 mul /X22 load add 3 div
/Y21 load 2 mul /Y22 load add 3 div
/X22 load /Y22 load curveto
} bd
/SSPD {
dup length /d exch dict def
{
/v exch def
/k exch def
currentpagedevice k known {
/cpdv currentpagedevice k get def
v cpdv ne {
/upd false def
/nullv v type /nulltype eq def
/nullcpdv cpdv type /nulltype eq def
nullv nullcpdv or
{
/upd true def
} {
/sametype v type cpdv type eq def
sametype {
v type /arraytype eq {
/vlen v length def
/cpdvlen cpdv length def
vlen cpdvlen eq {
0 1 vlen 1 sub {
/i exch def
/obj v i get def
/cpdobj cpdv i get def
obj cpdobj ne {
/upd true def
exit
} if
} for
} {
/upd true def
} ifelse
} {
v type /dicttype eq {
v {
/dv exch def
/dk exch def
/cpddv cpdv dk get def
dv cpddv ne {
/upd true def
exit
} if
} forall
} {
/upd true def
} ifelse
} ifelse
} if
} ifelse
upd true eq {
d k v put
} if
} if
} if
} forall
d length 0 gt {
d setpagedevice
} if
} bd
/RE { % /NewFontName [NewEncodingArray] /FontName RE -
  findfont dup length dict begin
  {
    1 index /FID ne
    {def} {pop pop} ifelse
  } forall
  /Encoding exch def
  /FontName 1 index def
  currentdict definefont pop
  end
} bind def
%%EndResource
%%BeginResource: procset (Apache XML Graphics EPS ProcSet) 1.0 0
%%Version: 1.0 0
%%Copyright: (Copyright 2002-2003 The Apache Software Foundation. License terms: http://www.apache.org/licenses/LICENSE-2.0)
/BeginEPSF { %def
/b4_Inc_state save def         % Save state for cleanup
/dict_count countdictstack def % Count objects on dict stack
/op_count count 1 sub def      % Count objects on operand stack
userdict begin                 % Push userdict on dict stack
/showpage { } def              % Redefine showpage, { } = null proc
0 setgray 0 setlinecap         % Prepare graphics state
1 setlinewidth 0 setlinejoin
10 setmiterlimit [ ] 0 setdash newpath
/languagelevel where           % If level not equal to 1 then
{pop languagelevel             % set strokeadjust and
1 ne                           % overprint to their defaults.
{false setstrokeadjust false setoverprint
} if
} if
} bd
/EndEPSF { %def
count op_count sub {pop} repeat            % Clean up stacks
countdictstack dict_count sub {end} repeat
b4_Inc_state restore
} bd
%%EndResource
%FOPBeginFontDict
%%IncludeResource: font Courier-Oblique
%%IncludeResource: font Courier-BoldOblique
%%IncludeResource: font Courier-Bold
%%IncludeResource: font ZapfDingbats
%%IncludeResource: font Symbol
%%IncludeResource: font Helvetica
%%IncludeResource: font Helvetica-Oblique
%%IncludeResource: font Helvetica-Bold
%%IncludeResource: font Helvetica-BoldOblique
%%IncludeResource: font Times-Roman
%%IncludeResource: font Times-Italic
%%IncludeResource: font Times-Bold
%%IncludeResource: font Times-BoldItalic
%%IncludeResource: font Courier
%FOPEndFontDict
%%BeginResource: encoding WinAnsiEncoding
/WinAnsiEncoding [
/.notdef /.notdef /.notdef /.notdef /.notdef
/.notdef /.notdef /.notdef /.notdef /.notdef
/.notdef /.notdef /.notdef /.notdef /.notdef
/.notdef /.notdef /.notdef /.notdef /.notdef
/.notdef /.notdef /.notdef /.notdef /.notdef
/.notdef /.notdef /.notdef /.notdef /.notdef
/.notdef /.notdef /space /exclam /quotedbl
/numbersign /dollar /percent /ampersand /quotesingle
/parenleft /parenright /asterisk /plus /comma
/hyphen /period /slash /zero /one
/two /three /four /five /six
/seven /eight /nine /colon /semicolon
/less /equal /greater /question /at
/A /B /C /D /E
/F /G /H /I /J
/K /L /M /N /O
/P /Q /R /S /T
/U /V /W /X /Y
/Z /bracketleft /backslash /bracketright /asciicircum
/underscore /quoteleft /a /b /c
/d /e /f /g /h
/i /j /k /l /m
/n /o /p /q /r
/s /t /u /v /w
/x /y /z /braceleft /bar
/braceright /asciitilde /bullet /Euro /bullet
/quotesinglbase /florin /quotedblbase /ellipsis /dagger
/daggerdbl /circumflex /perthousand /Scaron /guilsinglleft
/OE /bullet /Zcaron /bullet /bullet
/quoteleft /quoteright /quotedblleft /quotedblright /bullet
/endash /emdash /asciitilde /trademark /scaron
/guilsinglright /oe /bullet /zcaron /Ydieresis
/space /exclamdown /cent /sterling /currency
/yen /brokenbar /section /dieresis /copyright
/ordfeminine /guillemotleft /logicalnot /sfthyphen /registered
/macron /degree /plusminus /twosuperior /threesuperior
/acute /mu /paragraph /middot /cedilla
/onesuperior /ordmasculine /guillemotright /onequarter /onehalf
/threequarters /questiondown /Agrave /Aacute /Acircumflex
/Atilde /Adieresis /Aring /AE /Ccedilla
/Egrave /Eacute /Ecircumflex /Edieresis /Igrave
/Iacute /Icircumflex /Idieresis /Eth /Ntilde
/Ograve /Oacute /Ocircumflex /Otilde /Odieresis
/multiply /Oslash /Ugrave /Uacute /Ucircumflex
/Udieresis /Yacute /Thorn /germandbls /agrave
/aacute /acircumflex /atilde /adieresis /aring
/ae /ccedilla /egrave /eacute /ecircumflex
/edieresis /igrave /iacute /icircumflex /idieresis
/eth /ntilde /ograve /oacute /ocircumflex
/otilde /odieresis /divide /oslash /ugrave
/uacute /ucircumflex /udieresis /yacute /thorn
/ydieresis
] def
%%EndResource
%FOPBeginFontReencode
/Courier-Oblique findfont
dup length dict begin
  {1 index /FID ne {def} {pop pop} ifelse} forall
  /Encoding WinAnsiEncoding def
  currentdict
end
/Courier-Oblique exch definefont pop
/Courier-BoldOblique findfont
dup length dict begin
  {1 index /FID ne {def} {pop pop} ifelse} forall
  /Encoding WinAnsiEncoding def
  currentdict
end
/Courier-BoldOblique exch definefont pop
/Courier-Bold findfont
dup length dict begin
  {1 index /FID ne {def} {pop pop} ifelse} forall
  /Encoding WinAnsiEncoding def
  currentdict
end
/Courier-Bold exch definefont pop
/Helvetica findfont
dup length dict begin
  {1 index /FID ne {def} {pop pop} ifelse} forall
  /Encoding WinAnsiEncoding def
  currentdict
end
/Helvetica exch definefont pop
/Helvetica-Oblique findfont
dup length dict begin
  {1 index /FID ne {def} {pop pop} ifelse} forall
  /Encoding WinAnsiEncoding def
  currentdict
end
/Helvetica-Oblique exch definefont pop
/Helvetica-Bold findfont
dup length dict begin
  {1 index /FID ne {def} {pop pop} ifelse} forall
  /Encoding WinAnsiEncoding def
  currentdict
end
/Helvetica-Bold exch definefont pop
/Helvetica-BoldOblique findfont
dup length dict begin
  {1 index /FID ne {def} {pop pop} ifelse} forall
  /Encoding WinAnsiEncoding def
  currentdict
end
/Helvetica-BoldOblique exch definefont pop
/Times-Roman findfont
dup length dict begin
  {1 index /FID ne {def} {pop pop} ifelse} forall
  /Encoding WinAnsiEncoding def
  currentdict
end
/Times-Roman exch definefont pop
/Times-Italic findfont
dup length dict begin
  {1 index /FID ne {def} {pop pop} ifelse} forall
  /Encoding WinAnsiEncoding def
  currentdict
end
/Times-Italic exch definefont pop
/Times-Bold findfont
dup length dict begin
  {1 index /FID ne {def} {pop pop} ifelse} forall
  /Encoding WinAnsiEncoding def
  currentdict
end
/Times-Bold exch definefont pop
/Times-BoldItalic findfont
dup length dict begin
  {1 index /FID ne {def} {pop pop} ifelse} forall
  /Encoding WinAnsiEncoding def
  currentdict
end
/Times-BoldItalic exch definefont pop
/Courier findfont
dup length dict begin
  {1 index /FID ne {def} {pop pop} ifelse} forall
  /Encoding WinAnsiEncoding def
  currentdict
end
/Courier exch definefont pop
%FOPEndFontReencode
%%EndProlog
%%Page: 1 1
%%PageBoundingBox: 0 0 413 293
%%BeginPageSetup
[1 0 0 -1 0 293] CT
%%EndPageSetup
GS
[0.75 0 0 0.75 0 0.5] CT
N
0 0 M
550 0 L
550 390 L
0 390 L
0 0 L
cp
clip
1 GC
N
0 0 550 390 re
f
GR
GS
[0.75 0 0 0.75 0 0.5] CT
1 GC
N
0 0 550 390 re
f
GR
GS
[0.75 0 0 0.75 0 0.5] CT
1 GC
N
72 342 M
498 342 L
498 29 L
72 29 L
cp
f
GR
GS
[0.75 0 0 0.75 0 0.5] CT
0.149 GC
2 setlinecap
1 LJ
0.667 LW
N
72 342 M
498 342 L
S
GR
GS
[0.75 0 0 0.75 0 0.5] CT
0.149 GC
2 setlinecap
1 LJ
0.667 LW
N
72 29 M
498 29 L
S
GR
GS
[0.75 0 0 0.75 0 0.5] CT
0.149 GC
2 setlinecap
1 LJ
0.667 LW
N
72 342 M
72 337.74 L
S
GR
GS
[0.75 0 0 0.75 0 0.5] CT
0.149 GC
2 setlinecap
1 LJ
0.667 LW
N
143 342 M
143 337.74 L
S
GR
GS
[0.75 0 0 0.75 0 0.5] CT
0.149 GC
2 setlinecap
1 LJ
0.667 LW
N
214 342 M
214 337.74 L
S
GR
GS
[0.75 0 0 0.75 0 0.5] CT
0.149 GC
2 setlinecap
1 LJ
0.667 LW
N
285 342 M
285 337.74 L
S
GR
GS
[0.75 0 0 0.75 0 0.5] CT
0.149 GC
2 setlinecap
1 LJ
0.667 LW
N
356 342 M
356 337.74 L
S
GR
GS
[0.75 0 0 0.75 0 0.5] CT
0.149 GC
2 setlinecap
1 LJ
0.667 LW
N
427 342 M
427 337.74 L
S
GR
GS
[0.75 0 0 0.75 0 0.5] CT
0.149 GC
2 setlinecap
1 LJ
0.667 LW
N
498 342 M
498 337.74 L
S
GR
GS
[0.75 0 0 0.75 0 0.5] CT
0.149 GC
2 setlinecap
1 LJ
0.667 LW
N
72 29 M
72 33.26 L
S
GR
GS
[0.75 0 0 0.75 0 0.5] CT
0.149 GC
2 setlinecap
1 LJ
0.667 LW
N
143 29 M
143 33.26 L
S
GR
GS
[0.75 0 0 0.75 0 0.5] CT
0.149 GC
2 setlinecap
1 LJ
0.667 LW
N
214 29 M
214 33.26 L
S
GR
GS
[0.75 0 0 0.75 0 0.5] CT
0.149 GC
2 setlinecap
1 LJ
0.667 LW
N
285 29 M
285 33.26 L
S
GR
GS
[0.75 0 0 0.75 0 0.5] CT
0.149 GC
2 setlinecap
1 LJ
0.667 LW
N
356 29 M
356 33.26 L
S
GR
GS
[0.75 0 0 0.75 0 0.5] CT
0.149 GC
2 setlinecap
1 LJ
0.667 LW
N
427 29 M
427 33.26 L
S
GR
GS
[0.75 0 0 0.75 0 0.5] CT
0.149 GC
2 setlinecap
1 LJ
0.667 LW
N
498 29 M
498 33.26 L
S
GR
GS
[0.75 0 0 0.75 54.00001 261.00001] CT
0.149 GC
/Helvetica 13.333 F
GS
[1 0 0 1 0 0] CT
-17.5 13 moveto 
1 -1 scale
(-0.16) t 
GR
GR
GS
[0.75 0 0 0.75 107.25 261.00001] CT
0.149 GC
/Helvetica 13.333 F
GS
[1 0 0 1 0 0] CT
-17.5 13 moveto 
1 -1 scale
(-0.14) t 
GR
GR
GS
[0.75 0 0 0.75 160.50001 261.00001] CT
0.149 GC
/Helvetica 13.333 F
GS
[1 0 0 1 0 0] CT
-17.5 13 moveto 
1 -1 scale
(-0.12) t 
GR
GR
GS
[0.75 0 0 0.75 213.75 261.00001] CT
0.149 GC
/Helvetica 13.333 F
GS
[1 0 0 1 0 0] CT
-13 13 moveto 
1 -1 scale
(-0.1) t 
GR
GR
GS
[0.75 0 0 0.75 267 261.00001] CT
0.149 GC
/Helvetica 13.333 F
GS
[1 0 0 1 0 0] CT
-17.5 13 moveto 
1 -1 scale
(-0.08) t 
GR
GR
GS
[0.75 0 0 0.75 320.25 261.00001] CT
0.149 GC
/Helvetica 13.333 F
GS
[1 0 0 1 0 0] CT
-17.5 13 moveto 
1 -1 scale
(-0.06) t 
GR
GR
GS
[0.75 0 0 0.75 373.5 261.00001] CT
0.149 GC
/Helvetica 13.333 F
GS
[1 0 0 1 0 0] CT
-17.5 13 moveto 
1 -1 scale
(-0.04) t 
GR
GR
GS
[0.75 0 0 0.75 201.75 285.5] CT
0.149 GC
/Helvetica 14.667 F
GS
[1 0 0 1 0 0] CT
0 0 moveto 
1 -1 scale
(T-T) t 
GR
GR
GS
[0.75 0 0 0.75 219.75 290.75] CT
0.149 GC
/Helvetica 11.733 F
GS
[1 0 0 1 0 0] CT
0 0 moveto 
1 -1 scale
(0) t 
GR
GR
GS
[0.75 0 0 0.75 0 0.5] CT
0.149 GC
2 setlinecap
1 LJ
0.667 LW
N
72 342 M
72 29 L
S
GR
GS
[0.75 0 0 0.75 0 0.5] CT
0.149 GC
2 setlinecap
1 LJ
0.667 LW
N
498 342 M
498 29 L
S
GR
GS
[0.75 0 0 0.75 0 0.5] CT
0.149 GC
2 setlinecap
1 LJ
0.667 LW
N
72 342 M
76.26 342 L
S
GR
GS
[0.75 0 0 0.75 0 0.5] CT
0.149 GC
2 setlinecap
1 LJ
0.667 LW
N
72 307.222 M
76.26 307.222 L
S
GR
GS
[0.75 0 0 0.75 0 0.5] CT
0.149 GC
2 setlinecap
1 LJ
0.667 LW
N
72 272.444 M
76.26 272.444 L
S
GR
GS
[0.75 0 0 0.75 0 0.5] CT
0.149 GC
2 setlinecap
1 LJ
0.667 LW
N
72 237.667 M
76.26 237.667 L
S
GR
GS
[0.75 0 0 0.75 0 0.5] CT
0.149 GC
2 setlinecap
1 LJ
0.667 LW
N
72 202.889 M
76.26 202.889 L
S
GR
GS
[0.75 0 0 0.75 0 0.5] CT
0.149 GC
2 setlinecap
1 LJ
0.667 LW
N
72 168.111 M
76.26 168.111 L
S
GR
GS
[0.75 0 0 0.75 0 0.5] CT
0.149 GC
2 setlinecap
1 LJ
0.667 LW
N
72 133.333 M
76.26 133.333 L
S
GR
GS
[0.75 0 0 0.75 0 0.5] CT
0.149 GC
2 setlinecap
1 LJ
0.667 LW
N
72 98.556 M
76.26 98.556 L
S
GR
GS
[0.75 0 0 0.75 0 0.5] CT
0.149 GC
2 setlinecap
1 LJ
0.667 LW
N
72 63.778 M
76.26 63.778 L
S
GR
GS
[0.75 0 0 0.75 0 0.5] CT
0.149 GC
2 setlinecap
1 LJ
0.667 LW
N
72 29 M
76.26 29 L
S
GR
GS
[0.75 0 0 0.75 0 0.5] CT
0.149 GC
2 setlinecap
1 LJ
0.667 LW
N
498 342 M
493.74 342 L
S
GR
GS
[0.75 0 0 0.75 0 0.5] CT
0.149 GC
2 setlinecap
1 LJ
0.667 LW
N
498 307.222 M
493.74 307.222 L
S
GR
GS
[0.75 0 0 0.75 0 0.5] CT
0.149 GC
2 setlinecap
1 LJ
0.667 LW
N
498 272.444 M
493.74 272.444 L
S
GR
GS
[0.75 0 0 0.75 0 0.5] CT
0.149 GC
2 setlinecap
1 LJ
0.667 LW
N
498 237.667 M
493.74 237.667 L
S
GR
GS
[0.75 0 0 0.75 0 0.5] CT
0.149 GC
2 setlinecap
1 LJ
0.667 LW
N
498 202.889 M
493.74 202.889 L
S
GR
GS
[0.75 0 0 0.75 0 0.5] CT
0.149 GC
2 setlinecap
1 LJ
0.667 LW
N
498 168.111 M
493.74 168.111 L
S
GR
GS
[0.75 0 0 0.75 0 0.5] CT
0.149 GC
2 setlinecap
1 LJ
0.667 LW
N
498 133.333 M
493.74 133.333 L
S
GR
GS
[0.75 0 0 0.75 0 0.5] CT
0.149 GC
2 setlinecap
1 LJ
0.667 LW
N
498 98.556 M
493.74 98.556 L
S
GR
GS
[0.75 0 0 0.75 0 0.5] CT
0.149 GC
2 setlinecap
1 LJ
0.667 LW
N
498 63.778 M
493.74 63.778 L
S
GR
GS
[0.75 0 0 0.75 0 0.5] CT
0.149 GC
2 setlinecap
1 LJ
0.667 LW
N
498 29 M
493.74 29 L
S
GR
GS
[0.75 0 0 0.75 50 257] CT
0.149 GC
/Helvetica 13.333 F
GS
[1 0 0 1 0 0] CT
-22 4.5 moveto 
1 -1 scale
(-50) t 
GR
GR
GS
[0.75 0 0 0.75 50 230.91667] CT
0.149 GC
/Helvetica 13.333 F
GS
[1 0 0 1 0 0] CT
-22 4.5 moveto 
1 -1 scale
(-45) t 
GR
GR
GS
[0.75 0 0 0.75 50 204.83334] CT
0.149 GC
/Helvetica 13.333 F
GS
[1 0 0 1 0 0] CT
-22 4.5 moveto 
1 -1 scale
(-40) t 
GR
GR
GS
[0.75 0 0 0.75 50 178.75] CT
0.149 GC
/Helvetica 13.333 F
GS
[1 0 0 1 0 0] CT
-22 4.5 moveto 
1 -1 scale
(-35) t 
GR
GR
GS
[0.75 0 0 0.75 50 152.66666] CT
0.149 GC
/Helvetica 13.333 F
GS
[1 0 0 1 0 0] CT
-22 4.5 moveto 
1 -1 scale
(-30) t 
GR
GR
GS
[0.75 0 0 0.75 50 126.58334] CT
0.149 GC
/Helvetica 13.333 F
GS
[1 0 0 1 0 0] CT
-22 4.5 moveto 
1 -1 scale
(-25) t 
GR
GR
GS
[0.75 0 0 0.75 50 100.5] CT
0.149 GC
/Helvetica 13.333 F
GS
[1 0 0 1 0 0] CT
-22 4.5 moveto 
1 -1 scale
(-20) t 
GR
GR
GS
[0.75 0 0 0.75 50 74.41667] CT
0.149 GC
/Helvetica 13.333 F
GS
[1 0 0 1 0 0] CT
-22 4.5 moveto 
1 -1 scale
(-15) t 
GR
GR
GS
[0.75 0 0 0.75 50 48.33333] CT
0.149 GC
/Helvetica 13.333 F
GS
[1 0 0 1 0 0] CT
-22 4.5 moveto 
1 -1 scale
(-10) t 
GR
GR
GS
[0.75 0 0 0.75 50 22.25] CT
0.149 GC
/Helvetica 13.333 F
GS
[1 0 0 1 0 0] CT
-14 4.5 moveto 
1 -1 scale
(-5) t 
GR
GR
GS
[0 -0.75 0.75 0 23.25 152] CT
0.149 GC
/Helvetica 14.667 F
GS
[1 0 0 1 0 0] CT
0 0 moveto 
1 -1 scale
(C-C) t 
GR
GR
GS
[0 -0.75 0.75 0 28.5 132.5] CT
0.149 GC
/Helvetica 11.733 F
GS
[1 0 0 1 0 0] CT
0 0 moveto 
1 -1 scale
(0) t 
GR
GR
GS
[0.75 0 0 0.75 0 0.5] CT
0.8 GC
N
125.25 328.089 M
125.25 286.356 L
89.75 286.356 L
89.75 328.089 L
cp
153.676 252.949 M
164.331 252.949 L
164.331 252.53 L
164.07 221.414 L
164.067 221.413 L
164.049 221.406 L
129.091 221.405 L
118.436 221.405 L
118.436 221.824 L
118.697 252.94 L
118.701 252.941 L
118.718 252.948 L
cp
157.313 196.877 M
191.718 196.871 L
202.2 196.869 L
202.2 196.125 L
201.474 172.816 L
201.452 172.807 L
190.756 172.807 L
156.351 172.813 L
145.869 172.815 L
145.869 173.559 L
146.595 196.868 L
146.617 196.877 L
cp
173.048 154.811 M
183.828 154.811 L
194.3 154.805 L
228.132 154.782 L
238.438 154.775 L
238.438 153.773 L
237.068 136.189 L
226.288 136.189 L
215.816 136.194 L
181.984 136.217 L
171.677 136.225 L
171.677 137.226 L
cp
195.595 123.011 M
208.591 123.011 L
219.052 123.001 L
229.339 122.987 L
262.569 122.936 L
272.693 122.921 L
272.693 108.342 L
259.698 108.342 L
249.236 108.353 L
238.95 108.367 L
205.719 108.417 L
195.595 108.433 L
cp
217.501 98.75 M
241.857 98.75 L
252.12 98.727 L
262.212 98.702 L
294.811 98.615 L
304.743 98.589 L
304.743 86.941 L
280.386 86.941 L
270.123 86.964 L
260.032 86.99 L
227.432 87.076 L
217.501 87.102 L
cp
237.395 80.056 M
271.84 80.056 L
282.276 80.036 L
292.514 80.004 L
302.569 79.966 L
334.508 79.837 L
334.508 70.306 L
300.062 70.306 L
289.626 70.326 L
279.388 70.358 L
269.333 70.395 L
237.395 70.524 L
cp
255.367 65.506 M
300.116 65.506 L
310.54 65.48 L
320.753 65.44 L
330.771 65.391 L
362.02 65.214 L
362.02 57.227 L
317.271 57.227 L
306.847 57.252 L
296.634 57.293 L
286.616 57.342 L
255.367 57.519 L
cp
271.559 54.07 M
326.268 54.07 L
336.682 54.04 L
346.871 53.992 L
356.853 53.931 L
387.388 53.705 L
387.388 46.83 L
332.679 46.83 L
322.265 46.86 L
312.076 46.909 L
302.094 46.969 L
271.559 47.195 L
cp
286.137 45 M
350.439 45 L
360.842 44.967 L
371.011 44.91 L
380.959 44.839 L
410.758 44.563 L
410.758 38.477 L
346.456 38.477 L
336.052 38.511 L
325.884 38.567 L
315.936 38.638 L
286.137 38.914 L
cp
299.272 37.747 M
372.791 37.747 L
383.186 37.71 L
393.336 37.647 L
403.253 37.566 L
432.299 37.242 L
432.299 31.699 L
358.78 31.699 L
348.385 31.736 L
338.235 31.799 L
328.318 31.879 L
299.272 32.204 L
cp
f
GR
GS
[0.75 0 0 0.75 93.93751 215.26667] CT
N
1.333 0 M
1.333 0.736 0.736 1.333 0 1.333 C
-0.736 1.333 -1.333 0.736 -1.333 0 C
-1.333 -0.736 -0.736 -1.333 0 -1.333 C
0.736 -1.333 1.333 -0.736 1.333 0 C
cp
f
GR
GS
[0.75 0 0 0.75 115.04632 166.5548] CT
N
/f-1057828618{1.333 0 M
1.333 0.736 0.736 1.333 0 1.333 C
-0.736 1.333 -1.333 0.736 -1.333 0 C
-1.333 -0.736 -0.736 -1.333 0 -1.333 C
0.736 -1.333 1.333 -0.736 1.333 0 C
cp}def
f-1057828618
f
GR
GS
[0.75 0 0 0.75 143.19618 130.42107] CT
N
f-1057828618
f
GR
GS
[0.75 0 0 0.75 162.00138 102.88533] CT
N
f-1057828618
f
GR
GS
[0.75 0 0 0.75 187.35424 81.96014] CT
N
f-1057828618
f
GR
GS
[0.75 0 0 0.75 203.03007 65.88665] CT
N
f-1057828618
f
GR
GS
[0.75 0 0 0.75 224.80811 53.5785] CT
N
f-1057828618
f
GR
GS
[0.75 0 0 0.75 243.7112 44.02065] CT
N
f-1057828618
f
GR
GS
[0.75 0 0 0.75 258.10684 36.19448] CT
N
f-1057828618
f
GR
GS
[0.75 0 0 0.75 274.13425 29.91898] CT
N
f-1057828618
f
GR
GS
[0.75 0 0 0.75 287.80099 25.13147] CT
N
f-1057828618
f
GR
GS
[0.75 0 0 0.75 93.93751 215.26667] CT
N
f-1057828618
f
GR
GS
[0.75 0 0 0.75 123.03384 166.5548] CT
N
f-1057828618
f
GR
GS
[0.75 0 0 0.75 151.05568 130.41885] CT
N
f-1057828618
f
GR
GS
[0.75 0 0 0.75 177.71522 103.19158] CT
N
f-1057828618
f
GR
GS
[0.75 0 0 0.75 202.79988 82.4897] CT
N
f-1057828618
f
GR
GS
[0.75 0 0 0.75 218.2151 66.58356] CT
N
f-1057828618
f
GR
GS
[0.75 0 0 0.75 232.87431 53.98389] CT
N
f-1057828618
f
GR
GS
[0.75 0 0 0.75 250.80398 44.26403] CT
N
f-1057828618
f
GR
GS
[0.75 0 0 0.75 269.2906 36.64256] CT
N
f-1057828618
f
GR
GS
[0.75 0 0 0.75 282.29404 30.42105] CT
N
f-1057828618
f
GR
GS
[0.75 0 0 0.75 296.71525 25.26792] CT
N
f-1057828618
f
GR
GS
[0.75 0 0 0.75 67.31249 246.56667] CT
N
f-1057828618
f
GR
GS
[0.75 0 0 0.75 89.02591 189.89151] CT
N
f-1057828618
f
GR
GS
[0.75 0 0 0.75 117.94068 147.59612] CT
N
f-1057828618
f
GR
GS
[0.75 0 0 0.75 137.65328 115.85718] CT
N
f-1057828618
f
GR
GS
[0.75 0 0 0.75 164.01551 92.16858] CT
N
f-1057828618
f
GR
GS
[0.75 0 0 0.75 180.77205 74.07678] CT
N
f-1057828618
f
GR
GS
[0.75 0 0 0.75 203.67785 60.01867] CT
N
f-1057828618
f
GR
GS
[0.75 0 0 0.75 221.9458 49.08641] CT
N
f-1057828618
f
GR
GS
[0.75 0 0 0.75 240.03934 40.46091] CT
N
f-1057828618
f
GR
GS
[0.75 0 0 0.75 254.75372 33.45171] CT
N
f-1057828618
f
GR
GS
[0.75 0 0 0.75 271.27206 27.74024] CT
N
f-1057828618
f
GR
GS
[0.75 0 0 0.75 93.93751 246.56667] CT
N
f-1057828618
f
GR
GS
[0.75 0 0 0.75 115.24704 190.20632] CT
N
f-1057828618
f
GR
GS
[0.75 0 0 0.75 143.75531 148.14125] CT
N
f-1057828618
f
GR
GS
[0.75 0 0 0.75 171.04468 116.56923] CT
N
f-1057828618
f
GR
GS
[0.75 0 0 0.75 196.85298 92.68077] CT
N
f-1057828618
f
GR
GS
[0.75 0 0 0.75 213.02888 74.42626] CT
N
f-1057828618
f
GR
GS
[0.75 0 0 0.75 232.57864 60.18989] CT
N
f-1057828618
f
GR
GS
[0.75 0 0 0.75 248.39287 48.96529] CT
N
f-1057828618
f
GR
GS
[0.75 0 0 0.75 264.56637 40.2026] CT
N
f-1057828618
f
GR
GS
[0.75 0 0 0.75 281.97102 33.30098] CT
N
f-1057828618
f
GR
GS
[0.75 0 0 0.75 296.75397 27.59166] CT
N
f-1057828618
f
GR
GS
[0.75 0 0 0.75 67.31249 215.26667] CT
N
f-1057828618
f
GR
GS
[0.75 0 0 0.75 88.83083 166.8683] CT
N
f-1057828618
f
GR
GS
[0.75 0 0 0.75 117.40631 130.35055] CT
N
f-1057828618
f
GR
GS
[0.75 0 0 0.75 144.63358 103.1617] CT
N
f-1057828618
f
GR
GS
[0.75 0 0 0.75 170.31316 82.50285] CT
N
f-1057828618
f
GR
GS
[0.75 0 0 0.75 186.35278 66.64429] CT
N
f-1057828618
f
GR
GS
[0.75 0 0 0.75 202.18508 54.10469] CT
N
f-1057828618
f
GR
GS
[0.75 0 0 0.75 217.72147 44.36842] CT
N
f-1057828618
f
GR
GS
[0.75 0 0 0.75 230.69646 36.64251] CT
N
f-1057828618
f
GR
GS
[0.75 0 0 0.75 243.1965 30.46033] CT
N
f-1057828618
f
GR
GS
[0.75 0 0 0.75 257.95686 25.45272] CT
N
f-1057828618
f
GR
GS
[0.75 0 0 0.75 67.31249 246.56667] CT
N
f-1057828618
f
GR
GS
[0.75 0 0 0.75 89.02591 189.89151] CT
N
f-1057828618
f
GR
GS
[0.75 0 0 0.75 109.95317 147.59612] CT
N
f-1057828618
f
GR
GS
[0.75 0 0 0.75 137.7846 115.86075] CT
N
f-1057828618
f
GR
GS
[0.75 0 0 0.75 156.1572 92.17117] CT
N
f-1057828618
f
GR
GS
[0.75 0 0 0.75 173.06007 73.77614] CT
N
f-1057828618
f
GR
GS
[0.75 0 0 0.75 188.46691 59.664] CT
N
f-1057828618
f
GR
GS
[0.75 0 0 0.75 208.87351 48.64202] CT
N
f-1057828618
f
GR
GS
[0.75 0 0 0.75 221.87922 40.10076] CT
N
f-1057828618
f
GR
GS
[0.75 0 0 0.75 234.99902 33.18985] CT
N
f-1057828618
f
GR
GS
[0.75 0 0 0.75 248.27998 27.6133] CT
N
f-1057828618
f
GR
GS
[0.75 0 0 0.75 67.31249 246.56667] CT
N
f-1057828618
f
GR
GS
[0.75 0 0 0.75 89.02591 190.20452] CT
N
f-1057828618
f
GR
GS
[0.75 0 0 0.75 117.94454 147.83024] CT
N
f-1057828618
f
GR
GS
[0.75 0 0 0.75 145.65027 116.34646] CT
N
f-1057828618
f
GR
GS
[0.75 0 0 0.75 171.89249 92.22018] CT
N
f-1057828618
f
GR
GS
[0.75 0 0 0.75 188.50547 73.79294] CT
N
f-1057828618
f
GR
GS
[0.75 0 0 0.75 206.78027 59.86796] CT
N
f-1057828618
f
GR
GS
[0.75 0 0 0.75 222.21075 48.9932] CT
N
f-1057828618
f
GR
GS
[0.75 0 0 0.75 235.75642 40.39155] CT
N
f-1057828618
f
GR
GS
[0.75 0 0 0.75 249.85174 33.61299] CT
N
f-1057828618
f
GR
GS
[0.75 0 0 0.75 266.6031 27.89025] CT
N
f-1057828618
f
GR
GS
[0.75 0 0 0.75 67.31249 246.56667] CT
N
f-1057828618
f
GR
GS
[0.75 0 0 0.75 89.02591 189.89151] CT
N
f-1057828618
f
GR
GS
[0.75 0 0 0.75 109.95317 147.90911] CT
N
f-1057828618
f
GR
GS
[0.75 0 0 0.75 137.79218 116.40938] CT
N
f-1057828618
f
GR
GS
[0.75 0 0 0.75 156.18647 92.58765] CT
N
f-1057828618
f
GR
GS
[0.75 0 0 0.75 173.11255 74.40814] CT
N
f-1057828618
f
GR
GS
[0.75 0 0 0.75 196.0532 60.09585] CT
N
f-1057828618
f
GR
GS
[0.75 0 0 0.75 214.40735 49.21513] CT
N
f-1057828618
f
GR
GS
[0.75 0 0 0.75 228.55492 40.55165] CT
N
f-1057828618
f
GR
GS
[0.75 0 0 0.75 246.06136 33.77267] CT
N
f-1057828618
f
GR
GS
[0.75 0 0 0.75 256.05785 28.27343] CT
N
f-1057828618
f
GR
GS
[0.75 0 0 0.75 93.93751 215.26667] CT
N
f-1057828618
f
GR
GS
[0.75 0 0 0.75 123.03384 166.86781] CT
N
f-1057828618
f
GR
GS
[0.75 0 0 0.75 151.06144 130.65374] CT
N
f-1057828618
f
GR
GS
[0.75 0 0 0.75 177.72855 103.36921] CT
N
f-1057828618
f
GR
GS
[0.75 0 0 0.75 202.82183 82.62526] CT
N
f-1057828618
f
GR
GS
[0.75 0 0 0.75 218.2459 66.37499] CT
N
f-1057828618
f
GR
GS
[0.75 0 0 0.75 238.34264 54.05392] CT
N
f-1057828618
f
GR
GS
[0.75 0 0 0.75 258.0358 44.16194] CT
N
f-1057828618
f
GR
GS
[0.75 0 0 0.75 272.64597 36.41527] CT
N
f-1057828618
f
GR
GS
[0.75 0 0 0.75 285.60439 30.25238] CT
N
f-1057828618
f
GR
GS
[0.75 0 0 0.75 297.86769 25.20971] CT
N
f-1057828618
f
GR
GS
[0.75 0 0 0.75 93.93751 215.26667] CT
N
f-1057828618
f
GR
GS
[0.75 0 0 0.75 123.03384 166.86781] CT
N
f-1057828618
f
GR
GS
[0.75 0 0 0.75 151.06144 130.34074] CT
N
f-1057828618
f
GR
GS
[0.75 0 0 0.75 169.73082 102.81951] CT
N
f-1057828618
f
GR
GS
[0.75 0 0 0.75 194.94095 81.90146] CT
N
f-1057828618
f
GR
GS
[0.75 0 0 0.75 218.45437 65.82951] CT
N
f-1057828618
f
GR
GS
[0.75 0 0 0.75 233.92664 53.56009] CT
N
f-1057828618
f
GR
GS
[0.75 0 0 0.75 250.00101 43.95575] CT
N
f-1057828618
f
GR
GS
[0.75 0 0 0.75 267.62247 36.35061] CT
N
f-1057828618
f
GR
GS
[0.75 0 0 0.75 278.92536 30.25953] CT
N
f-1057828618
f
GR
GS
[0.75 0 0 0.75 289.10772 25.26268] CT
N
f-1057828618
f
GR
GS
[0.75 0 0 0.75 67.31249 215.26667] CT
N
f-1057828618
f
GR
GS
[0.75 0 0 0.75 88.83083 166.8683] CT
N
f-1057828618
f
GR
GS
[0.75 0 0 0.75 117.40631 130.35055] CT
N
f-1057828618
f
GR
GS
[0.75 0 0 0.75 136.64607 103.1617] CT
N
f-1057828618
f
GR
GS
[0.75 0 0 0.75 154.48216 82.51154] CT
N
f-1057828618
f
GR
GS
[0.75 0 0 0.75 178.81371 66.67562] CT
N
f-1057828618
f
GR
GS
[0.75 0 0 0.75 198.32176 54.17027] CT
N
f-1057828618
f
GR
GS
[0.75 0 0 0.75 213.23298 44.55802] CT
N
f-1057828618
f
GR
GS
[0.75 0 0 0.75 227.3773 36.8938] CT
N
f-1057828618
f
GR
GS
[0.75 0 0 0.75 241.27508 30.71674] CT
N
f-1057828618
f
GR
GS
[0.75 0 0 0.75 251.29642 25.81688] CT
N
f-1057828618
f
GR
GS
[0.75 0 0 0.75 93.93751 246.56667] CT
N
f-1057828618
f
GR
GS
[0.75 0 0 0.75 123.23456 189.89331] CT
N
f-1057828618
f
GR
GS
[0.75 0 0 0.75 143.62633 147.59304] CT
N
f-1057828618
f
GR
GS
[0.75 0 0 0.75 162.91657 116.15641] CT
N
f-1057828618
f
GR
GS
[0.75 0 0 0.75 188.84982 92.06113] CT
N
f-1057828618
f
GR
GS
[0.75 0 0 0.75 213.12545 73.96161] CT
N
f-1057828618
f
GR
GS
[0.75 0 0 0.75 231.62169 59.78272] CT
N
f-1057828618
f
GR
GS
[0.75 0 0 0.75 250.0326 48.78539] CT
N
f-1057828618
f
GR
GS
[0.75 0 0 0.75 264.40981 39.91914] CT
N
f-1057828618
f
GR
GS
[0.75 0 0 0.75 274.75683 32.88849] CT
N
f-1057828618
f
GR
GS
[0.75 0 0 0.75 290.89902 27.27261] CT
N
f-1057828618
f
GR
GS
[0.75 0 0 0.75 67.31249 246.56667] CT
N
f-1057828618
f
GR
GS
[0.75 0 0 0.75 89.02591 189.89151] CT
N
f-1057828618
f
GR
GS
[0.75 0 0 0.75 109.95317 147.59612] CT
N
f-1057828618
f
GR
GS
[0.75 0 0 0.75 129.79708 115.86075] CT
N
f-1057828618
f
GR
GS
[0.75 0 0 0.75 148.30919 91.86504] CT
N
f-1057828618
f
GR
GS
[0.75 0 0 0.75 173.32821 73.55201] CT
N
f-1057828618
f
GR
GS
[0.75 0 0 0.75 195.79209 59.62813] CT
N
f-1057828618
f
GR
GS
[0.75 0 0 0.75 215.09505 48.80744] CT
N
f-1057828618
f
GR
GS
[0.75 0 0 0.75 227.5516 40.10652] CT
N
f-1057828618
f
GR
GS
[0.75 0 0 0.75 242.46027 33.27725] CT
N
f-1057828618
f
GR
GS
[0.75 0 0 0.75 259.35661 27.7519] CT
N
f-1057828618
f
GR
GS
[0.75 0 0 0.75 93.93751 215.26667] CT
N
f-1057828618
f
GR
GS
[0.75 0 0 0.75 123.03384 166.5548] CT
N
f-1057828618
f
GR
GS
[0.75 0 0 0.75 143.06819 130.41885] CT
N
f-1057828618
f
GR
GS
[0.75 0 0 0.75 169.863 103.19674] CT
N
f-1057828618
f
GR
GS
[0.75 0 0 0.75 187.10197 82.50216] CT
N
f-1057828618
f
GR
GS
[0.75 0 0 0.75 210.80681 66.30462] CT
N
f-1057828618
f
GR
GS
[0.75 0 0 0.75 228.81445 53.89222] CT
N
f-1057828618
f
GR
GS
[0.75 0 0 0.75 241.74802 44.0879] CT
N
f-1057828618
f
GR
GS
[0.75 0 0 0.75 253.16597 36.51764] CT
N
f-1057828618
f
GR
GS
[0.75 0 0 0.75 267.19118 30.4627] CT
N
f-1057828618
f
GR
GS
[0.75 0 0 0.75 282.40315 25.34788] CT
N
f-1057828618
f
GR
GS
[0.75 0 0 0.75 93.93751 246.56667] CT
N
f-1057828618
f
GR
GS
[0.75 0 0 0.75 123.23456 189.89331] CT
N
f-1057828618
f
GR
GS
[0.75 0 0 0.75 151.61382 147.59304] CT
N
f-1057828618
f
GR
GS
[0.75 0 0 0.75 178.76026 116.15285] CT
N
f-1057828618
f
GR
GS
[0.75 0 0 0.75 196.42932 92.04488] CT
N
f-1057828618
f
GR
GS
[0.75 0 0 0.75 212.57542 73.93911] CT
N
f-1057828618
f
GR
GS
[0.75 0 0 0.75 228.56065 59.83926] CT
N
f-1057828618
f
GR
GS
[0.75 0 0 0.75 248.2571 48.70883] CT
N
f-1057828618
f
GR
GS
[0.75 0 0 0.75 260.21278 40.04779] CT
N
f-1057828618
f
GR
GS
[0.75 0 0 0.75 274.57965 33.15026] CT
N
f-1057828618
f
GR
GS
[0.75 0 0 0.75 288.71521 27.53546] CT
N
f-1057828618
f
GR
GS
[0.75 0 0 0.75 67.31249 246.56667] CT
N
f-1057828618
f
GR
GS
[0.75 0 0 0.75 89.02591 189.89151] CT
N
f-1057828618
f
GR
GS
[0.75 0 0 0.75 109.95317 147.90911] CT
N
f-1057828618
f
GR
GS
[0.75 0 0 0.75 129.80467 116.40938] CT
N
f-1057828618
f
GR
GS
[0.75 0 0 0.75 148.33832 92.59445] CT
N
f-1057828618
f
GR
GS
[0.75 0 0 0.75 173.3981 74.11063] CT
N
f-1057828618
f
GR
GS
[0.75 0 0 0.75 189.20704 59.93364] CT
N
f-1057828618
f
GR
GS
[0.75 0 0 0.75 205.24443 48.9903] CT
N
f-1057828618
f
GR
GS
[0.75 0 0 0.75 222.06949 40.21463] CT
N
f-1057828618
f
GR
GS
[0.75 0 0 0.75 236.46004 33.22231] CT
N
f-1057828618
f
GR
GS
[0.75 0 0 0.75 248.67272 27.69984] CT
N
f-1057828618
f
GR
GS
[0.75 0 0 0.75 93.93751 215.26667] CT
N
f-1057828618
f
GR
GS
[0.75 0 0 0.75 123.03384 166.5548] CT
N
f-1057828618
f
GR
GS
[0.75 0 0 0.75 143.06819 130.41885] CT
N
f-1057828618
f
GR
GS
[0.75 0 0 0.75 169.863 103.19674] CT
N
f-1057828618
f
GR
GS
[0.75 0 0 0.75 187.10197 82.18917] CT
N
f-1057828618
f
GR
GS
[0.75 0 0 0.75 210.78566 66.06351] CT
N
f-1057828618
f
GR
GS
[0.75 0 0 0.75 226.2965 53.73668] CT
N
f-1057828618
f
GR
GS
[0.75 0 0 0.75 242.47181 43.87826] CT
N
f-1057828618
f
GR
GS
[0.75 0 0 0.75 254.75869 36.1042] CT
N
f-1057828618
f
GR
GS
[0.75 0 0 0.75 269.67455 30.04043] CT
N
f-1057828618
f
GR
GS
[0.75 0 0 0.75 279.75442 25.12203] CT
N
f-1057828618
f
GR
GS
[0.75 0 0 0.75 67.31249 246.56667] CT
N
f-1057828618
f
GR
GS
[0.75 0 0 0.75 97.01339 190.20452] CT
N
f-1057828618
f
GR
GS
[0.75 0 0 0.75 117.81952 147.82922] CT
N
f-1057828618
f
GR
GS
[0.75 0 0 0.75 137.53981 116.34575] CT
N
f-1057828618
f
GR
GS
[0.75 0 0 0.75 163.92349 92.53956] CT
N
f-1057828618
f
GR
GS
[0.75 0 0 0.75 188.69053 74.04816] CT
N
f-1057828618
f
GR
GS
[0.75 0 0 0.75 209.60449 59.98125] CT
N
f-1057828618
f
GR
GS
[0.75 0 0 0.75 227.73546 49.08018] CT
N
f-1057828618
f
GR
GS
[0.75 0 0 0.75 246.93965 40.24507] CT
N
f-1057828618
f
GR
GS
[0.75 0 0 0.75 263.95937 33.39649] CT
N
f-1057828618
f
GR
GS
[0.75 0 0 0.75 277.8828 27.9581] CT
N
f-1057828618
f
GR
GS
[0.75 0 0 0.75 67.31249 246.56667] CT
N
f-1057828618
f
GR
GS
[0.75 0 0 0.75 89.02591 190.20452] CT
N
f-1057828618
f
GR
GS
[0.75 0 0 0.75 109.95702 148.14325] CT
N
f-1057828618
f
GR
GS
[0.75 0 0 0.75 137.80162 116.58563] CT
N
f-1057828618
f
GR
GS
[0.75 0 0 0.75 164.19024 92.40842] CT
N
f-1057828618
f
GR
GS
[0.75 0 0 0.75 188.94481 74.26032] CT
N
f-1057828618
f
GR
GS
[0.75 0 0 0.75 204.58656 60.15254] CT
N
f-1057828618
f
GR
GS
[0.75 0 0 0.75 222.41345 49.05409] CT
N
f-1057828618
f
GR
GS
[0.75 0 0 0.75 237.74828 40.2574] CT
N
f-1057828618
f
GR
GS
[0.75 0 0 0.75 254.18614 33.2128] CT
N
f-1057828618
f
GR
GS
[0.75 0 0 0.75 267.81248 27.74966] CT
N
f-1057828618
f
GR
GS
[0.75 0 0 0.75 67.31249 215.26667] CT
N
f-1057828618
f
GR
GS
[0.75 0 0 0.75 96.81834 166.8683] CT
N
f-1057828618
f
GR
GS
[0.75 0 0 0.75 117.2784 130.66135] CT
N
f-1057828618
f
GR
GS
[0.75 0 0 0.75 136.5301 103.39668] CT
N
f-1057828618
f
GR
GS
[0.75 0 0 0.75 154.37953 82.37781] CT
N
f-1057828618
f
GR
GS
[0.75 0 0 0.75 170.7168 66.25988] CT
N
f-1057828618
f
GR
GS
[0.75 0 0 0.75 189.67789 53.79108] CT
N
f-1057828618
f
GR
GS
[0.75 0 0 0.75 208.05906 44.01927] CT
N
f-1057828618
f
GR
GS
[0.75 0 0 0.75 221.81001 36.37127] CT
N
f-1057828618
f
GR
GS
[0.75 0 0 0.75 234.69056 30.26769] CT
N
f-1057828618
f
GR
GS
[0.75 0 0 0.75 249.67587 25.54152] CT
N
f-1057828618
f
GR
GS
[0.75 0 0 0.75 67.31249 246.56667] CT
N
f-1057828618
f
GR
GS
[0.75 0 0 0.75 97.01339 189.89151] CT
N
f-1057828618
f
GR
GS
[0.75 0 0 0.75 117.81563 147.59508] CT
N
f-1057828618
f
GR
GS
[0.75 0 0 0.75 145.51776 116.16946] CT
N
f-1057828618
f
GR
GS
[0.75 0 0 0.75 171.7552 92.39893] CT
N
f-1057828618
f
GR
GS
[0.75 0 0 0.75 196.3686 74.2431] CT
N
f-1057828618
f
GR
GS
[0.75 0 0 0.75 215.00654 60.09317] CT
N
f-1057828618
f
GR
GS
[0.75 0 0 0.75 232.05144 48.94812] CT
N
f-1057828618
f
GR
GS
[0.75 0 0 0.75 246.48283 40.1592] CT
N
f-1057828618
f
GR
GS
[0.75 0 0 0.75 260.73521 33.40011] CT
N
f-1057828618
f
GR
GS
[0.75 0 0 0.75 271.39307 27.75306] CT
N
f-1057828618
f
GR
GS
[0.75 0 0 0.75 67.31249 246.56667] CT
N
f-1057828618
f
GR
GS
[0.75 0 0 0.75 89.02591 189.89151] CT
N
f-1057828618
f
GR
GS
[0.75 0 0 0.75 109.95317 147.59612] CT
N
f-1057828618
f
GR
GS
[0.75 0 0 0.75 129.79708 115.86075] CT
N
f-1057828618
f
GR
GS
[0.75 0 0 0.75 148.30919 91.86504] CT
N
f-1057828618
f
GR
GS
[0.75 0 0 0.75 165.34071 73.86501] CT
N
f-1057828618
f
GR
GS
[0.75 0 0 0.75 181.59771 59.80879] CT
N
f-1057828618
f
GR
GS
[0.75 0 0 0.75 201.0916 48.87132] CT
N
f-1057828618
f
GR
GS
[0.75 0 0 0.75 217.01937 40.2255] CT
N
f-1057828618
f
GR
GS
[0.75 0 0 0.75 233.36309 33.34152] CT
N
f-1057828618
f
GR
GS
[0.75 0 0 0.75 248.33617 27.72916] CT
N
f-1057828618
f
GR
GS
[0.75 0 0 0.75 67.31249 215.26667] CT
N
f-1057828618
f
GR
GS
[0.75 0 0 0.75 88.83083 166.8683] CT
N
f-1057828618
f
GR
GS
[0.75 0 0 0.75 117.40631 130.66354] CT
N
f-1057828618
f
GR
GS
[0.75 0 0 0.75 136.65595 103.08526] CT
N
f-1057828618
f
GR
GS
[0.75 0 0 0.75 162.47571 82.45325] CT
N
f-1057828618
f
GR
GS
[0.75 0 0 0.75 186.65 66.61831] CT
N
f-1057828618
f
GR
GS
[0.75 0 0 0.75 207.90353 54.07183] CT
N
f-1057828618
f
GR
GS
[0.75 0 0 0.75 222.87643 44.30195] CT
N
f-1057828618
f
GR
GS
[0.75 0 0 0.75 239.0555 36.59435] CT
N
f-1057828618
f
GR
GS
[0.75 0 0 0.75 256.20229 30.51684] CT
N
f-1057828618
f
GR
GS
[0.75 0 0 0.75 267.69276 25.6488] CT
N
f-1057828618
f
GR
GS
[0.75 0 0 0.75 93.93751 215.26667] CT
N
f-1057828618
f
GR
GS
[0.75 0 0 0.75 115.04632 166.5548] CT
N
f-1057828618
f
GR
GS
[0.75 0 0 0.75 143.19618 130.10807] CT
N
f-1057828618
f
GR
GS
[0.75 0 0 0.75 169.97871 102.64866] CT
N
f-1057828618
f
GR
GS
[0.75 0 0 0.75 195.17583 81.77079] CT
N
f-1057828618
f
GR
GS
[0.75 0 0 0.75 210.68829 66.04142] CT
N
f-1057828618
f
GR
GS
[0.75 0 0 0.75 225.55431 53.81527] CT
N
f-1057828618
f
GR
GS
[0.75 0 0 0.75 241.30524 44.1087] CT
N
f-1057828618
f
GR
GS
[0.75 0 0 0.75 255.31867 36.31875] CT
N
f-1057828618
f
GR
GS
[0.75 0 0 0.75 270.11556 30.08583] CT
N
f-1057828618
f
GR
GS
[0.75 0 0 0.75 286.11765 24.98648] CT
N
f-1057828618
f
GR
GS
[0.75 0 0 0.75 67.31249 246.56667] CT
N
f-1057828618
f
GR
GS
[0.75 0 0 0.75 97.01339 190.20452] CT
N
f-1057828618
f
GR
GS
[0.75 0 0 0.75 125.80704 147.82922] CT
N
f-1057828618
f
GR
GS
[0.75 0 0 0.75 153.38354 116.3422] CT
N
f-1057828618
f
GR
GS
[0.75 0 0 0.75 171.50317 92.21038] CT
N
f-1057828618
f
GR
GS
[0.75 0 0 0.75 196.11031 73.78593] CT
N
f-1057828618
f
GR
GS
[0.75 0 0 0.75 213.80196 59.82567] CT
N
f-1057828618
f
GR
GS
[0.75 0 0 0.75 231.84663 48.9009] CT
N
f-1057828618
f
GR
GS
[0.75 0 0 0.75 244.05659 40.13187] CT
N
f-1057828618
f
GR
GS
[0.75 0 0 0.75 256.53543 33.25856] CT
N
f-1057828618
f
GR
GS
[0.75 0 0 0.75 271.36212 27.76759] CT
N
f-1057828618
f
GR
GS
[0.75 0 0 0.75 93.93751 246.56667] CT
N
f-1057828618
f
GR
GS
[0.75 0 0 0.75 123.23456 189.89331] CT
N
f-1057828618
f
GR
GS
[0.75 0 0 0.75 143.62633 147.90605] CT
N
f-1057828618
f
GR
GS
[0.75 0 0 0.75 162.92443 116.39215] CT
N
f-1057828618
f
GR
GS
[0.75 0 0 0.75 180.87965 92.55317] CT
N
f-1057828618
f
GR
GS
[0.75 0 0 0.75 205.33234 74.34935] CT
N
f-1057828618
f
GR
GS
[0.75 0 0 0.75 227.19862 60.16978] CT
N
f-1057828618
f
GR
GS
[0.75 0 0 0.75 246.45772 49.09748] CT
N
f-1057828618
f
GR
GS
[0.75 0 0 0.75 264.47182 40.24773] CT
N
f-1057828618
f
GR
GS
[0.75 0 0 0.75 277.57281 33.35901] CT
N
f-1057828618
f
GR
GS
[0.75 0 0 0.75 292.73373 27.59184] CT
N
f-1057828618
f
GR
GS
[0.75 0 0 0.75 67.31249 215.26667] CT
N
f-1057828618
f
GR
GS
[0.75 0 0 0.75 88.83083 166.55529] CT
N
f-1057828618
f
GR
GS
[0.75 0 0 0.75 117.40076 130.42873] CT
N
f-1057828618
f
GR
GS
[0.75 0 0 0.75 144.63057 102.90779] CT
N
f-1057828618
f
GR
GS
[0.75 0 0 0.75 170.29794 81.99624] CT
N
f-1057828618
f
GR
GS
[0.75 0 0 0.75 194.29163 66.25425] CT
N
f-1057828618
f
GR
GS
[0.75 0 0 0.75 210.23035 53.90672] CT
N
f-1057828618
f
GR
GS
[0.75 0 0 0.75 229.06844 44.10034] CT
N
f-1057828618
f
GR
GS
[0.75 0 0 0.75 246.74377 36.48669] CT
N
f-1057828618
f
GR
GS
[0.75 0 0 0.75 261.01401 30.46094] CT
N
f-1057828618
f
GR
GS
[0.75 0 0 0.75 270.73194 25.58159] CT
N
f-1057828618
f
GR
GS
[0.75 0 0 0.75 93.93751 246.56667] CT
N
f-1057828618
f
GR
GS
[0.75 0 0 0.75 115.24704 190.20632] CT
N
f-1057828618
f
GR
GS
[0.75 0 0 0.75 135.76784 148.14125] CT
N
f-1057828618
f
GR
GS
[0.75 0 0 0.75 163.18838 116.25976] CT
N
f-1057828618
f
GR
GS
[0.75 0 0 0.75 189.1211 92.1394] CT
N
f-1057828618
f
GR
GS
[0.75 0 0 0.75 213.39631 73.70826] CT
N
f-1057828618
f
GR
GS
[0.75 0 0 0.75 234.98346 59.47182] CT
N
f-1057828618
f
GR
GS
[0.75 0 0 0.75 247.87358 48.38758] CT
N
f-1057828618
f
GR
GS
[0.75 0 0 0.75 264.21112 39.6105] CT
N
f-1057828618
f
GR
GS
[0.75 0 0 0.75 278.43615 32.77062] CT
N
f-1057828618
f
GR
GS
[0.75 0 0 0.75 293.57968 27.34351] CT
N
f-1057828618
f
GR
GS
[0.75 0 0 0.75 67.31249 215.26667] CT
N
f-1057828618
f
GR
GS
[0.75 0 0 0.75 96.81834 166.55529] CT
N
f-1057828618
f
GR
GS
[0.75 0 0 0.75 125.26029 130.11351] CT
N
f-1057828618
f
GR
GS
[0.75 0 0 0.75 144.35944 102.66443] CT
N
f-1057828618
f
GR
GS
[0.75 0 0 0.75 162.03235 81.81093] CT
N
f-1057828618
f
GR
GS
[0.75 0 0 0.75 186.17266 65.81157] CT
N
f-1057828618
f
GR
GS
[0.75 0 0 0.75 207.75785 53.39912] CT
N
f-1057828618
f
GR
GS
[0.75 0 0 0.75 226.75955 43.78479] CT
N
f-1057828618
f
GR
GS
[0.75 0 0 0.75 245.55448 36.16192] CT
N
f-1057828618
f
GR
GS
[0.75 0 0 0.75 255.67902 30.19633] CT
N
f-1057828618
f
GR
GS
[0.75 0 0 0.75 271.48579 25.27942] CT
N
f-1057828618
f
GR
GS
[0.75 0 0 0.75 93.93751 246.56667] CT
N
f-1057828618
f
GR
GS
[0.75 0 0 0.75 123.23456 189.89331] CT
N
f-1057828618
f
GR
GS
[0.75 0 0 0.75 143.62633 147.59304] CT
N
f-1057828618
f
GR
GS
[0.75 0 0 0.75 162.91657 116.15641] CT
N
f-1057828618
f
GR
GS
[0.75 0 0 0.75 180.86232 92.37414] CT
N
f-1057828618
f
GR
GS
[0.75 0 0 0.75 197.31743 74.21213] CT
N
f-1057828618
f
GR
GS
[0.75 0 0 0.75 213.41075 60.14114] CT
N
f-1057828618
f
GR
GS
[0.75 0 0 0.75 227.15261 49.03142] CT
N
f-1057828618
f
GR
GS
[0.75 0 0 0.75 241.37647 40.31496] CT
N
f-1057828618
f
GR
GS
[0.75 0 0 0.75 257.55318 33.39437] CT
N
f-1057828618
f
GR
GS
[0.75 0 0 0.75 271.16068 27.84582] CT
N
f-1057828618
f
GR
GS
[0.75 0 0 0.75 67.31249 246.56667] CT
N
f-1057828618
f
GR
GS
[0.75 0 0 0.75 97.01339 189.89151] CT
N
f-1057828618
f
GR
GS
[0.75 0 0 0.75 117.81563 147.90808] CT
N
f-1057828618
f
GR
GS
[0.75 0 0 0.75 145.52542 116.09212] CT
N
f-1057828618
f
GR
GS
[0.75 0 0 0.75 163.77211 92.34019] CT
N
f-1057828618
f
GR
GS
[0.75 0 0 0.75 188.53054 74.20861] CT
N
f-1057828618
f
GR
GS
[0.75 0 0 0.75 204.47131 60.16884] CT
N
f-1057828618
f
GR
GS
[0.75 0 0 0.75 219.39148 49.07756] CT
N
f-1057828618
f
GR
GS
[0.75 0 0 0.75 236.12187 40.5243] CT
N
f-1057828618
f
GR
GS
[0.75 0 0 0.75 254.33045 33.50469] CT
N
f-1057828618
f
GR
GS
[0.75 0 0 0.75 269.64365 28.06443] CT
N
f-1057828618
f
GR
GS
[0.75 0 0 0.75 93.93751 215.26667] CT
N
f-1057828618
f
GR
GS
[0.75 0 0 0.75 123.03384 166.5548] CT
N
f-1057828618
f
GR
GS
[0.75 0 0 0.75 151.05568 130.10584] CT
N
f-1057828618
f
GR
GS
[0.75 0 0 0.75 169.71745 102.95487] CT
N
f-1057828618
f
GR
GS
[0.75 0 0 0.75 186.94707 82.31777] CT
N
f-1057828618
f
GR
GS
[0.75 0 0 0.75 210.64245 66.4758] CT
N
f-1057828618
f
GR
GS
[0.75 0 0 0.75 227.03123 54.06895] CT
N
f-1057828618
f
GR
GS
[0.75 0 0 0.75 243.27585 44.24159] CT
N
f-1057828618
f
GR
GS
[0.75 0 0 0.75 254.54045 36.39362] CT
N
f-1057828618
f
GR
GS
[0.75 0 0 0.75 268.81556 30.12233] CT
N
f-1057828618
f
GR
GS
[0.75 0 0 0.75 280.18195 25.18527] CT
N
f-1057828618
f
GR
GS
[0.75 0 0 0.75 67.31249 246.56667] CT
N
f-1057828618
f
GR
GS
[0.75 0 0 0.75 97.01339 190.20452] CT
N
f-1057828618
f
GR
GS
[0.75 0 0 0.75 125.80704 148.14222] CT
N
f-1057828618
f
GR
GS
[0.75 0 0 0.75 153.39122 116.26488] CT
N
f-1057828618
f
GR
GS
[0.75 0 0 0.75 179.49511 92.15165] CT
N
f-1057828618
f
GR
GS
[0.75 0 0 0.75 195.96263 74.04337] CT
N
f-1057828618
f
GR
GS
[0.75 0 0 0.75 214.61245 59.83302] CT
N
f-1057828618
f
GR
GS
[0.75 0 0 0.75 234.49487 48.95549] CT
N
f-1057828618
f
GR
GS
[0.75 0 0 0.75 247.72039 40.29153] CT
N
f-1057828618
f
GR
GS
[0.75 0 0 0.75 258.64918 33.34927] CT
N
f-1057828618
f
GR
GS
[0.75 0 0 0.75 270.6272 27.8904] CT
N
f-1057828618
f
GR
GS
[0.75 0 0 0.75 67.31249 215.26667] CT
N
f-1057828618
f
GR
GS
[0.75 0 0 0.75 96.81834 166.8683] CT
N
f-1057828618
f
GR
GS
[0.75 0 0 0.75 125.26588 130.66135] CT
N
f-1057828618
f
GR
GS
[0.75 0 0 0.75 152.3699 103.07854] CT
N
f-1057828618
f
GR
GS
[0.75 0 0 0.75 177.90595 82.43102] CT
N
f-1057828618
f
GR
GS
[0.75 0 0 0.75 201.78257 66.57715] CT
N
f-1057828618
f
GR
GS
[0.75 0 0 0.75 217.0711 54.20337] CT
N
f-1057828618
f
GR
GS
[0.75 0 0 0.75 236.96079 44.55214] CT
N
f-1057828618
f
GR
GS
[0.75 0 0 0.75 250.13949 36.9042] CT
N
f-1057828618
f
GR
GS
[0.75 0 0 0.75 263.64839 30.80661] CT
N
f-1057828618
f
GR
GS
[0.75 0 0 0.75 279.62734 25.83058] CT
N
f-1057828618
f
GR
GS
[0.75 0 0 0.75 67.31249 246.56667] CT
N
f-1057828618
f
GR
GS
[0.75 0 0 0.75 89.02591 190.20452] CT
N
f-1057828618
f
GR
GS
[0.75 0 0 0.75 117.94454 148.14325] CT
N
f-1057828618
f
GR
GS
[0.75 0 0 0.75 137.67042 116.5821] CT
N
f-1057828618
f
GR
GS
[0.75 0 0 0.75 156.07368 92.71886] CT
N
f-1057828618
f
GR
GS
[0.75 0 0 0.75 180.99678 74.19579] CT
N
f-1057828618
f
GR
GS
[0.75 0 0 0.75 201.28182 60.18871] CT
N
f-1057828618
f
GR
GS
[0.75 0 0 0.75 215.58673 49.05131] CT
N
f-1057828618
f
GR
GS
[0.75 0 0 0.75 235.04503 40.36302] CT
N
f-1057828618
f
GR
GS
[0.75 0 0 0.75 246.692 33.34959] CT
N
f-1057828618
f
GR
GS
[0.75 0 0 0.75 258.97192 27.8942] CT
N
f-1057828618
f
GR
GS
[0.75 0 0 0.75 93.93751 246.56667] CT
N
f-1057828618
f
GR
GS
[0.75 0 0 0.75 115.24704 189.89331] CT
N
f-1057828618
f
GR
GS
[0.75 0 0 0.75 143.75139 147.59407] CT
N
f-1057828618
f
GR
GS
[0.75 0 0 0.75 171.02708 115.84413] CT
N
f-1057828618
f
GR
GS
[0.75 0 0 0.75 196.8059 92.12997] CT
N
f-1057828618
f
GR
GS
[0.75 0 0 0.75 220.93753 73.69087] CT
N
f-1057828618
f
GR
GS
[0.75 0 0 0.75 238.52012 59.73501] CT
N
f-1057828618
f
GR
GS
[0.75 0 0 0.75 257.58911 48.75064] CT
N
f-1057828618
f
GR
GS
[0.75 0 0 0.75 273.71672 39.94868] CT
N
f-1057828618
f
GR
GS
[0.75 0 0 0.75 284.38978 33.12044] CT
N
f-1057828618
f
GR
GS
[0.75 0 0 0.75 297.43069 27.52287] CT
N
f-1057828618
f
GR
GS
[0.75 0 0 0.75 93.93751 215.26667] CT
N
f-1057828618
f
GR
GS
[0.75 0 0 0.75 123.03384 166.86781] CT
N
f-1057828618
f
GR
GS
[0.75 0 0 0.75 143.07394 130.65374] CT
N
f-1057828618
f
GR
GS
[0.75 0 0 0.75 169.87626 103.06134] CT
N
f-1057828618
f
GR
GS
[0.75 0 0 0.75 195.09579 82.39885] CT
N
f-1057828618
f
GR
GS
[0.75 0 0 0.75 218.6402 66.52556] CT
N
f-1057828618
f
GR
GS
[0.75 0 0 0.75 233.44839 53.9951] CT
N
f-1057828618
f
GR
GS
[0.75 0 0 0.75 248.44334 44.16602] CT
N
f-1057828618
f
GR
GS
[0.75 0 0 0.75 265.36498 36.4] CT
N
f-1057828618
f
GR
GS
[0.75 0 0 0.75 280.83376 30.28618] CT
N
f-1057828618
f
GR
GS
[0.75 0 0 0.75 295.02601 25.10988] CT
N
f-1057828618
f
GR
GS
[0.75 0 0 0.75 93.93751 246.56667] CT
N
f-1057828618
f
GR
GS
[0.75 0 0 0.75 115.24704 190.20632] CT
N
f-1057828618
f
GR
GS
[0.75 0 0 0.75 143.75531 147.82825] CT
N
f-1057828618
f
GR
GS
[0.75 0 0 0.75 171.03686 116.3335] CT
N
f-1057828618
f
GR
GS
[0.75 0 0 0.75 188.84816 92.50172] CT
N
f-1057828618
f
GR
GS
[0.75 0 0 0.75 213.14976 74.29945] CT
N
f-1057828618
f
GR
GS
[0.75 0 0 0.75 230.86796 60.06693] CT
N
f-1057828618
f
GR
GS
[0.75 0 0 0.75 245.72607 48.93213] CT
N
f-1057828618
f
GR
GS
[0.75 0 0 0.75 261.14939 40.30811] CT
N
f-1057828618
f
GR
GS
[0.75 0 0 0.75 277.56546 33.45329] CT
N
f-1057828618
f
GR
GS
[0.75 0 0 0.75 288.77547 27.89017] CT
N
f-1057828618
f
GR
GS
[0.75 0 0 0.75 93.93751 246.56667] CT
N
f-1057828618
f
GR
GS
[0.75 0 0 0.75 115.24704 190.20632] CT
N
f-1057828618
f
GR
GS
[0.75 0 0 0.75 135.76784 147.82825] CT
N
f-1057828618
f
GR
GS
[0.75 0 0 0.75 155.19312 116.02406] CT
N
f-1057828618
f
GR
GS
[0.75 0 0 0.75 181.25579 92.28023] CT
N
f-1057828618
f
GR
GS
[0.75 0 0 0.75 205.6856 73.82662] CT
N
f-1057828618
f
GR
GS
[0.75 0 0 0.75 223.86921 59.68172] CT
N
f-1057828618
f
GR
GS
[0.75 0 0 0.75 237.88479 48.55547] CT
N
f-1057828618
f
GR
GS
[0.75 0 0 0.75 251.06564 39.99638] CT
N
f-1057828618
f
GR
GS
[0.75 0 0 0.75 267.79996 33.1153] CT
N
f-1057828618
f
GR
GS
[0.75 0 0 0.75 282.98708 27.60316] CT
N
f-1057828618
f
GR
GS
[0.75 0 0 0.75 67.31249 246.56667] CT
N
f-1057828618
f
GR
GS
[0.75 0 0 0.75 97.01339 190.20452] CT
N
f-1057828618
f
GR
GS
[0.75 0 0 0.75 117.81952 147.82922] CT
N
f-1057828618
f
GR
GS
[0.75 0 0 0.75 137.53981 116.34575] CT
N
f-1057828618
f
GR
GS
[0.75 0 0 0.75 163.92349 92.22656] CT
N
f-1057828618
f
GR
GS
[0.75 0 0 0.75 180.68508 74.12133] CT
N
f-1057828618
f
GR
GS
[0.75 0 0 0.75 196.66766 60.15738] CT
N
f-1057828618
f
GR
GS
[0.75 0 0 0.75 213.79976 49.07528] CT
N
f-1057828618
f
GR
GS
[0.75 0 0 0.75 231.84448 40.38747] CT
N
f-1057828618
f
GR
GS
[0.75 0 0 0.75 243.56509 33.43949] CT
N
f-1057828618
f
GR
GS
[0.75 0 0 0.75 254.24155 28.0266] CT
N
f-1057828618
f
GR
GS
[0.75 0 0 0.75 67.31249 246.56667] CT
N
f-1057828618
f
GR
GS
[0.75 0 0 0.75 89.02591 190.20452] CT
N
f-1057828618
f
GR
GS
[0.75 0 0 0.75 109.95702 148.14325] CT
N
f-1057828618
f
GR
GS
[0.75 0 0 0.75 129.81411 116.58563] CT
N
f-1057828618
f
GR
GS
[0.75 0 0 0.75 156.342 92.41519] CT
N
f-1057828618
f
GR
GS
[0.75 0 0 0.75 181.24289 74.27584] CT
N
f-1057828618
f
GR
GS
[0.75 0 0 0.75 198.18198 60.25411] CT
N
f-1057828618
f
GR
GS
[0.75 0 0 0.75 219.21082 49.13137] CT
N
f-1057828618
f
GR
GS
[0.75 0 0 0.75 235.82391 40.48534] CT
N
f-1057828618
f
GR
GS
[0.75 0 0 0.75 247.92403 33.50792] CT
N
f-1057828618
f
GR
GS
[0.75 0 0 0.75 265.38725 28.0552] CT
N
f-1057828618
f
GR
GS
[0.75 0 0 0.75 67.31249 246.56667] CT
N
f-1057828618
f
GR
GS
[0.75 0 0 0.75 89.02591 189.89151] CT
N
f-1057828618
f
GR
GS
[0.75 0 0 0.75 109.95317 147.59612] CT
N
f-1057828618
f
GR
GS
[0.75 0 0 0.75 129.79708 115.86075] CT
N
f-1057828618
f
GR
GS
[0.75 0 0 0.75 148.30919 92.17804] CT
N
f-1057828618
f
GR
GS
[0.75 0 0 0.75 165.35849 73.79176] CT
N
f-1057828618
f
GR
GS
[0.75 0 0 0.75 187.83994 59.82269] CT
N
f-1057828618
f
GR
GS
[0.75 0 0 0.75 207.22183 48.9471] CT
N
f-1057828618
f
GR
GS
[0.75 0 0 0.75 223.86104 40.20988] CT
N
f-1057828618
f
GR
GS
[0.75 0 0 0.75 239.64569 33.41579] CT
N
f-1057828618
f
GR
GS
[0.75 0 0 0.75 251.79153 27.92133] CT
N
f-1057828618
f
GR
GS
[0.75 0 0 0.75 67.31249 246.56667] CT
N
f-1057828618
f
GR
GS
[0.75 0 0 0.75 97.01339 189.89151] CT
N
f-1057828618
f
GR
GS
[0.75 0 0 0.75 117.81563 147.90808] CT
N
f-1057828618
f
GR
GS
[0.75 0 0 0.75 137.53791 116.40512] CT
N
f-1057828618
f
GR
GS
[0.75 0 0 0.75 155.93649 92.58463] CT
N
f-1057828618
f
GR
GS
[0.75 0 0 0.75 180.85453 74.09315] CT
N
f-1057828618
f
GR
GS
[0.75 0 0 0.75 203.56812 59.99441] CT
N
f-1057828618
f
GR
GS
[0.75 0 0 0.75 219.0821 48.89867] CT
N
f-1057828618
f
GR
GS
[0.75 0 0 0.75 237.28226 40.16875] CT
N
f-1057828618
f
GR
GS
[0.75 0 0 0.75 253.92197 33.41389] CT
N
f-1057828618
f
GR
GS
[0.75 0 0 0.75 268.78262 27.86808] CT
N
f-1057828618
f
GR
GS
[0.75 0 0 0.75 67.31249 246.56667] CT
N
f-1057828618
f
GR
GS
[0.75 0 0 0.75 97.01339 190.20452] CT
N
f-1057828618
f
GR
GS
[0.75 0 0 0.75 117.81952 147.82922] CT
N
f-1057828618
f
GR
GS
[0.75 0 0 0.75 145.52733 116.03275] CT
N
f-1057828618
f
GR
GS
[0.75 0 0 0.75 171.75909 92.29512] CT
N
f-1057828618
f
GR
GS
[0.75 0 0 0.75 196.36638 73.85054] CT
N
f-1057828618
f
GR
GS
[0.75 0 0 0.75 216.70992 59.91073] CT
N
f-1057828618
f
GR
GS
[0.75 0 0 0.75 236.48394 48.80853] CT
N
f-1057828618
f
GR
GS
[0.75 0 0 0.75 249.18661 40.1186] CT
N
f-1057828618
f
GR
GS
[0.75 0 0 0.75 262.2095 33.19974] CT
N
f-1057828618
f
GR
GS
[0.75 0 0 0.75 274.58544 27.68378] CT
N
f-1057828618
f
GR
GS
[0.75 0 0 0.75 67.31249 246.56667] CT
N
f-1057828618
f
GR
GS
[0.75 0 0 0.75 89.02591 189.89151] CT
N
f-1057828618
f
GR
GS
[0.75 0 0 0.75 117.94068 147.59612] CT
N
f-1057828618
f
GR
GS
[0.75 0 0 0.75 137.65328 115.85718] CT
N
f-1057828618
f
GR
GS
[0.75 0 0 0.75 164.01551 91.85558] CT
N
f-1057828618
f
GR
GS
[0.75 0 0 0.75 180.75399 73.83692] CT
N
f-1057828618
f
GR
GS
[0.75 0 0 0.75 201.98227 59.86814] CT
N
f-1057828618
f
GR
GS
[0.75 0 0 0.75 216.1095 48.80258] CT
N
f-1057828618
f
GR
GS
[0.75 0 0 0.75 233.6605 40.10901] CT
N
f-1057828618
f
GR
GS
[0.75 0 0 0.75 249.56399 33.27956] CT
N
f-1057828618
f
GR
GS
[0.75 0 0 0.75 262.18664 27.66505] CT
N
f-1057828618
f
GR
GS
[0.75 0 0 0.75 67.31249 215.26667] CT
N
f-1057828618
f
GR
GS
[0.75 0 0 0.75 96.81834 166.55529] CT
N
f-1057828618
f
GR
GS
[0.75 0 0 0.75 125.26029 130.11351] CT
N
f-1057828618
f
GR
GS
[0.75 0 0 0.75 152.34691 102.97742] CT
N
f-1057828618
f
GR
GS
[0.75 0 0 0.75 169.89096 82.04093] CT
N
f-1057828618
f
GR
GS
[0.75 0 0 0.75 193.89546 66.2893] CT
N
f-1057828618
f
GR
GS
[0.75 0 0 0.75 216.21238 53.99198] CT
N
f-1057828618
f
GR
GS
[0.75 0 0 0.75 234.16198 44.22145] CT
N
f-1057828618
f
GR
GS
[0.75 0 0 0.75 248.52049 36.62301] CT
N
f-1057828618
f
GR
GS
[0.75 0 0 0.75 258.70232 30.46015] CT
N
f-1057828618
f
GR
GS
[0.75 0 0 0.75 269.05415 25.40464] CT
N
f-1057828618
f
GR
GS
[0.75 0 0 0.75 67.31249 215.26667] CT
N
f-1057828618
f
GR
GS
[0.75 0 0 0.75 96.81834 166.55529] CT
N
f-1057828618
f
GR
GS
[0.75 0 0 0.75 117.27277 130.11351] CT
N
f-1057828618
f
GR
GS
[0.75 0 0 0.75 136.50729 102.66961] CT
N
f-1057828618
f
GR
GS
[0.75 0 0 0.75 154.32219 82.1365] CT
N
f-1057828618
f
GR
GS
[0.75 0 0 0.75 170.64475 66.07428] CT
N
f-1057828618
f
GR
GS
[0.75 0 0 0.75 186.8966 53.92834] CT
N
f-1057828618
f
GR
GS
[0.75 0 0 0.75 206.03387 44.32471] CT
N
f-1057828618
f
GR
GS
[0.75 0 0 0.75 223.21973 36.70981] CT
N
f-1057828618
f
GR
GS
[0.75 0 0 0.75 238.81343 30.73595] CT
N
f-1057828618
f
GR
GS
[0.75 0 0 0.75 255.48688 25.67253] CT
N
f-1057828618
f
GR
GS
[0.75 0 0 0.75 93.93751 215.26667] CT
N
f-1057828618
f
GR
GS
[0.75 0 0 0.75 115.04632 166.5548] CT
N
f-1057828618
f
GR
GS
[0.75 0 0 0.75 143.19618 130.10807] CT
N
f-1057828618
f
GR
GS
[0.75 0 0 0.75 161.99121 102.96165] CT
N
f-1057828618
f
GR
GS
[0.75 0 0 0.75 179.36052 82.33137] CT
N
f-1057828618
f
GR
GS
[0.75 0 0 0.75 203.20248 66.18514] CT
N
f-1057828618
f
GR
GS
[0.75 0 0 0.75 217.59689 53.79456] CT
N
f-1057828618
f
GR
GS
[0.75 0 0 0.75 230.98055 44.00146] CT
N
f-1057828618
f
GR
GS
[0.75 0 0 0.75 250.19213 36.48171] CT
N
f-1057828618
f
GR
GS
[0.75 0 0 0.75 267.61876 30.46828] CT
N
f-1057828618
f
GR
GS
[0.75 0 0 0.75 281.74844 25.36143] CT
N
f-1057828618
f
GR
GS
[0.75 0 0 0.75 93.93751 215.26667] CT
N
f-1057828618
f
GR
GS
[0.75 0 0 0.75 123.03384 166.5548] CT
N
f-1057828618
f
GR
GS
[0.75 0 0 0.75 143.06819 130.41885] CT
N
f-1057828618
f
GR
GS
[0.75 0 0 0.75 161.8755 103.19674] CT
N
f-1057828618
f
GR
GS
[0.75 0 0 0.75 179.25846 82.19785] CT
N
f-1057828618
f
GR
GS
[0.75 0 0 0.75 203.09344 66.39547] CT
N
f-1057828618
f
GR
GS
[0.75 0 0 0.75 220.54839 53.81789] CT
N
f-1057828618
f
GR
GS
[0.75 0 0 0.75 240.72835 44.05172] CT
N
f-1057828618
f
GR
GS
[0.75 0 0 0.75 259.72002 36.27429] CT
N
f-1057828618
f
GR
GS
[0.75 0 0 0.75 272.08212 30.07039] CT
N
f-1057828618
f
GR
GS
[0.75 0 0 0.75 282.53348 25.17905] CT
N
f-1057828618
f
GR
GS
[0.75 0 0 0.75 93.93751 215.26667] CT
N
f-1057828618
f
GR
GS
[0.75 0 0 0.75 115.04632 166.5548] CT
N
f-1057828618
f
GR
GS
[0.75 0 0 0.75 143.19618 130.10807] CT
N
f-1057828618
f
GR
GS
[0.75 0 0 0.75 169.97871 102.64866] CT
N
f-1057828618
f
GR
GS
[0.75 0 0 0.75 195.17583 82.08379] CT
N
f-1057828618
f
GR
GS
[0.75 0 0 0.75 218.69724 65.96966] CT
N
f-1057828618
f
GR
GS
[0.75 0 0 0.75 235.34928 53.45896] CT
N
f-1057828618
f
GR
GS
[0.75 0 0 0.75 250.38819 43.66744] CT
N
f-1057828618
f
GR
GS
[0.75 0 0 0.75 264.854 36.05272] CT
N
f-1057828618
f
GR
GS
[0.75 0 0 0.75 276.1157 30.04493] CT
N
f-1057828618
f
GR
GS
[0.75 0 0 0.75 286.98301 25.00945] CT
N
f-1057828618
f
GR
GS
[0.75 0 0 0.75 88.15648 224.8511] CT
N
f-1057828618
f
GR
GS
[0.75 0 0 0.75 109.42669 173.70591] CT
N
f-1057828618
f
GR
GS
[0.75 0 0 0.75 137.78963 135.47291] CT
N
f-1057828618
f
GR
GS
[0.75 0 0 0.75 156.8436 107.01905] CT
N
f-1057828618
f
GR
GS
[0.75 0 0 0.75 182.48662 85.11689] CT
N
f-1057828618
f
GR
GS
[0.75 0 0 0.75 198.46493 68.63724] CT
N
f-1057828618
f
GR
GS
[0.75 0 0 0.75 218.298 55.72754] CT
N
f-1057828618
f
GR
GS
[0.75 0 0 0.75 236.14941 45.69234] CT
N
f-1057828618
f
GR
GS
[0.75 0 0 0.75 248.95821 37.56498] CT
N
f-1057828618
f
GR
GS
[0.75 0 0 0.75 265.17943 31.04829] CT
N
f-1057828618
f
GR
GS
[0.75 0 0 0.75 274.85216 26.02347] CT
N
f-1057828618
f
GR
GS
[0.75 0 0 0.75 69.95092 231.23706] CT
N
f-1057828618
f
GR
GS
[0.75 0 0 0.75 91.54122 178.46748] CT
N
f-1057828618
f
GR
GS
[0.75 0 0 0.75 112.2742 139.35762] CT
N
f-1057828618
f
GR
GS
[0.75 0 0 0.75 139.85393 109.65192] CT
N
f-1057828618
f
GR
GS
[0.75 0 0 0.75 157.93021 87.4509] CT
N
f-1057828618
f
GR
GS
[0.75 0 0 0.75 174.5208 70.46667] CT
N
f-1057828618
f
GR
GS
[0.75 0 0 0.75 193.68201 57.05838] CT
N
f-1057828618
f
GR
GS
[0.75 0 0 0.75 212.22842 46.83482] CT
N
f-1057828618
f
GR
GS
[0.75 0 0 0.75 227.40724 38.77597] CT
N
f-1057828618
f
GR
GS
[0.75 0 0 0.75 242.16199 32.23659] CT
N
f-1057828618
f
GR
GS
[0.75 0 0 0.75 259.66209 26.85803] CT
N
f-1057828618
f
GR
GS
[0.75 0 0 0.75 80.24296 218.57044] CT
N
f-1057828618
f
GR
GS
[0.75 0 0 0.75 101.5885 169.33346] CT
N
f-1057828618
f
GR
GS
[0.75 0 0 0.75 130.00304 132.19627] CT
N
f-1057828618
f
GR
GS
[0.75 0 0 0.75 157.07532 104.23559] CT
N
f-1057828618
f
GR
GS
[0.75 0 0 0.75 174.59523 82.99534] CT
N
f-1057828618
f
GR
GS
[0.75 0 0 0.75 190.58537 66.70375] CT
N
f-1057828618
f
GR
GS
[0.75 0 0 0.75 210.20487 54.13017] CT
N
f-1057828618
f
GR
GS
[0.75 0 0 0.75 226.26727 44.29934] CT
N
f-1057828618
f
GR
GS
[0.75 0 0 0.75 244.3905 36.65086] CT
N
f-1057828618
f
GR
GS
[0.75 0 0 0.75 258.88282 30.32102] CT
N
f-1057828618
f
GR
GS
[0.75 0 0 0.75 272.12711 25.41618] CT
N
f-1057828618
f
GR
GS
[0.75 0 0 0.75 83.80591 235.27875] CT
N
f-1057828618
f
GR
GS
[0.75 0 0 0.75 113.1967 181.79395] CT
N
f-1057828618
f
GR
GS
[0.75 0 0 0.75 133.63629 141.53195] CT
N
f-1057828618
f
GR
GS
[0.75 0 0 0.75 160.92032 111.59343] CT
N
f-1057828618
f
GR
GS
[0.75 0 0 0.75 186.6963 88.59477] CT
N
f-1057828618
f
GR
GS
[0.75 0 0 0.75 210.8026 71.30424] CT
N
f-1057828618
f
GR
GS
[0.75 0 0 0.75 228.08004 57.71545] CT
N
f-1057828618
f
GR
GS
[0.75 0 0 0.75 243.18816 47.22792] CT
N
f-1057828618
f
GR
GS
[0.75 0 0 0.75 260.28378 38.82241] CT
N
f-1057828618
f
GR
GS
[0.75 0 0 0.75 274.99931 32.09918] CT
N
f-1057828618
f
GR
GS
[0.75 0 0 0.75 284.10711 26.77949] CT
N
f-1057828618
f
GR
GS
[0.75 0 0 0.75 79.32946 239.02634] CT
N
f-1057828618
f
GR
GS
[0.75 0 0 0.75 108.80952 184.27392] CT
N
f-1057828618
f
GR
GS
[0.75 0 0 0.75 129.35305 143.38952] CT
N
f-1057828618
f
GR
GS
[0.75 0 0 0.75 148.77042 112.68295] CT
N
f-1057828618
f
GR
GS
[0.75 0 0 0.75 166.81974 89.43442] CT
N
f-1057828618
f
GR
GS
[0.75 0 0 0.75 183.36316 71.66351] CT
N
f-1057828618
f
GR
GS
[0.75 0 0 0.75 202.39043 58.09936] CT
N
f-1057828618
f
GR
GS
[0.75 0 0 0.75 222.83466 47.54952] CT
N
f-1057828618
f
GR
GS
[0.75 0 0 0.75 238.32692 39.02581] CT
N
f-1057828618
f
GR
GS
[0.75 0 0 0.75 249.19547 32.23159] CT
N
f-1057828618
f
GR
GS
[0.75 0 0 0.75 260.07014 26.87499] CT
N
f-1057828618
f
GR
GS
[0.75 0 0 0.75 82.92645 225.43564] CT
N
f-1057828618
f
GR
GS
[0.75 0 0 0.75 104.28077 174.14181] CT
N
f-1057828618
f
GR
GS
[0.75 0 0 0.75 132.73251 136.11382] CT
N
f-1057828618
f
GR
GS
[0.75 0 0 0.75 151.89036 107.19289] CT
N
f-1057828618
f
GR
GS
[0.75 0 0 0.75 177.62976 85.5673] CT
N
f-1057828618
f
GR
GS
[0.75 0 0 0.75 193.72939 68.99082] CT
N
f-1057828618
f
GR
GS
[0.75 0 0 0.75 210.45538 56.08] CT
N
f-1057828618
f
GR
GS
[0.75 0 0 0.75 226.17602 46.01359] CT
N
f-1057828618
f
GR
GS
[0.75 0 0 0.75 240.60924 38.06829] CT
N
f-1057828618
f
GR
GS
[0.75 0 0 0.75 258.02621 31.73825] CT
N
f-1057828618
f
GR
GS
[0.75 0 0 0.75 274.53701 26.53345] CT
N
f-1057828618
f
GR
GS
[0.75 0 0 0.75 68.57458 235.85038] CT
N
f-1057828618
f
GR
GS
[0.75 0 0 0.75 98.20064 181.90638] CT
N
f-1057828618
f
GR
GS
[0.75 0 0 0.75 126.86575 141.61877] CT
N
f-1057828618
f
GR
GS
[0.75 0 0 0.75 154.26451 111.66233] CT
N
f-1057828618
f
GR
GS
[0.75 0 0 0.75 172.17339 88.96638] CT
N
f-1057828618
f
GR
GS
[0.75 0 0 0.75 188.58805 71.29688] CT
N
f-1057828618
f
GR
GS
[0.75 0 0 0.75 209.22327 57.68406] CT
N
f-1057828618
f
GR
GS
[0.75 0 0 0.75 227.13016 47.29732] CT
N
f-1057828618
f
GR
GS
[0.75 0 0 0.75 246.27942 38.86623] CT
N
f-1057828618
f
GR
GS
[0.75 0 0 0.75 258.89028 32.21432] CT
N
f-1057828618
f
GR
GS
[0.75 0 0 0.75 275.88556 26.81252] CT
N
f-1057828618
f
GR
GS
[0.75 0 0 0.75 89.65006 233.00561] CT
N
f-1057828618
f
GR
GS
[0.75 0 0 0.75 110.95074 179.78663] CT
N
f-1057828618
f
GR
GS
[0.75 0 0 0.75 131.39644 140.02901] CT
N
f-1057828618
f
GR
GS
[0.75 0 0 0.75 158.67632 110.14811] CT
N
f-1057828618
f
GR
GS
[0.75 0 0 0.75 176.44098 87.81034] CT
N
f-1057828618
f
GR
GS
[0.75 0 0 0.75 192.70438 70.71626] CT
N
f-1057828618
f
GR
GS
[0.75 0 0 0.75 213.74126 57.2568] CT
N
f-1057828618
f
GR
GS
[0.75 0 0 0.75 232.19865 46.93282] CT
N
f-1057828618
f
GR
GS
[0.75 0 0 0.75 243.99593 38.64] CT
N
f-1057828618
f
GR
GS
[0.75 0 0 0.75 256.74909 31.91771] CT
N
f-1057828618
f
GR
GS
[0.75 0 0 0.75 273.72237 26.71677] CT
N
f-1057828618
f
GR
GS
[0.75 0 0 0.75 88.63432 218.51839] CT
N
f-1057828618
f
GR
GS
[0.75 0 0 0.75 117.83813 168.98154] CT
N
f-1057828618
f
GR
GS
[0.75 0 0 0.75 145.98691 131.9281] CT
N
f-1057828618
f
GR
GS
[0.75 0 0 0.75 172.78091 104.02292] CT
N
f-1057828618
f
GR
GS
[0.75 0 0 0.75 190.00805 83.12936] CT
N
f-1057828618
f
GR
GS
[0.75 0 0 0.75 213.69937 66.78317] CT
N
f-1057828618
f
GR
GS
[0.75 0 0 0.75 230.66567 54.1127] CT
N
f-1057828618
f
GR
GS
[0.75 0 0 0.75 249.73206 44.20408] CT
N
f-1057828618
f
GR
GS
[0.75 0 0 0.75 263.62122 36.4233] CT
N
f-1057828618
f
GR
GS
[0.75 0 0 0.75 280.19243 30.09172] CT
N
f-1057828618
f
GR
GS
[0.75 0 0 0.75 293.84008 25.19506] CT
N
f-1057828618
f
GR
GS
[0.75 0 0 0.75 84.72128 244.31145] CT
N
f-1057828618
f
GR
GS
[0.75 0 0 0.75 106.1595 188.21247] CT
N
f-1057828618
f
GR
GS
[0.75 0 0 0.75 134.7847 146.33767] CT
N
f-1057828618
f
GR
GS
[0.75 0 0 0.75 154.18873 114.9018] CT
N
f-1057828618
f
GR
GS
[0.75 0 0 0.75 172.2356 91.11569] CT
N
f-1057828618
f
GR
GS
[0.75 0 0 0.75 196.76511 72.94573] CT
N
f-1057828618
f
GR
GS
[0.75 0 0 0.75 214.70773 59.07861] CT
N
f-1057828618
f
GR
GS
[0.75 0 0 0.75 229.95149 48.15162] CT
N
f-1057828618
f
GR
GS
[0.75 0 0 0.75 248.816 39.49672] CT
N
f-1057828618
f
GR
GS
[0.75 0 0 0.75 263.62475 32.69035] CT
N
f-1057828618
f
GR
GS
[0.75 0 0 0.75 273.89802 27.11967] CT
N
f-1057828618
f
GR
GS
[0.75 0 0 0.75 79.30423 240.12912] CT
N
f-1057828618
f
GR
GS
[0.75 0 0 0.75 108.79064 185.09573] CT
N
f-1057828618
f
GR
GS
[0.75 0 0 0.75 137.33322 144.31773] CT
N
f-1057828618
f
GR
GS
[0.75 0 0 0.75 164.63056 113.37864] CT
N
f-1057828618
f
GR
GS
[0.75 0 0 0.75 182.43053 90.26189] CT
N
f-1057828618
f
GR
GS
[0.75 0 0 0.75 198.73116 72.27697] CT
N
f-1057828618
f
GR
GS
[0.75 0 0 0.75 215.73976 58.41882] CT
N
f-1057828618
f
GR
GS
[0.75 0 0 0.75 235.53037 47.75688] CT
N
f-1057828618
f
GR
GS
[0.75 0 0 0.75 251.15261 39.2388] CT
N
f-1057828618
f
GR
GS
[0.75 0 0 0.75 268.07966 32.47472] CT
N
f-1057828618
f
GR
GS
[0.75 0 0 0.75 281.61756 27.11131] CT
N
f-1057828618
f
GR
GS
[0.75 0 0 0.75 79.46479 224.22488] CT
N
f-1057828618
f
GR
GS
[0.75 0 0 0.75 108.85121 173.23871] CT
N
f-1057828618
f
GR
GS
[0.75 0 0 0.75 129.22816 135.12281] CT
N
f-1057828618
f
GR
GS
[0.75 0 0 0.75 148.41534 106.75969] CT
N
f-1057828618
f
GR
GS
[0.75 0 0 0.75 166.20932 84.92789] CT
N
f-1057828618
f
GR
GS
[0.75 0 0 0.75 182.48527 68.51618] CT
N
f-1057828618
f
GR
GS
[0.75 0 0 0.75 199.99267 55.69677] CT
N
f-1057828618
f
GR
GS
[0.75 0 0 0.75 217.61451 45.61042] CT
N
f-1057828618
f
GR
GS
[0.75 0 0 0.75 232.57413 37.68751] CT
N
f-1057828618
f
GR
GS
[0.75 0 0 0.75 247.18243 31.28458] CT
N
f-1057828618
f
GR
GS
[0.75 0 0 0.75 264.05516 26.10682] CT
N
f-1057828618
f
GR
GS
[0.75 0 0 0.75 77.96462 220.5291] CT
N
f-1057828618
f
GR
GS
[0.75 0 0 0.75 99.35988 170.79482] CT
N
f-1057828618
f
GR
GS
[0.75 0 0 0.75 119.84744 133.60575] CT
N
f-1057828618
f
GR
GS
[0.75 0 0 0.75 139.1467 105.61961] CT
N
f-1057828618
f
GR
GS
[0.75 0 0 0.75 157.05376 84.06903] CT
N
f-1057828618
f
GR
GS
[0.75 0 0 0.75 173.4493 67.86962] CT
N
f-1057828618
f
GR
GS
[0.75 0 0 0.75 193.39057 55.06153] CT
N
f-1057828618
f
GR
GS
[0.75 0 0 0.75 214.50652 45.12627] CT
N
f-1057828618
f
GR
GS
[0.75 0 0 0.75 234.28063 37.26543] CT
N
f-1057828618
f
GR
GS
[0.75 0 0 0.75 248.79524 31.04572] CT
N
f-1057828618
f
GR
GS
[0.75 0 0 0.75 261.43428 25.98206] CT
N
f-1057828618
f
GR
GS
[0.75 0 0 0.75 69.20385 218.78044] CT
N
f-1057828618
f
GR
GS
[0.75 0 0 0.75 90.72048 169.49021] CT
N
f-1057828618
f
GR
GS
[0.75 0 0 0.75 119.31127 132.62963] CT
N
f-1057828618
f
GR
GS
[0.75 0 0 0.75 146.57735 104.56963] CT
N
f-1057828618
f
GR
GS
[0.75 0 0 0.75 172.28936 83.26115] CT
N
f-1057828618
f
GR
GS
[0.75 0 0 0.75 188.3412 67.2249] CT
N
f-1057828618
f
GR
GS
[0.75 0 0 0.75 210.05791 54.6146] CT
N
f-1057828618
f
GR
GS
[0.75 0 0 0.75 227.01569 44.72235] CT
N
f-1057828618
f
GR
GS
[0.75 0 0 0.75 245.04563 36.91754] CT
N
f-1057828618
f
GR
GS
[0.75 0 0 0.75 256.76083 30.69571] CT
N
f-1057828618
f
GR
GS
[0.75 0 0 0.75 269.14112 25.52514] CT
N
f-1057828618
f
GR
GS
[0.75 0 0 0.75 83.82147 224.80095] CT
N
f-1057828618
f
GR
GS
[0.75 0 0 0.75 113.14521 173.98145] CT
N
f-1057828618
f
GR
GS
[0.75 0 0 0.75 141.45348 135.67862] CT
N
f-1057828618
f
GR
GS
[0.75 0 0 0.75 160.45218 106.85926] CT
N
f-1057828618
f
GR
GS
[0.75 0 0 0.75 186.02337 85.3045] CT
N
f-1057828618
f
GR
GS
[0.75 0 0 0.75 209.93404 68.46328] CT
N
f-1057828618
f
GR
GS
[0.75 0 0 0.75 227.021 55.57726] CT
N
f-1057828618
f
GR
GS
[0.75 0 0 0.75 242.77576 45.3848] CT
N
f-1057828618
f
GR
GS
[0.75 0 0 0.75 259.85083 37.42823] CT
N
f-1057828618
f
GR
GS
[0.75 0 0 0.75 275.21649 30.9013] CT
N
f-1057828618
f
GR
GS
[0.75 0 0 0.75 290.02865 25.70649] CT
N
f-1057828618
f
GR
GS
[0.75 0 0 0.75 70.22352 234.36182] CT
N
f-1057828618
f
GR
GS
[0.75 0 0 0.75 99.8159 181.10992] CT
N
f-1057828618
f
GR
GS
[0.75 0 0 0.75 120.45668 141.3351] CT
N
f-1057828618
f
GR
GS
[0.75 0 0 0.75 147.95421 111.45174] CT
N
f-1057828618
f
GR
GS
[0.75 0 0 0.75 173.95286 88.81211] CT
N
f-1057828618
f
GR
GS
[0.75 0 0 0.75 198.31217 71.17599] CT
N
f-1057828618
f
GR
GS
[0.75 0 0 0.75 214.71973 57.66794] CT
N
f-1057828618
f
GR
GS
[0.75 0 0 0.75 228.83276 47.08394] CT
N
f-1057828618
f
GR
GS
[0.75 0 0 0.75 245.33887 38.92622] CT
N
f-1057828618
f
GR
GS
[0.75 0 0 0.75 256.14519 32.38739] CT
N
f-1057828618
f
GR
GS
[0.75 0 0 0.75 265.5214 27.04829] CT
N
f-1057828618
f
GR
GS
[0.75 0 0 0.75 89.47038 227.24234] CT
N
f-1057828618
f
GR
GS
[0.75 0 0 0.75 118.72442 175.48934] CT
N
f-1057828618
f
GR
GS
[0.75 0 0 0.75 138.98094 136.80766] CT
N
f-1057828618
f
GR
GS
[0.75 0 0 0.75 158.05456 107.71315] CT
N
f-1057828618
f
GR
GS
[0.75 0 0 0.75 175.72046 85.64432] CT
N
f-1057828618
f
GR
GS
[0.75 0 0 0.75 191.86129 68.73985] CT
N
f-1057828618
f
GR
GS
[0.75 0 0 0.75 213.23932 55.68262] CT
N
f-1057828618
f
GR
GS
[0.75 0 0 0.75 234.09544 45.58521] CT
N
f-1057828618
f
GR
GS
[0.75 0 0 0.75 247.69075 37.71427] CT
N
f-1057828618
f
GR
GS
[0.75 0 0 0.75 261.89165 31.28035] CT
N
f-1057828618
f
GR
GS
[0.75 0 0 0.75 276.9088 26.25208] CT
N
f-1057828618
f
GR
GS
[0.75 0 0 0.75 84.92751 230.38521] CT
N
f-1057828618
f
GR
GS
[0.75 0 0 0.75 106.28392 177.83283] CT
N
f-1057828618
f
GR
GS
[0.75 0 0 0.75 134.76162 138.87929] CT
N
f-1057828618
f
GR
GS
[0.75 0 0 0.75 161.9531 109.27898] CT
N
f-1057828618
f
GR
GS
[0.75 0 0 0.75 179.62086 86.83269] CT
N
f-1057828618
f
GR
GS
[0.75 0 0 0.75 203.75059 69.64759] CT
N
f-1057828618
f
GR
GS
[0.75 0 0 0.75 223.61646 56.53608] CT
N
f-1057828618
f
GR
GS
[0.75 0 0 0.75 238.36501 46.20583] CT
N
f-1057828618
f
GR
GS
[0.75 0 0 0.75 256.69368 38.0968] CT
N
f-1057828618
f
GR
GS
[0.75 0 0 0.75 267.57914 31.60071] CT
N
f-1057828618
f
GR
GS
[0.75 0 0 0.75 278.81035 26.38929] CT
N
f-1057828618
f
GR
GS
[0.75 0 0 0.75 89.50081 233.93308] CT
N
f-1057828618
f
GR
GS
[0.75 0 0 0.75 110.80934 180.79107] CT
N
f-1057828618
f
GR
GS
[0.75 0 0 0.75 131.27206 141.09433] CT
N
f-1057828618
f
GR
GS
[0.75 0 0 0.75 150.59591 111.26463] CT
N
f-1057828618
f
GR
GS
[0.75 0 0 0.75 168.55233 88.66736] CT
N
f-1057828618
f
GR
GS
[0.75 0 0 0.75 185.01691 71.38543] CT
N
f-1057828618
f
GR
GS
[0.75 0 0 0.75 203.91978 57.813] CT
N
f-1057828618
f
GR
GS
[0.75 0 0 0.75 219.24442 47.18691] CT
N
f-1057828618
f
GR
GS
[0.75 0 0 0.75 231.77719 38.92804] CT
N
f-1057828618
f
GR
GS
[0.75 0 0 0.75 242.47355 32.40979] CT
N
f-1057828618
f
GR
GS
[0.75 0 0 0.75 252.03282 27.19027] CT
N
f-1057828618
f
GR
GS
[0.75 0 0 0.75 71.10616 238.17589] CT
N
f-1057828618
f
GR
GS
[0.75 0 0 0.75 92.71915 183.95269] CT
N
f-1057828618
f
GR
GS
[0.75 0 0 0.75 121.49896 143.15166] CT
N
f-1057828618
f
GR
GS
[0.75 0 0 0.75 149.02757 112.82055] CT
N
f-1057828618
f
GR
GS
[0.75 0 0 0.75 167.07817 89.85177] CT
N
f-1057828618
f
GR
GS
[0.75 0 0 0.75 191.62923 72.29634] CT
N
f-1057828618
f
GR
GS
[0.75 0 0 0.75 207.06319 58.59086] CT
N
f-1057828618
f
GR
GS
[0.75 0 0 0.75 221.83923 48.02527] CT
N
f-1057828618
f
GR
GS
[0.75 0 0 0.75 241.4423 39.57033] CT
N
f-1057828618
f
GR
GS
[0.75 0 0 0.75 259.65113 32.72044] CT
N
f-1057828618
f
GR
GS
[0.75 0 0 0.75 268.8929 27.22611] CT
N
f-1057828618
f
GR
GS
[0.75 0 0 0.75 86.10845 226.37412] CT
N
f-1057828618
f
GR
GS
[0.75 0 0 0.75 115.408 175.15479] CT
N
f-1057828618
f
GR
GS
[0.75 0 0 0.75 143.6993 136.87062] CT
N
f-1057828618
f
GR
GS
[0.75 0 0 0.75 162.69582 107.75801] CT
N
f-1057828618
f
GR
GS
[0.75 0 0 0.75 188.2686 85.98685] CT
N
f-1057828618
f
GR
GS
[0.75 0 0 0.75 204.19315 68.98476] CT
N
f-1057828618
f
GR
GS
[0.75 0 0 0.75 225.83375 55.85108] CT
N
f-1057828618
f
GR
GS
[0.75 0 0 0.75 243.28056 45.74094] CT
N
f-1057828618
f
GR
GS
[0.75 0 0 0.75 261.33508 37.70455] CT
N
f-1057828618
f
GR
GS
[0.75 0 0 0.75 278.38518 31.40217] CT
N
f-1057828618
f
GR
GS
[0.75 0 0 0.75 291.18338 26.09378] CT
N
f-1057828618
f
GR
GS
[0.75 0 0 0.75 72.08643 236.03319] CT
N
f-1057828618
f
GR
GS
[0.75 0 0 0.75 93.67252 182.35579] CT
N
f-1057828618
f
GR
GS
[0.75 0 0 0.75 114.42784 141.95602] CT
N
f-1057828618
f
GR
GS
[0.75 0 0 0.75 134.05453 111.60991] CT
N
f-1057828618
f
GR
GS
[0.75 0 0 0.75 152.31771 88.94533] CT
N
f-1057828618
f
GR
GS
[0.75 0 0 0.75 169.10422 71.62144] CT
N
f-1057828618
f
GR
GS
[0.75 0 0 0.75 192.0282 57.95375] CT
N
f-1057828618
f
GR
GS
[0.75 0 0 0.75 212.21107 47.34236] CT
N
f-1057828618
f
GR
GS
[0.75 0 0 0.75 225.72945 39.08038] CT
N
f-1057828618
f
GR
GS
[0.75 0 0 0.75 238.0654 32.61831] CT
N
f-1057828618
f
GR
GS
[0.75 0 0 0.75 250.27586 27.21232] CT
N
f-1057828618
f
GR
GS
[0.75 0 0 0.75 83.95993 229.56881] CT
N
f-1057828618
f
GR
GS
[0.75 0 0 0.75 105.32592 177.53708] CT
N
f-1057828618
f
GR
GS
[0.75 0 0 0.75 133.81423 138.3449] CT
N
f-1057828618
f
GR
GS
[0.75 0 0 0.75 161.00633 108.87627] CT
N
f-1057828618
f
GR
GS
[0.75 0 0 0.75 186.66022 86.52704] CT
N
f-1057828618
f
GR
GS
[0.75 0 0 0.75 202.64983 69.40246] CT
N
f-1057828618
f
GR
GS
[0.75 0 0 0.75 219.85947 56.43403] CT
N
f-1057828618
f
GR
GS
[0.75 0 0 0.75 233.94724 46.25402] CT
N
f-1057828618
f
GR
GS
[0.75 0 0 0.75 250.82524 38.13944] CT
N
f-1057828618
f
GR
GS
[0.75 0 0 0.75 266.49925 31.71173] CT
N
f-1057828618
f
GR
GS
[0.75 0 0 0.75 275.45256 26.44104] CT
N
f-1057828618
f
GR
GS
[0.75 0 0 0.75 74.75131 216.94966] CT
N
f-1057828618
f
GR
GS
[0.75 0 0 0.75 104.15611 168.12412] CT
N
f-1057828618
f
GR
GS
[0.75 0 0 0.75 124.52099 131.28848] CT
N
f-1057828618
f
GR
GS
[0.75 0 0 0.75 151.65745 103.55302] CT
N
f-1057828618
f
GR
GS
[0.75 0 0 0.75 169.24189 82.79366] CT
N
f-1057828618
f
GR
GS
[0.75 0 0 0.75 193.30879 66.5568] CT
N
f-1057828618
f
GR
GS
[0.75 0 0 0.75 213.44323 54.06779] CT
N
f-1057828618
f
GR
GS
[0.75 0 0 0.75 232.05476 44.3601] CT
N
f-1057828618
f
GR
GS
[0.75 0 0 0.75 248.02931 36.74687] CT
N
f-1057828618
f
GR
GS
[0.75 0 0 0.75 258.49878 30.38556] CT
N
f-1057828618
f
GR
GS
[0.75 0 0 0.75 269.64919 25.3865] CT
N
f-1057828618
f
GR
GS
[0.75 0 0 0.75 92.93002 240.75182] CT
N
f-1057828618
f
GR
GS
[0.75 0 0 0.75 114.22514 185.8735] CT
N
f-1057828618
f
GR
GS
[0.75 0 0 0.75 142.69288 144.89907] CT
N
f-1057828618
f
GR
GS
[0.75 0 0 0.75 161.92941 114.1272] CT
N
f-1057828618
f
GR
GS
[0.75 0 0 0.75 179.80844 90.83329] CT
N
f-1057828618
f
GR
GS
[0.75 0 0 0.75 196.19231 73.03193] CT
N
f-1057828618
f
GR
GS
[0.75 0 0 0.75 211.77775 59.09636] CT
N
f-1057828618
f
GR
GS
[0.75 0 0 0.75 225.20197 48.23827] CT
N
f-1057828618
f
GR
GS
[0.75 0 0 0.75 243.43716 39.7902] CT
N
f-1057828618
f
GR
GS
[0.75 0 0 0.75 257.52619 32.94936] CT
N
f-1057828618
f
GR
GS
[0.75 0 0 0.75 267.28258 27.47404] CT
N
f-1057828618
f
GR
GS
[0.75 0 0 0.75 84.41416 239.64105] CT
N
f-1057828618
f
GR
GS
[0.75 0 0 0.75 113.82022 184.73228] CT
N
f-1057828618
f
GR
GS
[0.75 0 0 0.75 142.2788 143.73187] CT
N
f-1057828618
f
GR
GS
[0.75 0 0 0.75 161.49134 112.93468] CT
N
f-1057828618
f
GR
GS
[0.75 0 0 0.75 179.32758 89.6142] CT
N
f-1057828618
f
GR
GS
[0.75 0 0 0.75 203.63473 71.78418] CT
N
f-1057828618
f
GR
GS
[0.75 0 0 0.75 219.62185 58.28008] CT
N
f-1057828618
f
GR
GS
[0.75 0 0 0.75 234.75391 47.49276] CT
N
f-1057828618
f
GR
GS
[0.75 0 0 0.75 253.66344 39.03105] CT
N
f-1057828618
f
GR
GS
[0.75 0 0 0.75 269.6337 32.42057] CT
N
f-1057828618
f
GR
GS
[0.75 0 0 0.75 283.13729 26.91092] CT
N
f-1057828618
f
GR
GS
[0.75 0 0 0.75 78.06484 215.62851] CT
N
f-1057828618
f
GR
GS
[0.75 0 0 0.75 99.42071 167.13815] CT
N
f-1057828618
f
GR
GS
[0.75 0 0 0.75 127.83138 130.86308] CT
N
f-1057828618
f
GR
GS
[0.75 0 0 0.75 154.89839 103.22939] CT
N
f-1057828618
f
GR
GS
[0.75 0 0 0.75 180.39623 82.23033] CT
N
f-1057828618
f
GR
GS
[0.75 0 0 0.75 204.21153 66.10571] CT
N
f-1057828618
f
GR
GS
[0.75 0 0 0.75 220.87766 53.75684] CT
N
f-1057828618
f
GR
GS
[0.75 0 0 0.75 239.49985 44.1804] CT
N
f-1057828618
f
GR
GS
[0.75 0 0 0.75 251.51701 36.5352] CT
N
f-1057828618
f
GR
GS
[0.75 0 0 0.75 265.60696 30.20787] CT
N
f-1057828618
f
GR
GS
[0.75 0 0 0.75 279.95915 25.30733] CT
N
f-1057828618
f
GR
GS
[0.75 0 0 0.75 75.07256 219.95049] CT
N
f-1057828618
f
GR
GS
[0.75 0 0 0.75 104.49537 170.05014] CT
N
f-1057828618
f
GR
GS
[0.75 0 0 0.75 124.88833 133.04604] CT
N
f-1057828618
f
GR
GS
[0.75 0 0 0.75 152.07315 104.88077] CT
N
f-1057828618
f
GR
GS
[0.75 0 0 0.75 177.70127 83.8055] CT
N
f-1057828618
f
GR
GS
[0.75 0 0 0.75 201.67284 67.63552] CT
N
f-1057828618
f
GR
GS
[0.75 0 0 0.75 222.59335 55.03291] CT
N
f-1057828618
f
GR
GS
[0.75 0 0 0.75 238.83577 45.08836] CT
N
f-1057828618
f
GR
GS
[0.75 0 0 0.75 256.70121 37.12784] CT
N
f-1057828618
f
GR
GS
[0.75 0 0 0.75 268.21703 30.86832] CT
N
f-1057828618
f
GR
GS
[0.75 0 0 0.75 277.99754 25.71535] CT
N
f-1057828618
f
GR
GS
[0.75 0 0 0.75 82.51515 241.25295] CT
N
f-1057828618
f
GR
GS
[0.75 0 0 0.75 103.97119 186.24639] CT
N
f-1057828618
f
GR
GS
[0.75 0 0 0.75 132.60496 144.86669] CT
N
f-1057828618
f
GR
GS
[0.75 0 0 0.75 152.00721 114.10758] CT
N
f-1057828618
f
GR
GS
[0.75 0 0 0.75 178.04692 90.82719] CT
N
f-1057828618
f
GR
GS
[0.75 0 0 0.75 194.46334 72.71664] CT
N
f-1057828618
f
GR
GS
[0.75 0 0 0.75 212.23743 58.88111] CT
N
f-1057828618
f
GR
GS
[0.75 0 0 0.75 231.2281 47.97565] CT
N
f-1057828618
f
GR
GS
[0.75 0 0 0.75 245.61843 39.43703] CT
N
f-1057828618
f
GR
GS
[0.75 0 0 0.75 263.82028 32.81647] CT
N
f-1057828618
f
GR
GS
[0.75 0 0 0.75 277.60645 27.372] CT
N
f-1057828618
f
GR
GS
[0.75 0 0 0.75 75.54326 238.30866] CT
N
f-1057828618
f
GR
GS
[0.75 0 0 0.75 105.077 183.73887] CT
N
f-1057828618
f
GR
GS
[0.75 0 0 0.75 125.67191 142.98959] CT
N
f-1057828618
f
GR
GS
[0.75 0 0 0.75 145.13963 112.38331] CT
N
f-1057828618
f
GR
GS
[0.75 0 0 0.75 171.22767 89.52299] CT
N
f-1057828618
f
GR
GS
[0.75 0 0 0.75 195.68122 72.03837] CT
N
f-1057828618
f
GR
GS
[0.75 0 0 0.75 216.93011 58.40852] CT
N
f-1057828618
f
GR
GS
[0.75 0 0 0.75 230.67741 47.68318] CT
N
f-1057828618
f
GR
GS
[0.75 0 0 0.75 249.69159 39.35072] CT
N
f-1057828618
f
GR
GS
[0.75 0 0 0.75 263.45572 32.52456] CT
N
f-1057828618
f
GR
GS
[0.75 0 0 0.75 272.83326 26.97295] CT
N
f-1057828618
f
GR
GS
[0.75 0 0 0.75 87.64532 229.07557] CT
N
f-1057828618
f
GR
GS
[0.75 0 0 0.75 108.95183 177.16938] CT
N
f-1057828618
f
GR
GS
[0.75 0 0 0.75 137.37711 138.06868] CT
N
f-1057828618
f
GR
GS
[0.75 0 0 0.75 164.50178 108.66587] CT
N
f-1057828618
f
GR
GS
[0.75 0 0 0.75 190.084 86.67641] CT
N
f-1057828618
f
GR
GS
[0.75 0 0 0.75 214.00582 69.82532] CT
N
f-1057828618
f
GR
GS
[0.75 0 0 0.75 230.09956 56.6452] CT
N
f-1057828618
f
GR
GS
[0.75 0 0 0.75 248.44196 46.2823] CT
N
f-1057828618
f
GR
GS
[0.75 0 0 0.75 265.67471 37.94485] CT
N
f-1057828618
f
GR
GS
[0.75 0 0 0.75 283.11992 31.42275] CT
N
f-1057828618
f
GR
GS
[0.75 0 0 0.75 299.25373 26.28182] CT
N
f-1057828618
f
GR
GS
[0.75 0 0 0.75 68.68229 237.04054] CT
N
f-1057828618
f
GR
GS
[0.75 0 0 0.75 98.31343 182.79344] CT
N
f-1057828618
f
GR
GS
[0.75 0 0 0.75 126.98922 142.2829] CT
N
f-1057828618
f
GR
GS
[0.75 0 0 0.75 146.41631 111.84997] CT
N
f-1057828618
f
GR
GS
[0.75 0 0 0.75 172.45917 89.11634] CT
N
f-1057828618
f
GR
GS
[0.75 0 0 0.75 196.86504 71.72459] CT
N
f-1057828618
f
GR
GS
[0.75 0 0 0.75 215.4256 58.19439] CT
N
f-1057828618
f
GR
GS
[0.75 0 0 0.75 231.54698 47.49704] CT
N
f-1057828618
f
GR
GS
[0.75 0 0 0.75 244.60551 39.17492] CT
N
f-1057828618
f
GR
GS
[0.75 0 0 0.75 256.59391 32.57403] CT
N
f-1057828618
f
GR
GS
[0.75 0 0 0.75 268.43976 27.05676] CT
N
f-1057828618
f
GR
GS
[0.75 0 0 0.75 79.85558 233.92242] CT
N
f-1057828618
f
GR
GS
[0.75 0 0 0.75 101.31107 180.46974] CT
N
f-1057828618
f
GR
GS
[0.75 0 0 0.75 121.91903 140.54242] CT
N
f-1057828618
f
GR
GS
[0.75 0 0 0.75 149.37074 110.85328] CT
N
f-1057828618
f
GR
GS
[0.75 0 0 0.75 175.31847 88.04266] CT
N
f-1057828618
f
GR
GS
[0.75 0 0 0.75 191.6174 70.58327] CT
N
f-1057828618
f
GR
GS
[0.75 0 0 0.75 213.54673 57.26564] CT
N
f-1057828618
f
GR
GS
[0.75 0 0 0.75 229.33976 46.79524] CT
N
f-1057828618
f
GR
GS
[0.75 0 0 0.75 248.21722 38.4948] CT
N
f-1057828618
f
GR
GS
[0.75 0 0 0.75 261.46621 31.853] CT
N
f-1057828618
f
GR
GS
[0.75 0 0 0.75 278.10329 26.5684] CT
N
f-1057828618
f
GR
GS
[0.75 0 0 0.75 81.69282 236.82894] CT
N
f-1057828618
f
GR
GS
[0.75 0 0 0.75 103.1372 182.94932] CT
N
f-1057828618
f
GR
GS
[0.75 0 0 0.75 123.75167 142.71179] CT
N
f-1057828618
f
GR
GS
[0.75 0 0 0.75 143.24387 112.17489] CT
N
f-1057828618
f
GR
GS
[0.75 0 0 0.75 169.35647 89.3663] CT
N
f-1057828618
f
GR
GS
[0.75 0 0 0.75 185.84821 71.92072] CT
N
f-1057828618
f
GR
GS
[0.75 0 0 0.75 204.45607 58.40736] CT
N
f-1057828618
f
GR
GS
[0.75 0 0 0.75 217.94987 47.66845] CT
N
f-1057828618
f
GR
GS
[0.75 0 0 0.75 232.80196 39.1902] CT
N
f-1057828618
f
GR
GS
[0.75 0 0 0.75 246.9687 32.54726] CT
N
f-1057828618
f
GR
GS
[0.75 0 0 0.75 256.82268 27.3284] CT
N
f-1057828618
f
GR
GS
[0.75 0 0 0.75 69.73803 227.97332] CT
N
f-1057828618
f
GR
GS
[0.75 0 0 0.75 91.31095 176.03402] CT
N
f-1057828618
f
GR
GS
[0.75 0 0 0.75 119.99835 137.22166] CT
N
f-1057828618
f
GR
GS
[0.75 0 0 0.75 139.4016 108.3493] CT
N
f-1057828618
f
GR
GS
[0.75 0 0 0.75 157.4283 86.1472] CT
N
f-1057828618
f
GR
GS
[0.75 0 0 0.75 181.93546 69.46621] CT
N
f-1057828618
f
GR
GS
[0.75 0 0 0.75 200.47746 56.35227] CT
N
f-1057828618
f
GR
GS
[0.75 0 0 0.75 221.11498 46.2476] CT
N
f-1057828618
f
GR
GS
[0.75 0 0 0.75 238.62408 38.12439] CT
N
f-1057828618
f
GR
GS
[0.75 0 0 0.75 252.49308 31.54187] CT
N
f-1057828618
f
GR
GS
[0.75 0 0 0.75 264.81919 26.46434] CT
N
f-1057828618
f
GR
GS
[0.75 0 0 0.75 84.175 227.03545] CT
N
f-1057828618
f
GR
GS
[0.75 0 0 0.75 105.52107 175.33494] CT
N
f-1057828618
f
GR
GS
[0.75 0 0 0.75 133.97214 136.69477] CT
N
f-1057828618
f
GR
GS
[0.75 0 0 0.75 153.12631 107.94377] CT
N
f-1057828618
f
GR
GS
[0.75 0 0 0.75 170.89051 85.82486] CT
N
f-1057828618
f
GR
GS
[0.75 0 0 0.75 187.13452 69.19877] CT
N
f-1057828618
f
GR
GS
[0.75 0 0 0.75 208.92773 56.1633] CT
N
f-1057828618
f
GR
GS
[0.75 0 0 0.75 224.98737 46.0649] CT
N
f-1057828618
f
GR
GS
[0.75 0 0 0.75 240.19526 37.85091] CT
N
f-1057828618
f
GR
GS
[0.75 0 0 0.75 251.52207 31.44881] CT
N
f-1057828618
f
GR
GS
[0.75 0 0 0.75 267.56314 26.43565] CT
N
f-1057828618
f
GR
GS
[0.75 0 0 0.75 85.72703 215.92443] CT
N
f-1057828618
f
GR
GS
[0.75 0 0 0.75 106.96748 167.35886] CT
N
f-1057828618
f
GR
GS
[0.75 0 0 0.75 135.26127 130.71361] CT
N
f-1057828618
f
GR
GS
[0.75 0 0 0.75 162.19775 103.11163] CT
N
f-1057828618
f
GR
GS
[0.75 0 0 0.75 179.57073 82.13257] CT
N
f-1057828618
f
GR
GS
[0.75 0 0 0.75 195.40782 66.3447] CT
N
f-1057828618
f
GR
GS
[0.75 0 0 0.75 210.97888 53.84579] CT
N
f-1057828618
f
GR
GS
[0.75 0 0 0.75 228.80598 44.07794] CT
N
f-1057828618
f
GR
GS
[0.75 0 0 0.75 246.60558 36.54839] CT
N
f-1057828618
f
GR
GS
[0.75 0 0 0.75 264.21581 30.38296] CT
N
f-1057828618
f
GR
GS
[0.75 0 0 0.75 278.98464 25.31798] CT
N
f-1057828618
f
GR
GS
[0.75 0 0 0.75 89.44134 241.66817] CT
N
f-1057828618
f
GR
GS
[0.75 0 0 0.75 110.7943 186.24317] CT
N
f-1057828618
f
GR
GS
[0.75 0 0 0.75 139.32091 144.86327] CT
N
f-1057828618
f
GR
GS
[0.75 0 0 0.75 166.59968 113.78882] CT
N
f-1057828618
f
GR
GS
[0.75 0 0 0.75 192.36999 90.25893] CT
N
f-1057828618
f
GR
GS
[0.75 0 0 0.75 208.48441 72.26115] CT
N
f-1057828618
f
GR
GS
[0.75 0 0 0.75 226.29085 58.65768] CT
N
f-1057828618
f
GR
GS
[0.75 0 0 0.75 245.24016 47.99303] CT
N
f-1057828618
f
GR
GS
[0.75 0 0 0.75 257.84738 39.42651] CT
N
f-1057828618
f
GR
GS
[0.75 0 0 0.75 270.01273 32.69258] CT
N
f-1057828618
f
GR
GS
[0.75 0 0 0.75 282.15429 27.25398] CT
N
f-1057828618
f
GR
GS
[0.75 0 0 0.75 77.59486 227.47987] CT
N
f-1057828618
f
GR
GS
[0.75 0 0 0.75 99.04444 175.97924] CT
N
f-1057828618
f
GR
GS
[0.75 0 0 0.75 119.62086 137.49197] CT
N
f-1057828618
f
GR
GS
[0.75 0 0 0.75 147.02562 108.5535] CT
N
f-1057828618
f
GR
GS
[0.75 0 0 0.75 172.91342 86.29508] CT
N
f-1057828618
f
GR
GS
[0.75 0 0 0.75 197.13629 69.2442] CT
N
f-1057828618
f
GR
GS
[0.75 0 0 0.75 214.01349 56.25389] CT
N
f-1057828618
f
GR
GS
[0.75 0 0 0.75 231.20428 46.08708] CT
N
f-1057828618
f
GR
GS
[0.75 0 0 0.75 249.39864 37.89671] CT
N
f-1057828618
f
GR
GS
[0.75 0 0 0.75 263.9764 31.52113] CT
N
f-1057828618
f
GR
GS
[0.75 0 0 0.75 278.32075 26.39057] CT
N
f-1057828618
f
GR
GS
[0.75 0 0 0.75 79.46483 234.52973] CT
N
f-1057828618
f
GR
GS
[0.75 0 0 0.75 108.91735 180.92242] CT
N
f-1057828618
f
GR
GS
[0.75 0 0 0.75 137.39932 140.88005] CT
N
f-1057828618
f
GR
GS
[0.75 0 0 0.75 156.61547 110.78687] CT
N
f-1057828618
f
GR
GS
[0.75 0 0 0.75 174.44474 87.98529] CT
N
f-1057828618
f
GR
GS
[0.75 0 0 0.75 198.74412 70.54046] CT
N
f-1057828618
f
GR
GS
[0.75 0 0 0.75 221.24474 57.06234] CT
N
f-1057828618
f
GR
GS
[0.75 0 0 0.75 237.45545 46.80465] CT
N
f-1057828618
f
GR
GS
[0.75 0 0 0.75 253.26954 38.63451] CT
N
f-1057828618
f
GR
GS
[0.75 0 0 0.75 265.15656 32.07636] CT
N
f-1057828618
f
GR
GS
[0.75 0 0 0.75 274.88287 26.67043] CT
N
f-1057828618
f
GR
GS
[0.75 0 0 0.75 87.24156 229.56139] CT
N
f-1057828618
f
GR
GS
[0.75 0 0 0.75 108.55738 177.21861] CT
N
f-1057828618
f
GR
GS
[0.75 0 0 0.75 136.98968 138.10566] CT
N
f-1057828618
f
GR
GS
[0.75 0 0 0.75 164.12188 109.00698] CT
N
f-1057828618
f
GR
GS
[0.75 0 0 0.75 189.72635 86.93652] CT
N
f-1057828618
f
GR
GS
[0.75 0 0 0.75 213.67149 69.71279] CT
N
f-1057828618
f
GR
GS
[0.75 0 0 0.75 233.8689 56.64322] CT
N
f-1057828618
f
GR
GS
[0.75 0 0 0.75 253.06819 46.43877] CT
N
f-1057828618
f
GR
GS
[0.75 0 0 0.75 267.48312 38.13829] CT
N
f-1057828618
f
GR
GS
[0.75 0 0 0.75 283.4659 31.62365] CT
N
f-1057828618
f
GR
GS
[0.75 0 0 0.75 297.87165 26.19871] CT
N
f-1057828618
f
GR
GS
[0.75 0 0 0.75 73.7718 242.51029] CT
N
f-1057828618
f
GR
GS
[0.75 0 0 0.75 95.36722 187.18279] CT
N
f-1057828618
f
GR
GS
[0.75 0 0 0.75 116.16085 145.56868] CT
N
f-1057828618
f
GR
GS
[0.75 0 0 0.75 135.85238 114.33118] CT
N
f-1057828618
f
GR
GS
[0.75 0 0 0.75 154.19704 90.69839] CT
N
f-1057828618
f
GR
GS
[0.75 0 0 0.75 171.05156 72.65014] CT
N
f-1057828618
f
GR
GS
[0.75 0 0 0.75 194.35824 58.92792] CT
N
f-1057828618
f
GR
GS
[0.75 0 0 0.75 208.4206 48.25903] CT
N
f-1057828618
f
GR
GS
[0.75 0 0 0.75 223.89759 39.82115] CT
N
f-1057828618
f
GR
GS
[0.75 0 0 0.75 236.69456 32.91927] CT
N
f-1057828618
f
GR
GS
[0.75 0 0 0.75 251.90895 27.37531] CT
N
f-1057828618
f
GR
GS
[0.75 0 0 0.75 78.97354 217.13412] CT
N
f-1057828618
f
GR
GS
[0.75 0 0 0.75 100.32742 167.94872] CT
N
f-1057828618
f
GR
GS
[0.75 0 0 0.75 128.73794 131.47092] CT
N
f-1057828618
f
GR
GS
[0.75 0 0 0.75 155.80885 103.68823] CT
N
f-1057828618
f
GR
GS
[0.75 0 0 0.75 181.31259 82.5793] CT
N
f-1057828618
f
GR
GS
[0.75 0 0 0.75 205.13372 66.68602] CT
N
f-1057828618
f
GR
GS
[0.75 0 0 0.75 221.07697 54.25] CT
N
f-1057828618
f
GR
GS
[0.75 0 0 0.75 238.40609 44.34145] CT
N
f-1057828618
f
GR
GS
[0.75 0 0 0.75 251.91053 36.62423] CT
N
f-1057828618
f
GR
GS
[0.75 0 0 0.75 268.6983 30.38958] CT
N
f-1057828618
f
GR
GS
[0.75 0 0 0.75 285.24534 25.476] CT
N
f-1057828618
f
GR
GS
[0.75 0 0 0.75 89.33695 225.4122] CT
N
f-1057828618
f
GR
GS
[0.75 0 0 0.75 110.593 174.43741] CT
N
f-1057828618
f
GR
GS
[0.75 0 0 0.75 130.96177 136.02098] CT
N
f-1057828618
f
GR
GS
[0.75 0 0 0.75 158.134 107.43682] CT
N
f-1057828618
f
GR
GS
[0.75 0 0 0.75 183.77329 85.43379] CT
N
f-1057828618
f
GR
GS
[0.75 0 0 0.75 199.74758 68.87906] CT
N
f-1057828618
f
GR
GS
[0.75 0 0 0.75 218.7697 55.84287] CT
N
f-1057828618
f
GR
GS
[0.75 0 0 0.75 237.57113 45.61835] CT
N
f-1057828618
f
GR
GS
[0.75 0 0 0.75 252.03296 37.62783] CT
N
f-1057828618
f
GR
GS
[0.75 0 0 0.75 269.70408 31.20169] CT
N
f-1057828618
f
GR
GS
[0.75 0 0 0.75 285.21581 26.10114] CT
N
f-1057828618
f
GR
GS
[0.75 0 0 0.75 83.88185 228.15096] CT
N
f-1057828618
f
GR
GS
[0.75 0 0 0.75 113.22733 176.47978] CT
N
f-1057828618
f
GR
GS
[0.75 0 0 0.75 141.57417 137.55109] CT
N
f-1057828618
f
GR
GS
[0.75 0 0 0.75 160.62622 108.27289] CT
N
f-1057828618
f
GR
GS
[0.75 0 0 0.75 186.25943 86.38101] CT
N
f-1057828618
f
GR
GS
[0.75 0 0 0.75 210.23486 69.60377] CT
N
f-1057828618
f
GR
GS
[0.75 0 0 0.75 229.48547 56.52292] CT
N
f-1057828618
f
GR
GS
[0.75 0 0 0.75 245.75649 46.09862] CT
N
f-1057828618
f
GR
GS
[0.75 0 0 0.75 258.55112 38.02366] CT
N
f-1057828618
f
GR
GS
[0.75 0 0 0.75 272.34473 31.5698] CT
N
f-1057828618
f
GR
GS
[0.75 0 0 0.75 287.43741 26.16446] CT
N
f-1057828618
f
GR
GS
[0.75 0 0 0.75 71.54714 239.15232] CT
N
f-1057828618
f
GR
GS
[0.75 0 0 0.75 101.14626 184.68042] CT
N
f-1057828618
f
GR
GS
[0.75 0 0 0.75 129.8034 143.69503] CT
N
f-1057828618
f
GR
GS
[0.75 0 0 0.75 157.20886 112.91299] CT
N
f-1057828618
f
GR
GS
[0.75 0 0 0.75 175.11948 89.6016] CT
N
f-1057828618
f
GR
GS
[0.75 0 0 0.75 199.50476 71.78032] CT
N
f-1057828618
f
GR
GS
[0.75 0 0 0.75 221.65235 58.08759] CT
N
f-1057828618
f
GR
GS
[0.75 0 0 0.75 238.55026 47.40619] CT
N
f-1057828618
f
GR
GS
[0.75 0 0 0.75 257.17882 39.10912] CT
N
f-1057828618
f
GR
GS
[0.75 0 0 0.75 270.44378 32.23314] CT
N
f-1057828618
f
GR
GS
[0.75 0 0 0.75 282.51366 26.8055] CT
N
f-1057828618
f
GR
GS
[0.75 0 0 0.75 91.31091 215.41121] CT
N
f-1057828618
f
GR
GS
[0.75 0 0 0.75 120.44881 166.97575] CT
N
f-1057828618
f
GR
GS
[0.75 0 0 0.75 140.53229 130.42245] CT
N
f-1057828618
f
GR
GS
[0.75 0 0 0.75 167.37017 102.8881] CT
N
f-1057828618
f
GR
GS
[0.75 0 0 0.75 192.62631 81.95638] CT
N
f-1057828618
f
GR
GS
[0.75 0 0 0.75 216.18798 66.18847] CT
N
f-1057828618
f
GR
GS
[0.75 0 0 0.75 237.76234 53.76928] CT
N
f-1057828618
f
GR
GS
[0.75 0 0 0.75 250.25647 43.96471] CT
N
f-1057828618
f
GR
GS
[0.75 0 0 0.75 265.28059 36.39945] CT
N
f-1057828618
f
GR
GS
[0.75 0 0 0.75 281.94944 30.25616] CT
N
f-1057828618
f
GR
GS
[0.75 0 0 0.75 292.07455 25.34994] CT
N
f-1057828618
f
GR
GS
[0.75 0 0 0.75 75.59082 239.41673] CT
N
f-1057828618
f
GR
GS
[0.75 0 0 0.75 105.12984 184.87767] CT
N
f-1057828618
f
GR
GS
[0.75 0 0 0.75 125.73956 144.15505] CT
N
f-1057828618
f
GR
GS
[0.75 0 0 0.75 153.22422 113.57463] CT
N
f-1057828618
f
GR
GS
[0.75 0 0 0.75 179.22033 90.10812] CT
N
f-1057828618
f
GR
GS
[0.75 0 0 0.75 203.55929 72.47637] CT
N
f-1057828618
f
GR
GS
[0.75 0 0 0.75 226.04025 58.57932] CT
N
f-1057828618
f
GR
GS
[0.75 0 0 0.75 239.43192 47.83484] CT
N
f-1057828618
f
GR
GS
[0.75 0 0 0.75 253.60098 39.3099] CT
N
f-1057828618
f
GR
GS
[0.75 0 0 0.75 265.65585 32.53297] CT
N
f-1057828618
f
GR
GS
[0.75 0 0 0.75 279.48688 27.08056] CT
N
f-1057828618
f
GR
GS
[0.75 0 0 0.75 79.25189 245.45792] CT
N
f-1057828618
f
GR
GS
[0.75 0 0 0.75 108.76631 189.37929] CT
N
f-1057828618
f
GR
GS
[0.75 0 0 0.75 129.37809 147.52335] CT
N
f-1057828618
f
GR
GS
[0.75 0 0 0.75 148.90085 115.79728] CT
N
f-1057828618
f
GR
GS
[0.75 0 0 0.75 175.06424 91.80043] CT
N
f-1057828618
f
GR
GS
[0.75 0 0 0.75 199.58121 73.77996] CT
N
f-1057828618
f
GR
GS
[0.75 0 0 0.75 216.18105 59.71789] CT
N
f-1057828618
f
GR
GS
[0.75 0 0 0.75 237.14063 48.64609] CT
N
f-1057828618
f
GR
GS
[0.75 0 0 0.75 252.46001 40.04877] CT
N
f-1057828618
f
GR
GS
[0.75 0 0 0.75 263.2684 33.07337] CT
N
f-1057828618
f
GR
GS
[0.75 0 0 0.75 276.46328 27.64642] CT
N
f-1057828618
f
GR
GS
[0.75 0 0 0.75 78.68654 241.28667] CT
N
f-1057828618
f
GR
GS
[0.75 0 0 0.75 108.18845 186.27129] CT
N
f-1057828618
f
GR
GS
[0.75 0 0 0.75 136.75632 145.1977] CT
N
f-1057828618
f
GR
GS
[0.75 0 0 0.75 164.08611 114.04203] CT
N
f-1057828618
f
GR
GS
[0.75 0 0 0.75 189.91124 90.45364] CT
N
f-1057828618
f
GR
GS
[0.75 0 0 0.75 214.07098 72.72694] CT
N
f-1057828618
f
GR
GS
[0.75 0 0 0.75 235.55608 59.01531] CT
N
f-1057828618
f
GR
GS
[0.75 0 0 0.75 250.73641 48.24373] CT
N
f-1057828618
f
GR
GS
[0.75 0 0 0.75 269.50037 39.77779] CT
N
f-1057828618
f
GR
GS
[0.75 0 0 0.75 284.05227 32.83804] CT
N
f-1057828618
f
GR
GS
[0.75 0 0 0.75 297.87305 27.179] CT
N
f-1057828618
f
GR
%%Trailer
%%Pages: 1
%%EOF
